%!PS-Adobe-3.0 EPSF-3.0
%%Creator: cairo 1.16.0 (https://cairographics.org)
%%CreationDate: Tue May  5 07:53:49 2020
%%Pages: 1
%%DocumentData: Clean7Bit
%%LanguageLevel: 2
%%BoundingBox: 0 56 384 328
%%EndComments
%%BeginProlog
50 dict begin
/q { gsave } bind def
/Q { grestore } bind def
/cm { 6 array astore concat } bind def
/w { setlinewidth } bind def
/J { setlinecap } bind def
/j { setlinejoin } bind def
/M { setmiterlimit } bind def
/d { setdash } bind def
/m { moveto } bind def
/l { lineto } bind def
/c { curveto } bind def
/h { closepath } bind def
/re { exch dup neg 3 1 roll 5 3 roll moveto 0 rlineto
      0 exch rlineto 0 rlineto closepath } bind def
/S { stroke } bind def
/f { fill } bind def
/f* { eofill } bind def
/n { newpath } bind def
/W { clip } bind def
/W* { eoclip } bind def
/BT { } bind def
/ET { } bind def
/BDC { mark 3 1 roll /BDC pdfmark } bind def
/EMC { mark /EMC pdfmark } bind def
/cairo_store_point { /cairo_point_y exch def /cairo_point_x exch def } def
/Tj { show currentpoint cairo_store_point } bind def
/TJ {
  {
    dup
    type /stringtype eq
    { show } { -0.001 mul 0 cairo_font_matrix dtransform rmoveto } ifelse
  } forall
  currentpoint cairo_store_point
} bind def
/cairo_selectfont { cairo_font_matrix aload pop pop pop 0 0 6 array astore
    cairo_font exch selectfont cairo_point_x cairo_point_y moveto } bind def
/Tf { pop /cairo_font exch def /cairo_font_matrix where
      { pop cairo_selectfont } if } bind def
/Td { matrix translate cairo_font_matrix matrix concatmatrix dup
      /cairo_font_matrix exch def dup 4 get exch 5 get cairo_store_point
      /cairo_font where { pop cairo_selectfont } if } bind def
/Tm { 2 copy 8 2 roll 6 array astore /cairo_font_matrix exch def
      cairo_store_point /cairo_font where { pop cairo_selectfont } if } bind def
/g { setgray } bind def
/rg { setrgbcolor } bind def
/d1 { setcachedevice } bind def
/cairo_data_source {
  CairoDataIndex CairoData length lt
    { CairoData CairoDataIndex get /CairoDataIndex CairoDataIndex 1 add def }
    { () } ifelse
} def
/cairo_flush_ascii85_file { cairo_ascii85_file status { cairo_ascii85_file flushfile } if } def
/cairo_image { image cairo_flush_ascii85_file } def
/cairo_imagemask { imagemask cairo_flush_ascii85_file } def
%%EndProlog
%%BeginSetup
%%EndSetup
%%Page: 1 1
%%BeginPageSetup
%%PageBoundingBox: 0 56 384 328
%%EndPageSetup
q 0 56 384 272 rectclip
1 0 0 -1 0 384 cm q
0.309804 0.858824 1 rg
248.625 56.625 m 169.5 192 l 248.625 327.375 l 323.27 327.375 384 266.645
 384 192 c 384 117.355 323.27 56.625 248.625 56.625 c h
248.625 56.625 m f
0.541176 0.905882 1 rg
135.375 56.625 m 60.73 56.625 0 117.355 0 192 c 0 266.645 60.73 327.375
 135.375 327.375 c 248.625 327.375 l 248.625 56.625 l h
135.375 56.625 m f
0.215686 0.243137 0.623529 rg
248.625 282.375 m 135.375 282.375 l 85.543 282.375 45 241.832 45 192 c 
45 142.168 85.543 101.625 135.375 101.625 c 248.625 101.625 l h
248.625 282.375 m f
0.231373 0.533333 0.960784 rg
248.625 101.625 m 192 192 l 248.625 282.375 l 298.539 282.375 339 241.914
 339 192 c 339 142.086 298.539 101.625 248.625 101.625 c h
248.625 101.625 m f
0.156863 0.670588 0.980392 rg
158.25 192 m 158.25 241.914 198.711 282.375 248.625 282.375 c 248.625 101.625
 l 198.711 101.625 158.25 142.086 158.25 192 c h
158.25 192 m f
Q Q
showpage
%%Trailer
end
%%EOF
