%!PS-Adobe-3.0 EPSF-3.0
%%Creator: cairo 1.16.0 (https://cairographics.org)
%%CreationDate: Tue May  5 07:53:50 2020
%%Pages: 1
%%DocumentData: Clean7Bit
%%LanguageLevel: 2
%%BoundingBox: 0 68 384 316
%%EndComments
%%BeginProlog
50 dict begin
/q { gsave } bind def
/Q { grestore } bind def
/cm { 6 array astore concat } bind def
/w { setlinewidth } bind def
/J { setlinecap } bind def
/j { setlinejoin } bind def
/M { setmiterlimit } bind def
/d { setdash } bind def
/m { moveto } bind def
/l { lineto } bind def
/c { curveto } bind def
/h { closepath } bind def
/re { exch dup neg 3 1 roll 5 3 roll moveto 0 rlineto
      0 exch rlineto 0 rlineto closepath } bind def
/S { stroke } bind def
/f { fill } bind def
/f* { eofill } bind def
/n { newpath } bind def
/W { clip } bind def
/W* { eoclip } bind def
/BT { } bind def
/ET { } bind def
/BDC { mark 3 1 roll /BDC pdfmark } bind def
/EMC { mark /EMC pdfmark } bind def
/cairo_store_point { /cairo_point_y exch def /cairo_point_x exch def } def
/Tj { show currentpoint cairo_store_point } bind def
/TJ {
  {
    dup
    type /stringtype eq
    { show } { -0.001 mul 0 cairo_font_matrix dtransform rmoveto } ifelse
  } forall
  currentpoint cairo_store_point
} bind def
/cairo_selectfont { cairo_font_matrix aload pop pop pop 0 0 6 array astore
    cairo_font exch selectfont cairo_point_x cairo_point_y moveto } bind def
/Tf { pop /cairo_font exch def /cairo_font_matrix where
      { pop cairo_selectfont } if } bind def
/Td { matrix translate cairo_font_matrix matrix concatmatrix dup
      /cairo_font_matrix exch def dup 4 get exch 5 get cairo_store_point
      /cairo_font where { pop cairo_selectfont } if } bind def
/Tm { 2 copy 8 2 roll 6 array astore /cairo_font_matrix exch def
      cairo_store_point /cairo_font where { pop cairo_selectfont } if } bind def
/g { setgray } bind def
/rg { setrgbcolor } bind def
/d1 { setcachedevice } bind def
/cairo_data_source {
  CairoDataIndex CairoData length lt
    { CairoData CairoDataIndex get /CairoDataIndex CairoDataIndex 1 add def }
    { () } ifelse
} def
/cairo_flush_ascii85_file { cairo_ascii85_file status { cairo_ascii85_file flushfile } if } def
/cairo_image { image cairo_flush_ascii85_file } def
/cairo_imagemask { imagemask cairo_flush_ascii85_file } def
%%EndProlog
%%BeginSetup
%%EndSetup
%%Page: 1 1
%%BeginPageSetup
%%PageBoundingBox: 0 68 384 316
%%EndPageSetup
q 0 68 384 248 rectclip
1 0 0 -1 0 384 cm q
0.219608 0.341176 0.737255 rg
384 68.25 m 237 68.25 l 203.25 101.625 l 237 135.75 l 384 135.75 l h
384 68.25 m f
0.227451 0.435294 0.847059 rg
90 68.25 147 67.5 re f
0.0784314 0.811765 1 rg
67.5 102 m 67.5 120.641 52.391 135.75 33.75 135.75 c 15.109 135.75 0 120.641
 0 102 c 0 83.359 15.109 68.25 33.75 68.25 c 52.391 68.25 67.5 83.359 67.5
 102 c h
67.5 102 m f
0.219608 0.341176 0.737255 rg
384 158.25 m 237 158.25 l 203.25 191.625 l 237 225.75 l 384 225.75 l h
384 158.25 m f
0.227451 0.435294 0.847059 rg
90 158.25 147 67.5 re f
0.0784314 0.811765 1 rg
67.5 192 m 67.5 210.641 52.391 225.75 33.75 225.75 c 15.109 225.75 0 210.641
 0 192 c 0 173.359 15.109 158.25 33.75 158.25 c 52.391 158.25 67.5 173.359
 67.5 192 c h
67.5 192 m f
0.219608 0.341176 0.737255 rg
384 248.25 m 237 248.25 l 203.25 281.625 l 237 315.75 l 384 315.75 l h
384 248.25 m f
0.227451 0.435294 0.847059 rg
90 248.25 147 67.5 re f
0.0784314 0.811765 1 rg
67.5 282 m 67.5 300.641 52.391 315.75 33.75 315.75 c 15.109 315.75 0 300.641
 0 282 c 0 263.359 15.109 248.25 33.75 248.25 c 52.391 248.25 67.5 263.359
 67.5 282 c h
67.5 282 m f
Q Q
showpage
%%Trailer
end
%%EOF
