%!PS-Adobe-3.0 EPSF-3.0
%%Creator: cairo 1.16.0 (https://cairographics.org)
%%CreationDate: Tue May  5 07:53:51 2020
%%Pages: 1
%%DocumentData: Clean7Bit
%%LanguageLevel: 2
%%BoundingBox: 0 0 384 384
%%EndComments
%%BeginProlog
50 dict begin
/q { gsave } bind def
/Q { grestore } bind def
/cm { 6 array astore concat } bind def
/w { setlinewidth } bind def
/J { setlinecap } bind def
/j { setlinejoin } bind def
/M { setmiterlimit } bind def
/d { setdash } bind def
/m { moveto } bind def
/l { lineto } bind def
/c { curveto } bind def
/h { closepath } bind def
/re { exch dup neg 3 1 roll 5 3 roll moveto 0 rlineto
      0 exch rlineto 0 rlineto closepath } bind def
/S { stroke } bind def
/f { fill } bind def
/f* { eofill } bind def
/n { newpath } bind def
/W { clip } bind def
/W* { eoclip } bind def
/BT { } bind def
/ET { } bind def
/BDC { mark 3 1 roll /BDC pdfmark } bind def
/EMC { mark /EMC pdfmark } bind def
/cairo_store_point { /cairo_point_y exch def /cairo_point_x exch def } def
/Tj { show currentpoint cairo_store_point } bind def
/TJ {
  {
    dup
    type /stringtype eq
    { show } { -0.001 mul 0 cairo_font_matrix dtransform rmoveto } ifelse
  } forall
  currentpoint cairo_store_point
} bind def
/cairo_selectfont { cairo_font_matrix aload pop pop pop 0 0 6 array astore
    cairo_font exch selectfont cairo_point_x cairo_point_y moveto } bind def
/Tf { pop /cairo_font exch def /cairo_font_matrix where
      { pop cairo_selectfont } if } bind def
/Td { matrix translate cairo_font_matrix matrix concatmatrix dup
      /cairo_font_matrix exch def dup 4 get exch 5 get cairo_store_point
      /cairo_font where { pop cairo_selectfont } if } bind def
/Tm { 2 copy 8 2 roll 6 array astore /cairo_font_matrix exch def
      cairo_store_point /cairo_font where { pop cairo_selectfont } if } bind def
/g { setgray } bind def
/rg { setrgbcolor } bind def
/d1 { setcachedevice } bind def
/cairo_data_source {
  CairoDataIndex CairoData length lt
    { CairoData CairoDataIndex get /CairoDataIndex CairoDataIndex 1 add def }
    { () } ifelse
} def
/cairo_flush_ascii85_file { cairo_ascii85_file status { cairo_ascii85_file flushfile } if } def
/cairo_image { image cairo_flush_ascii85_file } def
/cairo_imagemask { imagemask cairo_flush_ascii85_file } def
%%EndProlog
%%BeginSetup
%%EndSetup
%%Page: 1 1
%%BeginPageSetup
%%PageBoundingBox: 0 0 384 384
%%EndPageSetup
q 0 0 384 384 rectclip
1 0 0 -1 0 384 cm q
0.156863 0.670588 0.980392 rg
271.5 327.75 m 271.5 384 l 192 384 l 135.75 271.5 l h
271.5 327.75 m f
0.0784314 0.811765 1 rg
0 112.5 192 271.5 re f
1 0.905882 0.709804 rg
192 0 m 237 78.75 l 112.5 78.75 l 112.5 0 l h
192 0 m f
1 0.815686 0.415686 rg
192 0 192 271.5 re f
0.215686 0.243137 0.623529 rg
327.75 271.5 m 327.75 327.75 l 271.5 327.75 l 249 249 l h
327.75 271.5 m f
0.227451 0.435294 0.847059 rg
271.5 249 m 271.5 327.75 l 192 327.75 l 169.5 249 l h
271.5 249 m f
0.384314 0.254902 0.917647 rg
112.5 56.25 m 157.5 157.5 l 56.25 112.5 l 56.25 56.25 l h
112.5 56.25 m f
0.231373 0.533333 0.960784 rg
56.25 112.5 135.75 215.25 re f
0.176471 0.72549 0.301961 rg
327.75 56.25 m 327.75 271.5 l 271.5 271.5 l 147 192 l 192 56.25 l h
327.75 56.25 m f
0.380392 0.807843 0.352941 rg
192 56.25 m 192 192 l 112.5 112.5 l 112.5 56.25 l h
192 56.25 m f
271.5 112.5 m 271.5 271.5 l 192 271.5 l 147 192 l 192 112.5 l h
271.5 112.5 m f
0.580392 0.890196 0.407843 rg
112.5 112.5 79.5 159 re f
Q Q
showpage
%%Trailer
end
%%EOF
