%!PS-Adobe-3.0 EPSF-3.0
%%Creator: cairo 1.16.0 (https://cairographics.org)
%%CreationDate: Tue May  5 07:53:52 2020
%%Pages: 1
%%DocumentData: Clean7Bit
%%LanguageLevel: 2
%%BoundingBox: 0 0 384 384
%%EndComments
%%BeginProlog
50 dict begin
/q { gsave } bind def
/Q { grestore } bind def
/cm { 6 array astore concat } bind def
/w { setlinewidth } bind def
/J { setlinecap } bind def
/j { setlinejoin } bind def
/M { setmiterlimit } bind def
/d { setdash } bind def
/m { moveto } bind def
/l { lineto } bind def
/c { curveto } bind def
/h { closepath } bind def
/re { exch dup neg 3 1 roll 5 3 roll moveto 0 rlineto
      0 exch rlineto 0 rlineto closepath } bind def
/S { stroke } bind def
/f { fill } bind def
/f* { eofill } bind def
/n { newpath } bind def
/W { clip } bind def
/W* { eoclip } bind def
/BT { } bind def
/ET { } bind def
/BDC { mark 3 1 roll /BDC pdfmark } bind def
/EMC { mark /EMC pdfmark } bind def
/cairo_store_point { /cairo_point_y exch def /cairo_point_x exch def } def
/Tj { show currentpoint cairo_store_point } bind def
/TJ {
  {
    dup
    type /stringtype eq
    { show } { -0.001 mul 0 cairo_font_matrix dtransform rmoveto } ifelse
  } forall
  currentpoint cairo_store_point
} bind def
/cairo_selectfont { cairo_font_matrix aload pop pop pop 0 0 6 array astore
    cairo_font exch selectfont cairo_point_x cairo_point_y moveto } bind def
/Tf { pop /cairo_font exch def /cairo_font_matrix where
      { pop cairo_selectfont } if } bind def
/Td { matrix translate cairo_font_matrix matrix concatmatrix dup
      /cairo_font_matrix exch def dup 4 get exch 5 get cairo_store_point
      /cairo_font where { pop cairo_selectfont } if } bind def
/Tm { 2 copy 8 2 roll 6 array astore /cairo_font_matrix exch def
      cairo_store_point /cairo_font where { pop cairo_selectfont } if } bind def
/g { setgray } bind def
/rg { setrgbcolor } bind def
/d1 { setcachedevice } bind def
/cairo_data_source {
  CairoDataIndex CairoData length lt
    { CairoData CairoDataIndex get /CairoDataIndex CairoDataIndex 1 add def }
    { () } ifelse
} def
/cairo_flush_ascii85_file { cairo_ascii85_file status { cairo_ascii85_file flushfile } if } def
/cairo_image { image cairo_flush_ascii85_file } def
/cairo_imagemask { imagemask cairo_flush_ascii85_file } def
%%EndProlog
%%BeginSetup
%%EndSetup
%%Page: 1 1
%%BeginPageSetup
%%PageBoundingBox: 0 0 384 384
%%EndPageSetup
q 0 0 384 384 rectclip
1 0 0 -1 0 384 cm q
0.513726 0.639216 0.670588 rg
319.523 64.477 m 330.488 75.441 330.488 93.281 319.523 104.242 c 263.852
 159.918 l 263.848 159.918 225.934 166.02 225.934 166.02 c 219.836 203.93
 l 251.191 218.906 289.879 213.414 315.852 187.441 c 359.289 144.012 l 392.234
 111.066 392.234 57.652 359.289 24.707 c 323.5 28.684 l h
319.523 64.477 m f
0.576471 0.717647 0.752941 rg
279.758 64.477 m 290.719 53.512 308.559 53.512 319.523 64.477 c 359.293
 24.707 l 326.348 -8.234 272.934 -8.234 239.988 24.707 c 196.551 68.141 
l 170.578 94.113 165.086 132.809 180.066 164.164 c 217.98 158.066 l 224.082
 120.152 l h
279.758 64.477 m f
0.513726 0.639216 0.670588 rg
64.477 319.523 m 75.441 330.488 93.281 330.488 104.242 319.523 c 159.918
 263.852 l 159.918 263.848 166.02 225.934 166.02 225.934 c 203.93 219.836
 l 218.906 251.191 213.414 289.879 187.441 315.852 c 144.012 359.289 l 111.066
 392.234 57.652 392.234 24.707 359.289 c 28.684 323.5 l h
64.477 319.523 m f
0.576471 0.717647 0.752941 rg
64.477 279.758 m 53.512 290.719 53.512 308.559 64.477 319.523 c 24.707 
359.293 l -8.234 326.348 -8.234 272.934 24.707 239.988 c 68.141 196.551 
l 94.113 170.578 132.809 165.086 164.164 180.066 c 158.066 217.98 l 120.152
 224.082 l h
64.477 279.758 m f
263.852 159.918 m 274.812 148.953 274.812 131.113 263.848 120.152 c 176.094
 176.094 l 120.152 263.848 l 131.113 274.812 148.953 274.812 159.918 263.848
 c h
263.852 159.918 m f
0.67451 0.835294 0.87451 rg
224.082 120.152 m 120.152 224.082 l 109.188 235.047 109.188 252.887 120.152
 263.848 c 263.848 120.152 l 252.883 109.188 235.047 109.188 224.082 120.152
 c h
224.082 120.152 m f
Q Q
showpage
%%Trailer
end
%%EOF
