%!PS-Adobe-3.0 EPSF-3.0
%%Creator: cairo 1.16.0 (https://cairographics.org)
%%CreationDate: Tue May  5 07:53:52 2020
%%Pages: 1
%%DocumentData: Clean7Bit
%%LanguageLevel: 2
%%BoundingBox: 0 0 384 384
%%EndComments
%%BeginProlog
50 dict begin
/q { gsave } bind def
/Q { grestore } bind def
/cm { 6 array astore concat } bind def
/w { setlinewidth } bind def
/J { setlinecap } bind def
/j { setlinejoin } bind def
/M { setmiterlimit } bind def
/d { setdash } bind def
/m { moveto } bind def
/l { lineto } bind def
/c { curveto } bind def
/h { closepath } bind def
/re { exch dup neg 3 1 roll 5 3 roll moveto 0 rlineto
      0 exch rlineto 0 rlineto closepath } bind def
/S { stroke } bind def
/f { fill } bind def
/f* { eofill } bind def
/n { newpath } bind def
/W { clip } bind def
/W* { eoclip } bind def
/BT { } bind def
/ET { } bind def
/BDC { mark 3 1 roll /BDC pdfmark } bind def
/EMC { mark /EMC pdfmark } bind def
/cairo_store_point { /cairo_point_y exch def /cairo_point_x exch def } def
/Tj { show currentpoint cairo_store_point } bind def
/TJ {
  {
    dup
    type /stringtype eq
    { show } { -0.001 mul 0 cairo_font_matrix dtransform rmoveto } ifelse
  } forall
  currentpoint cairo_store_point
} bind def
/cairo_selectfont { cairo_font_matrix aload pop pop pop 0 0 6 array astore
    cairo_font exch selectfont cairo_point_x cairo_point_y moveto } bind def
/Tf { pop /cairo_font exch def /cairo_font_matrix where
      { pop cairo_selectfont } if } bind def
/Td { matrix translate cairo_font_matrix matrix concatmatrix dup
      /cairo_font_matrix exch def dup 4 get exch 5 get cairo_store_point
      /cairo_font where { pop cairo_selectfont } if } bind def
/Tm { 2 copy 8 2 roll 6 array astore /cairo_font_matrix exch def
      cairo_store_point /cairo_font where { pop cairo_selectfont } if } bind def
/g { setgray } bind def
/rg { setrgbcolor } bind def
/d1 { setcachedevice } bind def
/cairo_data_source {
  CairoDataIndex CairoData length lt
    { CairoData CairoDataIndex get /CairoDataIndex CairoDataIndex 1 add def }
    { () } ifelse
} def
/cairo_flush_ascii85_file { cairo_ascii85_file status { cairo_ascii85_file flushfile } if } def
/cairo_image { image cairo_flush_ascii85_file } def
/cairo_imagemask { imagemask cairo_flush_ascii85_file } def
%%EndProlog
%%BeginSetup
%%EndSetup
%%Page: 1 1
%%BeginPageSetup
%%PageBoundingBox: 0 0 384 384
%%EndPageSetup
q 0 0 384 384 rectclip
1 0 0 -1 0 384 cm q
0.0784314 0.811765 1 rg
144.645 149.215 m 229.051 107.012 l 239.109 127.129 l 154.703 169.332 l
 h
144.645 149.215 m f
144.609 234.793 m 154.668 214.676 l 239.074 256.879 l 229.016 276.996 l
 h
144.609 234.793 m f
0.294118 0.152941 0.658824 rg
84.375 107.625 m 31.508 192 l 84.375 276.375 l 130.973 276.375 168.75 238.598
 168.75 192 c 168.75 145.402 130.973 107.625 84.375 107.625 c h
84.375 107.625 m f
0.384314 0.254902 0.917647 rg
0 192 m 0 238.598 37.777 276.375 84.375 276.375 c 84.375 107.625 l 37.777
 107.625 0 145.402 0 192 c h
0 192 m f
0.380392 0.807843 0.352941 rg
84.375 152.625 m 59.703 192 l 84.375 231.375 l 106.121 231.375 123.75 213.746
 123.75 192 c 123.75 170.254 106.121 152.625 84.375 152.625 c h
84.375 152.625 m f
0.580392 0.890196 0.407843 rg
45 192 m 45 213.746 62.629 231.375 84.375 231.375 c 84.375 152.625 l 62.629
 152.625 45 170.254 45 192 c h
45 192 m f
0.294118 0.152941 0.658824 rg
299.625 0 m 246.758 84.375 l 299.625 168.75 l 346.223 168.75 384 130.973
 384 84.375 c 384 37.777 346.223 0 299.625 0 c h
299.625 0 m f
0.384314 0.254902 0.917647 rg
215.25 84.375 m 215.25 130.973 253.027 168.75 299.625 168.75 c 299.625 
0 l 253.027 0 215.25 37.777 215.25 84.375 c h
215.25 84.375 m f
0.380392 0.807843 0.352941 rg
299.625 45 m 274.953 84.375 l 299.625 123.75 l 321.371 123.75 339 106.121
 339 84.375 c 339 62.629 321.371 45 299.625 45 c h
299.625 45 m f
0.580392 0.890196 0.407843 rg
260.25 84.375 m 260.25 106.121 277.879 123.75 299.625 123.75 c 299.625 
45 l 277.879 45 260.25 62.629 260.25 84.375 c h
260.25 84.375 m f
0.294118 0.152941 0.658824 rg
299.625 215.25 m 246.758 299.625 l 299.625 384 l 346.223 384 384 346.223
 384 299.625 c 384 253.027 346.223 215.25 299.625 215.25 c h
299.625 215.25 m f
0.384314 0.254902 0.917647 rg
215.25 299.625 m 215.25 346.223 253.027 384 299.625 384 c 299.625 215.25
 l 253.027 215.25 215.25 253.027 215.25 299.625 c h
215.25 299.625 m f
0.380392 0.807843 0.352941 rg
299.625 260.25 m 274.953 299.625 l 299.625 339 l 321.371 339 339 321.371
 339 299.625 c 339 277.879 321.371 260.25 299.625 260.25 c h
299.625 260.25 m f
0.580392 0.890196 0.407843 rg
260.25 299.625 m 260.25 321.371 277.879 339 299.625 339 c 299.625 260.25
 l 277.879 260.25 260.25 277.879 260.25 299.625 c h
260.25 299.625 m f
Q Q
showpage
%%Trailer
end
%%EOF
