%!PS-Adobe-3.0 EPSF-3.0
%%Creator: cairo 1.16.0 (https://cairographics.org)
%%CreationDate: Tue May  5 07:53:53 2020
%%Pages: 1
%%DocumentData: Clean7Bit
%%LanguageLevel: 2
%%BoundingBox: 11 0 373 384
%%EndComments
%%BeginProlog
50 dict begin
/q { gsave } bind def
/Q { grestore } bind def
/cm { 6 array astore concat } bind def
/w { setlinewidth } bind def
/J { setlinecap } bind def
/j { setlinejoin } bind def
/M { setmiterlimit } bind def
/d { setdash } bind def
/m { moveto } bind def
/l { lineto } bind def
/c { curveto } bind def
/h { closepath } bind def
/re { exch dup neg 3 1 roll 5 3 roll moveto 0 rlineto
      0 exch rlineto 0 rlineto closepath } bind def
/S { stroke } bind def
/f { fill } bind def
/f* { eofill } bind def
/n { newpath } bind def
/W { clip } bind def
/W* { eoclip } bind def
/BT { } bind def
/ET { } bind def
/BDC { mark 3 1 roll /BDC pdfmark } bind def
/EMC { mark /EMC pdfmark } bind def
/cairo_store_point { /cairo_point_y exch def /cairo_point_x exch def } def
/Tj { show currentpoint cairo_store_point } bind def
/TJ {
  {
    dup
    type /stringtype eq
    { show } { -0.001 mul 0 cairo_font_matrix dtransform rmoveto } ifelse
  } forall
  currentpoint cairo_store_point
} bind def
/cairo_selectfont { cairo_font_matrix aload pop pop pop 0 0 6 array astore
    cairo_font exch selectfont cairo_point_x cairo_point_y moveto } bind def
/Tf { pop /cairo_font exch def /cairo_font_matrix where
      { pop cairo_selectfont } if } bind def
/Td { matrix translate cairo_font_matrix matrix concatmatrix dup
      /cairo_font_matrix exch def dup 4 get exch 5 get cairo_store_point
      /cairo_font where { pop cairo_selectfont } if } bind def
/Tm { 2 copy 8 2 roll 6 array astore /cairo_font_matrix exch def
      cairo_store_point /cairo_font where { pop cairo_selectfont } if } bind def
/g { setgray } bind def
/rg { setrgbcolor } bind def
/d1 { setcachedevice } bind def
/cairo_data_source {
  CairoDataIndex CairoData length lt
    { CairoData CairoDataIndex get /CairoDataIndex CairoDataIndex 1 add def }
    { () } ifelse
} def
/cairo_flush_ascii85_file { cairo_ascii85_file status { cairo_ascii85_file flushfile } if } def
/cairo_image { image cairo_flush_ascii85_file } def
/cairo_imagemask { imagemask cairo_flush_ascii85_file } def
%%EndProlog
%%BeginSetup
%%EndSetup
%%Page: 1 1
%%BeginPageSetup
%%PageBoundingBox: 11 0 373 384
%%EndPageSetup
q 11 0 362 384 rectclip
1 0 0 -1 0 384 cm q
1 0.364706 0.203922 rg
147 294 m 192 384 l 241.707 384 282 343.707 282 294 c h
147 294 m f
1 0.482353 0.176471 rg
237 0 m 192 0 l 158.25 74.09 l 237 74.09 l h
237 0 m f
102 294 m 102 343.707 142.293 384 192 384 c 192 294 l h
102 294 m f
1 0.603922 0.152941 rg
147 0 45 74.09 re f
372.75 316.5 m 372.75 277.316 355.203 240.805 324.605 216.328 c 315.07 
208.699 l 124.5 163.699 l 192 327.75 l 372.75 327.75 l h
372.75 316.5 m f
1 0.721569 0.12549 rg
68.93 208.699 m 59.395 216.328 l 28.797 240.805 11.25 277.316 11.25 316.5
 c 11.25 327.75 l 192 327.75 l 192 163.699 l h
68.93 208.699 m f
315.07 208.699 m 288.977 118.008 l 282.871 96.797 270.328 78.566 252.691
 65.293 c 235.059 52.016 214.074 45 192 45 c 147 138.195 l 192 208.699 l
 h
315.07 208.699 m f
1 0.815686 0.415686 rg
192 45 m 169.93 45 148.941 52.016 131.309 65.293 c 113.672 78.566 101.129
 96.797 95.023 118.008 c 68.93 208.699 l 192 208.699 l h
192 45 m f
Q Q
showpage
%%Trailer
end
%%EOF
