%!PS-Adobe-3.0 EPSF-3.0
%%Creator: cairo 1.16.0 (https://cairographics.org)
%%CreationDate: Tue May  5 07:53:54 2020
%%Pages: 1
%%DocumentData: Clean7Bit
%%LanguageLevel: 2
%%BoundingBox: 0 0 384 384
%%EndComments
%%BeginProlog
50 dict begin
/q { gsave } bind def
/Q { grestore } bind def
/cm { 6 array astore concat } bind def
/w { setlinewidth } bind def
/J { setlinecap } bind def
/j { setlinejoin } bind def
/M { setmiterlimit } bind def
/d { setdash } bind def
/m { moveto } bind def
/l { lineto } bind def
/c { curveto } bind def
/h { closepath } bind def
/re { exch dup neg 3 1 roll 5 3 roll moveto 0 rlineto
      0 exch rlineto 0 rlineto closepath } bind def
/S { stroke } bind def
/f { fill } bind def
/f* { eofill } bind def
/n { newpath } bind def
/W { clip } bind def
/W* { eoclip } bind def
/BT { } bind def
/ET { } bind def
/BDC { mark 3 1 roll /BDC pdfmark } bind def
/EMC { mark /EMC pdfmark } bind def
/cairo_store_point { /cairo_point_y exch def /cairo_point_x exch def } def
/Tj { show currentpoint cairo_store_point } bind def
/TJ {
  {
    dup
    type /stringtype eq
    { show } { -0.001 mul 0 cairo_font_matrix dtransform rmoveto } ifelse
  } forall
  currentpoint cairo_store_point
} bind def
/cairo_selectfont { cairo_font_matrix aload pop pop pop 0 0 6 array astore
    cairo_font exch selectfont cairo_point_x cairo_point_y moveto } bind def
/Tf { pop /cairo_font exch def /cairo_font_matrix where
      { pop cairo_selectfont } if } bind def
/Td { matrix translate cairo_font_matrix matrix concatmatrix dup
      /cairo_font_matrix exch def dup 4 get exch 5 get cairo_store_point
      /cairo_font where { pop cairo_selectfont } if } bind def
/Tm { 2 copy 8 2 roll 6 array astore /cairo_font_matrix exch def
      cairo_store_point /cairo_font where { pop cairo_selectfont } if } bind def
/g { setgray } bind def
/rg { setrgbcolor } bind def
/d1 { setcachedevice } bind def
/cairo_data_source {
  CairoDataIndex CairoData length lt
    { CairoData CairoDataIndex get /CairoDataIndex CairoDataIndex 1 add def }
    { () } ifelse
} def
/cairo_flush_ascii85_file { cairo_ascii85_file status { cairo_ascii85_file flushfile } if } def
/cairo_image { image cairo_flush_ascii85_file } def
/cairo_imagemask { imagemask cairo_flush_ascii85_file } def
%%EndProlog
%%BeginSetup
%%EndSetup
%%Page: 1 1
%%BeginPageSetup
%%PageBoundingBox: 0 0 384 384
%%EndPageSetup
q 0 0 384 384 rectclip
1 0 0 -1 0 384 cm q
0.203922 0.0509804 0.4 rg
192 0 m 71.703 192 l 192 384 l 298.039 384 384 298.039 384 192 c 384 85.961
 298.039 0 192 0 c h
192 0 m f
0.215686 0.243137 0.623529 rg
0 192 m 0 298.039 85.961 384 192 384 c 192 0 l 85.961 0 0 85.961 0 192 
c h
0 192 m f
0.380392 0.807843 0.352941 rg
242.625 53.953 m 242.625 116.672 l 266.828 132.973 282.75 160.625 282.75
 192 c 282.75 242.121 242.121 282.75 192 282.75 c 147 310.875 l 192 339 
l 273.188 339 339 273.188 339 192 c 339 128.605 298.867 74.582 242.625 53.953
 c h
242.625 53.953 m f
0.580392 0.890196 0.407843 rg
101.25 192 m 101.25 160.625 117.172 132.973 141.375 116.672 c 141.375 53.953
 l 85.133 74.582 45 128.605 45 192 c 45 273.188 110.812 339 192 339 c 192
 282.75 l 141.879 282.75 101.25 242.121 101.25 192 c h
101.25 192 m f
0.380392 0.807843 0.352941 rg
220.125 47.648 m 216.352 47.02 l 208.316 45.68 200.16 45.008 192 45.008
 c 169.5 118.504 l 192 192 l 220.125 192 l h
220.125 47.648 m f
0.580392 0.890196 0.407843 rg
167.648 47.02 m 163.875 47.648 l 163.875 192 l 192 192 l 192 45.008 l 183.84
 45.008 175.684 45.68 167.648 47.02 c h
167.648 47.02 m f
Q Q
showpage
%%Trailer
end
%%EOF
