%!PS-Adobe-3.0 EPSF-3.0
%%Creator: cairo 1.16.0 (https://cairographics.org)
%%CreationDate: Tue May  5 07:53:55 2020
%%Pages: 1
%%DocumentData: Clean7Bit
%%LanguageLevel: 2
%%BoundingBox: 51 0 333 384
%%EndComments
%%BeginProlog
50 dict begin
/q { gsave } bind def
/Q { grestore } bind def
/cm { 6 array astore concat } bind def
/w { setlinewidth } bind def
/J { setlinecap } bind def
/j { setlinejoin } bind def
/M { setmiterlimit } bind def
/d { setdash } bind def
/m { moveto } bind def
/l { lineto } bind def
/c { curveto } bind def
/h { closepath } bind def
/re { exch dup neg 3 1 roll 5 3 roll moveto 0 rlineto
      0 exch rlineto 0 rlineto closepath } bind def
/S { stroke } bind def
/f { fill } bind def
/f* { eofill } bind def
/n { newpath } bind def
/W { clip } bind def
/W* { eoclip } bind def
/BT { } bind def
/ET { } bind def
/BDC { mark 3 1 roll /BDC pdfmark } bind def
/EMC { mark /EMC pdfmark } bind def
/cairo_store_point { /cairo_point_y exch def /cairo_point_x exch def } def
/Tj { show currentpoint cairo_store_point } bind def
/TJ {
  {
    dup
    type /stringtype eq
    { show } { -0.001 mul 0 cairo_font_matrix dtransform rmoveto } ifelse
  } forall
  currentpoint cairo_store_point
} bind def
/cairo_selectfont { cairo_font_matrix aload pop pop pop 0 0 6 array astore
    cairo_font exch selectfont cairo_point_x cairo_point_y moveto } bind def
/Tf { pop /cairo_font exch def /cairo_font_matrix where
      { pop cairo_selectfont } if } bind def
/Td { matrix translate cairo_font_matrix matrix concatmatrix dup
      /cairo_font_matrix exch def dup 4 get exch 5 get cairo_store_point
      /cairo_font where { pop cairo_selectfont } if } bind def
/Tm { 2 copy 8 2 roll 6 array astore /cairo_font_matrix exch def
      cairo_store_point /cairo_font where { pop cairo_selectfont } if } bind def
/g { setgray } bind def
/rg { setrgbcolor } bind def
/d1 { setcachedevice } bind def
/cairo_data_source {
  CairoDataIndex CairoData length lt
    { CairoData CairoDataIndex get /CairoDataIndex CairoDataIndex 1 add def }
    { () } ifelse
} def
/cairo_flush_ascii85_file { cairo_ascii85_file status { cairo_ascii85_file flushfile } if } def
/cairo_image { image cairo_flush_ascii85_file } def
/cairo_imagemask { imagemask cairo_flush_ascii85_file } def
%%EndProlog
%%BeginSetup
%%EndSetup
%%Page: 1 1
%%BeginPageSetup
%%PageBoundingBox: 51 0 333 384
%%EndPageSetup
q 51 0 282 384 rectclip
1 0 0 -1 0 384 cm q
0.513726 0.639216 0.670588 rg
231.375 338.992 m 169.5 338.992 l 192 278.992 l 231.375 278.992 l h
231.375 338.992 m f
0.576471 0.717647 0.752941 rg
152.625 278.992 39.375 60 re f
0.447059 0.556863 0.584314 rg
265.125 175.875 m 265.125 73.125 l 265.125 32.805 232.32 0 192 0 c 135.75
 124.5 l 192 249 l 232.32 249 265.125 216.195 265.125 175.875 c h
265.125 175.875 m f
0.513726 0.639216 0.670588 rg
118.875 73.125 m 118.875 175.875 l 118.875 216.195 151.68 249 192 249 c
 192 0 l 151.68 0 118.875 32.805 118.875 73.125 c h
118.875 73.125 m f
0.576471 0.717647 0.752941 rg
332.625 384 m 332.625 352.984 307.391 327.75 276.375 327.75 c 192 327.75
 l 147 355.875 l 192 384 l h
332.625 384 m f
0.67451 0.835294 0.87451 rg
310.125 175.875 m 310.125 124.5 l 287.625 124.5 l 287.625 175.875 l 287.625
 228.602 244.727 271.5 192 271.5 c 180.75 282.75 l 192 294 l 257.133 294
 310.125 241.008 310.125 175.875 c h
310.125 175.875 m f
0.768627 0.952941 1 rg
96.375 175.875 m 96.375 124.5 l 73.875 124.5 l 73.875 175.875 l 73.875 
241.008 126.867 294 192 294 c 192 271.5 l 139.273 271.5 96.375 228.602 96.375
 175.875 c h
96.375 175.875 m f
0.67451 0.835294 0.87451 rg
107.625 327.75 m 76.609 327.75 51.375 352.984 51.375 384 c 192 384 l 192
 327.75 l h
107.625 327.75 m f
Q Q
showpage
%%Trailer
end
%%EOF
