%!PS-Adobe-3.0 EPSF-3.0
%%Creator: cairo 1.16.0 (https://cairographics.org)
%%CreationDate: Tue May  5 07:53:55 2020
%%Pages: 1
%%DocumentData: Clean7Bit
%%LanguageLevel: 2
%%BoundingBox: 0 22 384 362
%%EndComments
%%BeginProlog
50 dict begin
/q { gsave } bind def
/Q { grestore } bind def
/cm { 6 array astore concat } bind def
/w { setlinewidth } bind def
/J { setlinecap } bind def
/j { setlinejoin } bind def
/M { setmiterlimit } bind def
/d { setdash } bind def
/m { moveto } bind def
/l { lineto } bind def
/c { curveto } bind def
/h { closepath } bind def
/re { exch dup neg 3 1 roll 5 3 roll moveto 0 rlineto
      0 exch rlineto 0 rlineto closepath } bind def
/S { stroke } bind def
/f { fill } bind def
/f* { eofill } bind def
/n { newpath } bind def
/W { clip } bind def
/W* { eoclip } bind def
/BT { } bind def
/ET { } bind def
/BDC { mark 3 1 roll /BDC pdfmark } bind def
/EMC { mark /EMC pdfmark } bind def
/cairo_store_point { /cairo_point_y exch def /cairo_point_x exch def } def
/Tj { show currentpoint cairo_store_point } bind def
/TJ {
  {
    dup
    type /stringtype eq
    { show } { -0.001 mul 0 cairo_font_matrix dtransform rmoveto } ifelse
  } forall
  currentpoint cairo_store_point
} bind def
/cairo_selectfont { cairo_font_matrix aload pop pop pop 0 0 6 array astore
    cairo_font exch selectfont cairo_point_x cairo_point_y moveto } bind def
/Tf { pop /cairo_font exch def /cairo_font_matrix where
      { pop cairo_selectfont } if } bind def
/Td { matrix translate cairo_font_matrix matrix concatmatrix dup
      /cairo_font_matrix exch def dup 4 get exch 5 get cairo_store_point
      /cairo_font where { pop cairo_selectfont } if } bind def
/Tm { 2 copy 8 2 roll 6 array astore /cairo_font_matrix exch def
      cairo_store_point /cairo_font where { pop cairo_selectfont } if } bind def
/g { setgray } bind def
/rg { setrgbcolor } bind def
/d1 { setcachedevice } bind def
/cairo_data_source {
  CairoDataIndex CairoData length lt
    { CairoData CairoDataIndex get /CairoDataIndex CairoDataIndex 1 add def }
    { () } ifelse
} def
/cairo_flush_ascii85_file { cairo_ascii85_file status { cairo_ascii85_file flushfile } if } def
/cairo_image { image cairo_flush_ascii85_file } def
/cairo_imagemask { imagemask cairo_flush_ascii85_file } def
%%EndProlog
%%BeginSetup
%%EndSetup
%%Page: 1 1
%%BeginPageSetup
%%PageBoundingBox: 0 22 384 362
%%EndPageSetup
q 0 22 384 340 rectclip
1 0 0 -1 0 384 cm q
0.580392 0.890196 0.407843 rg
316.5 78.75 m 316.5 192 l 327.75 214.5 l 339 192 l 339 78.75 l h
316.5 78.75 m f
0.384314 0.254902 0.917647 rg
189.242 22.5 m 121.742 237 l 249 192 l 249 22.5 l h
189.242 22.5 m f
0.294118 0.152941 0.658824 rg
189.242 361.5 m 249 361.5 l 249 192 l 144.242 192 l h
189.242 361.5 m f
0.768627 0.952941 1 rg
75.242 101.25 m 0 101.25 l 0 192 l 120.242 225.75 l h
75.242 101.25 m f
0.67451 0.835294 0.87451 rg
0 192 m 0 282.75 l 75.242 282.75 l 120.242 192 l h
0 192 m f
0.580392 0.890196 0.407843 rg
384 123.75 m 361.5 123.75 l 361.5 192 l 372.75 214.5 l 384 192 l h
384 123.75 m f
0.380392 0.807843 0.352941 rg
361.5 192 22.5 68.25 re f
316.5 192 22.5 113.25 re f
0.580392 0.890196 0.407843 rg
271.5 123.75 m 271.5 192 l 282.75 214.5 l 294 192 l 294 123.75 l h
271.5 123.75 m f
0.380392 0.807843 0.352941 rg
271.5 192 22.5 68.25 re f
0.67451 0.835294 0.87451 rg
189.242 192 m 189.242 22.5 l 75.242 101.25 l 75.242 192 l 132.242 237 l
 h
189.242 192 m f
0.513726 0.639216 0.670588 rg
75.242 192 m 75.242 282.75 l 189.242 361.5 l 189.242 192 l h
75.242 192 m f
Q Q
showpage
%%Trailer
end
%%EOF
