%!PS-Adobe-3.0 EPSF-3.0
%%Creator: cairo 1.16.0 (https://cairographics.org)
%%CreationDate: Tue May  5 07:53:56 2020
%%Pages: 1
%%DocumentData: Clean7Bit
%%LanguageLevel: 2
%%BoundingBox: 0 0 384 384
%%EndComments
%%BeginProlog
50 dict begin
/q { gsave } bind def
/Q { grestore } bind def
/cm { 6 array astore concat } bind def
/w { setlinewidth } bind def
/J { setlinecap } bind def
/j { setlinejoin } bind def
/M { setmiterlimit } bind def
/d { setdash } bind def
/m { moveto } bind def
/l { lineto } bind def
/c { curveto } bind def
/h { closepath } bind def
/re { exch dup neg 3 1 roll 5 3 roll moveto 0 rlineto
      0 exch rlineto 0 rlineto closepath } bind def
/S { stroke } bind def
/f { fill } bind def
/f* { eofill } bind def
/n { newpath } bind def
/W { clip } bind def
/W* { eoclip } bind def
/BT { } bind def
/ET { } bind def
/BDC { mark 3 1 roll /BDC pdfmark } bind def
/EMC { mark /EMC pdfmark } bind def
/cairo_store_point { /cairo_point_y exch def /cairo_point_x exch def } def
/Tj { show currentpoint cairo_store_point } bind def
/TJ {
  {
    dup
    type /stringtype eq
    { show } { -0.001 mul 0 cairo_font_matrix dtransform rmoveto } ifelse
  } forall
  currentpoint cairo_store_point
} bind def
/cairo_selectfont { cairo_font_matrix aload pop pop pop 0 0 6 array astore
    cairo_font exch selectfont cairo_point_x cairo_point_y moveto } bind def
/Tf { pop /cairo_font exch def /cairo_font_matrix where
      { pop cairo_selectfont } if } bind def
/Td { matrix translate cairo_font_matrix matrix concatmatrix dup
      /cairo_font_matrix exch def dup 4 get exch 5 get cairo_store_point
      /cairo_font where { pop cairo_selectfont } if } bind def
/Tm { 2 copy 8 2 roll 6 array astore /cairo_font_matrix exch def
      cairo_store_point /cairo_font where { pop cairo_selectfont } if } bind def
/g { setgray } bind def
/rg { setrgbcolor } bind def
/d1 { setcachedevice } bind def
/cairo_data_source {
  CairoDataIndex CairoData length lt
    { CairoData CairoDataIndex get /CairoDataIndex CairoDataIndex 1 add def }
    { () } ifelse
} def
/cairo_flush_ascii85_file { cairo_ascii85_file status { cairo_ascii85_file flushfile } if } def
/cairo_image { image cairo_flush_ascii85_file } def
/cairo_imagemask { imagemask cairo_flush_ascii85_file } def
%%EndProlog
%%BeginSetup
%%EndSetup
%%Page: 1 1
%%BeginPageSetup
%%PageBoundingBox: 0 0 384 384
%%EndPageSetup
q 0 0 384 384 rectclip
1 0 0 -1 0 384 cm q
1 0.243137 0.227451 rg
336.27 47.73 m 288.539 0 l 232.855 55.684 l 272.633 159.098 l h
336.27 47.73 m f
0.8 0.196078 0.270588 rg
336.27 47.73 m 248.766 135.234 l 328.316 151.145 l 384 95.461 l h
336.27 47.73 m f
0.215686 0.243137 0.623529 rg
25.66 304.875 m 0 384 l 84.211 331.609 l h
25.66 304.875 m f
0.203922 0.0509804 0.4 rg
0 384 m 79.125 358.34 l 68.305 315.699 l h
0 384 m f
1 0.905882 0.709804 rg
141.281 274.539 m 45.82 242.723 l 25.66 304.875 l 52.391 331.609 l h
141.281 274.539 m f
1 0.815686 0.415686 rg
52.391 331.609 m 79.125 358.34 l 141.277 338.18 l 125.371 258.629 l h
52.391 331.609 m f
1 0.603922 0.152941 rg
93.551 290.449 m 141.277 338.18 l 328.316 151.145 l 280.586 103.414 l 155.961
 164.402 l h
93.551 290.449 m f
1 0.721569 0.12549 rg
45.805 242.711 m 232.809 55.703 l 280.531 103.426 l 93.523 290.434 l h
45.805 242.711 m f
Q Q
showpage
%%Trailer
end
%%EOF
