%!PS-Adobe-3.0 EPSF-3.0
%%Creator: cairo 1.16.0 (https://cairographics.org)
%%CreationDate: Tue May  5 07:53:57 2020
%%Pages: 1
%%DocumentData: Clean7Bit
%%LanguageLevel: 2
%%BoundingBox: 0 0 384 384
%%EndComments
%%BeginProlog
50 dict begin
/q { gsave } bind def
/Q { grestore } bind def
/cm { 6 array astore concat } bind def
/w { setlinewidth } bind def
/J { setlinecap } bind def
/j { setlinejoin } bind def
/M { setmiterlimit } bind def
/d { setdash } bind def
/m { moveto } bind def
/l { lineto } bind def
/c { curveto } bind def
/h { closepath } bind def
/re { exch dup neg 3 1 roll 5 3 roll moveto 0 rlineto
      0 exch rlineto 0 rlineto closepath } bind def
/S { stroke } bind def
/f { fill } bind def
/f* { eofill } bind def
/n { newpath } bind def
/W { clip } bind def
/W* { eoclip } bind def
/BT { } bind def
/ET { } bind def
/BDC { mark 3 1 roll /BDC pdfmark } bind def
/EMC { mark /EMC pdfmark } bind def
/cairo_store_point { /cairo_point_y exch def /cairo_point_x exch def } def
/Tj { show currentpoint cairo_store_point } bind def
/TJ {
  {
    dup
    type /stringtype eq
    { show } { -0.001 mul 0 cairo_font_matrix dtransform rmoveto } ifelse
  } forall
  currentpoint cairo_store_point
} bind def
/cairo_selectfont { cairo_font_matrix aload pop pop pop 0 0 6 array astore
    cairo_font exch selectfont cairo_point_x cairo_point_y moveto } bind def
/Tf { pop /cairo_font exch def /cairo_font_matrix where
      { pop cairo_selectfont } if } bind def
/Td { matrix translate cairo_font_matrix matrix concatmatrix dup
      /cairo_font_matrix exch def dup 4 get exch 5 get cairo_store_point
      /cairo_font where { pop cairo_selectfont } if } bind def
/Tm { 2 copy 8 2 roll 6 array astore /cairo_font_matrix exch def
      cairo_store_point /cairo_font where { pop cairo_selectfont } if } bind def
/g { setgray } bind def
/rg { setrgbcolor } bind def
/d1 { setcachedevice } bind def
/cairo_data_source {
  CairoDataIndex CairoData length lt
    { CairoData CairoDataIndex get /CairoDataIndex CairoDataIndex 1 add def }
    { () } ifelse
} def
/cairo_flush_ascii85_file { cairo_ascii85_file status { cairo_ascii85_file flushfile } if } def
/cairo_image { image cairo_flush_ascii85_file } def
/cairo_imagemask { imagemask cairo_flush_ascii85_file } def
%%EndProlog
%%BeginSetup
%%EndSetup
%%Page: 1 1
%%BeginPageSetup
%%PageBoundingBox: 0 0 384 384
%%EndPageSetup
q 0 0 384 384 rectclip
1 0 0 -1 0 384 cm q
0.176471 0.72549 0.301961 rg
274.699 109.301 m 226.992 109.301 l 226.992 157.008 l 282.266 212.281 316.5
 288.594 316.5 372.75 c 316.5 384 l 384 384 l 384 372.75 l 384 269.984 342.195
 176.797 274.699 109.301 c h
274.699 109.301 m f
226.5 372.75 m 226.5 384 l 294 384 l 294 372.75 l 294 294.797 262.289 224.109
 211.09 172.91 c 163.383 172.91 l 163.383 220.617 l 202.359 259.594 226.5
 313.406 226.5 372.75 c h
226.5 372.75 m f
136.5 372.75 m 136.5 384 l 204 384 l 204 372.75 l 204 319.609 182.383 271.422
 147.48 236.52 c 99.773 236.52 l 99.773 284.227 l 122.453 306.906 136.5 
338.219 136.5 372.75 c h
136.5 372.75 m f
0.380392 0.807843 0.352941 rg
11.25 0 m 0 0 l 0 67.5 l 11.25 67.5 l 95.406 67.5 171.719 101.734 226.992
 157.008 c 274.699 109.301 l 207.203 41.805 114.016 0 11.25 0 c h
11.25 0 m f
0 90 m 0 157.5 l 11.25 157.5 l 70.594 157.5 124.406 181.641 163.383 220.617
 c 211.09 172.91 l 159.891 121.711 89.203 90 11.25 90 c h
0 90 m f
11.25 180 m 0 180 l 0 247.5 l 11.25 247.5 l 45.781 247.5 77.094 261.547
 99.773 284.227 c 147.48 236.52 l 112.578 201.617 64.391 180 11.25 180 c
 h
11.25 180 m f
Q Q
showpage
%%Trailer
end
%%EOF
