%!PS-Adobe-3.0 EPSF-3.0
%%Creator: cairo 1.16.0 (https://cairographics.org)
%%CreationDate: Tue May  5 07:53:57 2020
%%Pages: 1
%%DocumentData: Clean7Bit
%%LanguageLevel: 2
%%BoundingBox: 0 0 384 384
%%EndComments
%%BeginProlog
50 dict begin
/q { gsave } bind def
/Q { grestore } bind def
/cm { 6 array astore concat } bind def
/w { setlinewidth } bind def
/J { setlinecap } bind def
/j { setlinejoin } bind def
/M { setmiterlimit } bind def
/d { setdash } bind def
/m { moveto } bind def
/l { lineto } bind def
/c { curveto } bind def
/h { closepath } bind def
/re { exch dup neg 3 1 roll 5 3 roll moveto 0 rlineto
      0 exch rlineto 0 rlineto closepath } bind def
/S { stroke } bind def
/f { fill } bind def
/f* { eofill } bind def
/n { newpath } bind def
/W { clip } bind def
/W* { eoclip } bind def
/BT { } bind def
/ET { } bind def
/BDC { mark 3 1 roll /BDC pdfmark } bind def
/EMC { mark /EMC pdfmark } bind def
/cairo_store_point { /cairo_point_y exch def /cairo_point_x exch def } def
/Tj { show currentpoint cairo_store_point } bind def
/TJ {
  {
    dup
    type /stringtype eq
    { show } { -0.001 mul 0 cairo_font_matrix dtransform rmoveto } ifelse
  } forall
  currentpoint cairo_store_point
} bind def
/cairo_selectfont { cairo_font_matrix aload pop pop pop 0 0 6 array astore
    cairo_font exch selectfont cairo_point_x cairo_point_y moveto } bind def
/Tf { pop /cairo_font exch def /cairo_font_matrix where
      { pop cairo_selectfont } if } bind def
/Td { matrix translate cairo_font_matrix matrix concatmatrix dup
      /cairo_font_matrix exch def dup 4 get exch 5 get cairo_store_point
      /cairo_font where { pop cairo_selectfont } if } bind def
/Tm { 2 copy 8 2 roll 6 array astore /cairo_font_matrix exch def
      cairo_store_point /cairo_font where { pop cairo_selectfont } if } bind def
/g { setgray } bind def
/rg { setrgbcolor } bind def
/d1 { setcachedevice } bind def
/cairo_data_source {
  CairoDataIndex CairoData length lt
    { CairoData CairoDataIndex get /CairoDataIndex CairoDataIndex 1 add def }
    { () } ifelse
} def
/cairo_flush_ascii85_file { cairo_ascii85_file status { cairo_ascii85_file flushfile } if } def
/cairo_image { image cairo_flush_ascii85_file } def
/cairo_imagemask { imagemask cairo_flush_ascii85_file } def
%%EndProlog
%%BeginSetup
%%EndSetup
%%Page: 1 1
%%BeginPageSetup
%%PageBoundingBox: 0 0 384 384
%%EndPageSetup
q 0 0 384 384 rectclip
1 0 0 -1 0 384 cm q
0.156863 0.670588 0.980392 rg
192 0 m 71.703 192 l 192 384 l 298.039 384 384 298.039 384 192 c 384 85.961
 298.039 0 192 0 c h
192 0 m f
0.0784314 0.811765 1 rg
0 192 m 0 298.039 85.961 384 192 384 c 192 0 l 85.961 0 0 85.961 0 192 
c h
0 192 m f
0.215686 0.243137 0.623529 rg
192 45 m 142.66 123.75 l 192 202.5 l 235.492 202.5 270.75 167.242 270.75
 123.75 c 270.75 80.258 235.492 45 192 45 c h
192 45 m f
0.384314 0.254902 0.917647 rg
113.25 123.75 m 113.25 167.242 148.508 202.5 192 202.5 c 192 45 l 148.508
 45 113.25 80.258 113.25 123.75 c h
113.25 123.75 m f
0.215686 0.243137 0.623529 rg
318.488 251.582 m 303.535 234.688 282.035 225 259.5 225 c 192 225 l 147
 282 l 192 339 l 244.742 339 293.727 310.492 319.84 264.602 c 323.82 257.609
 l h
318.488 251.582 m f
0.384314 0.254902 0.917647 rg
124.5 225 m 101.965 225 80.465 234.688 65.512 251.582 c 60.18 257.609 l
 64.16 264.602 l 90.273 310.492 139.258 339 192 339 c 192 225 l h
124.5 225 m f
Q Q
showpage
%%Trailer
end
%%EOF
