%!PS-Adobe-3.0 EPSF-3.0
%%Creator: cairo 1.16.0 (https://cairographics.org)
%%CreationDate: Tue May  5 07:53:58 2020
%%Pages: 1
%%DocumentData: Clean7Bit
%%LanguageLevel: 2
%%BoundingBox: 0 28 384 356
%%EndComments
%%BeginProlog
50 dict begin
/q { gsave } bind def
/Q { grestore } bind def
/cm { 6 array astore concat } bind def
/w { setlinewidth } bind def
/J { setlinecap } bind def
/j { setlinejoin } bind def
/M { setmiterlimit } bind def
/d { setdash } bind def
/m { moveto } bind def
/l { lineto } bind def
/c { curveto } bind def
/h { closepath } bind def
/re { exch dup neg 3 1 roll 5 3 roll moveto 0 rlineto
      0 exch rlineto 0 rlineto closepath } bind def
/S { stroke } bind def
/f { fill } bind def
/f* { eofill } bind def
/n { newpath } bind def
/W { clip } bind def
/W* { eoclip } bind def
/BT { } bind def
/ET { } bind def
/BDC { mark 3 1 roll /BDC pdfmark } bind def
/EMC { mark /EMC pdfmark } bind def
/cairo_store_point { /cairo_point_y exch def /cairo_point_x exch def } def
/Tj { show currentpoint cairo_store_point } bind def
/TJ {
  {
    dup
    type /stringtype eq
    { show } { -0.001 mul 0 cairo_font_matrix dtransform rmoveto } ifelse
  } forall
  currentpoint cairo_store_point
} bind def
/cairo_selectfont { cairo_font_matrix aload pop pop pop 0 0 6 array astore
    cairo_font exch selectfont cairo_point_x cairo_point_y moveto } bind def
/Tf { pop /cairo_font exch def /cairo_font_matrix where
      { pop cairo_selectfont } if } bind def
/Td { matrix translate cairo_font_matrix matrix concatmatrix dup
      /cairo_font_matrix exch def dup 4 get exch 5 get cairo_store_point
      /cairo_font where { pop cairo_selectfont } if } bind def
/Tm { 2 copy 8 2 roll 6 array astore /cairo_font_matrix exch def
      cairo_store_point /cairo_font where { pop cairo_selectfont } if } bind def
/g { setgray } bind def
/rg { setrgbcolor } bind def
/d1 { setcachedevice } bind def
/cairo_data_source {
  CairoDataIndex CairoData length lt
    { CairoData CairoDataIndex get /CairoDataIndex CairoDataIndex 1 add def }
    { () } ifelse
} def
/cairo_flush_ascii85_file { cairo_ascii85_file status { cairo_ascii85_file flushfile } if } def
/cairo_image { image cairo_flush_ascii85_file } def
/cairo_imagemask { imagemask cairo_flush_ascii85_file } def
%%EndProlog
%%BeginSetup
%%EndSetup
%%Page: 1 1
%%BeginPageSetup
%%PageBoundingBox: 0 28 384 356
%%EndPageSetup
q 0 28 384 328 rectclip
1 0 0 -1 0 384 cm q
0.576471 0.717647 0.752941 rg
192 355.875 m 384 355.875 l 384 288.375 l 147 220.875 l h
192 355.875 m f
0.67451 0.835294 0.87451 rg
0 288.375 m 0 355.875 l 192 355.875 l 192 220.875 l h
0 288.375 m f
0.215686 0.243137 0.623529 rg
384 129.375 m 384 84.375 l 300.719 84.375 l 270.828 28.125 l 192 28.125
 l 124.5 219.375 l h
384 129.375 m f
0.219608 0.341176 0.737255 rg
192 28.125 m 113.172 28.125 l 83.281 84.375 l 0 84.375 l 0 129.375 l 192
 219.375 l h
192 28.125 m f
0.231373 0.533333 0.960784 rg
0 129.375 192 159 re f
0.227451 0.435294 0.847059 rg
192 129.375 192 159 re f
0.768627 0.952941 1 rg
192 106.875 m 128.09 208.875 l 192 310.875 l 248.332 310.875 294 265.207
 294 208.875 c 294 152.543 248.332 106.875 192 106.875 c h
192 106.875 m f
1 g
90 208.875 m 90 265.207 135.668 310.875 192 310.875 c 192 106.875 l 135.668
 106.875 90 152.543 90 208.875 c h
90 208.875 m f
0.203922 0.0509804 0.4 rg
192 151.875 m 156.285 208.875 l 192 265.875 l 223.48 265.875 249 240.355
 249 208.875 c 249 177.395 223.48 151.875 192 151.875 c h
192 151.875 m f
0.215686 0.243137 0.623529 rg
135 208.875 m 135 240.355 160.52 265.875 192 265.875 c 192 151.875 l 160.52
 151.875 135 177.395 135 208.875 c h
135 208.875 m f
Q Q
showpage
%%Trailer
end
%%EOF
