%!PS-Adobe-3.0 EPSF-3.0
%%Creator: cairo 1.16.0 (https://cairographics.org)
%%CreationDate: Tue May  5 07:53:58 2020
%%Pages: 1
%%DocumentData: Clean7Bit
%%LanguageLevel: 2
%%BoundingBox: 0 16 384 368
%%EndComments
%%BeginProlog
50 dict begin
/q { gsave } bind def
/Q { grestore } bind def
/cm { 6 array astore concat } bind def
/w { setlinewidth } bind def
/J { setlinecap } bind def
/j { setlinejoin } bind def
/M { setmiterlimit } bind def
/d { setdash } bind def
/m { moveto } bind def
/l { lineto } bind def
/c { curveto } bind def
/h { closepath } bind def
/re { exch dup neg 3 1 roll 5 3 roll moveto 0 rlineto
      0 exch rlineto 0 rlineto closepath } bind def
/S { stroke } bind def
/f { fill } bind def
/f* { eofill } bind def
/n { newpath } bind def
/W { clip } bind def
/W* { eoclip } bind def
/BT { } bind def
/ET { } bind def
/BDC { mark 3 1 roll /BDC pdfmark } bind def
/EMC { mark /EMC pdfmark } bind def
/cairo_store_point { /cairo_point_y exch def /cairo_point_x exch def } def
/Tj { show currentpoint cairo_store_point } bind def
/TJ {
  {
    dup
    type /stringtype eq
    { show } { -0.001 mul 0 cairo_font_matrix dtransform rmoveto } ifelse
  } forall
  currentpoint cairo_store_point
} bind def
/cairo_selectfont { cairo_font_matrix aload pop pop pop 0 0 6 array astore
    cairo_font exch selectfont cairo_point_x cairo_point_y moveto } bind def
/Tf { pop /cairo_font exch def /cairo_font_matrix where
      { pop cairo_selectfont } if } bind def
/Td { matrix translate cairo_font_matrix matrix concatmatrix dup
      /cairo_font_matrix exch def dup 4 get exch 5 get cairo_store_point
      /cairo_font where { pop cairo_selectfont } if } bind def
/Tm { 2 copy 8 2 roll 6 array astore /cairo_font_matrix exch def
      cairo_store_point /cairo_font where { pop cairo_selectfont } if } bind def
/g { setgray } bind def
/rg { setrgbcolor } bind def
/d1 { setcachedevice } bind def
/cairo_data_source {
  CairoDataIndex CairoData length lt
    { CairoData CairoDataIndex get /CairoDataIndex CairoDataIndex 1 add def }
    { () } ifelse
} def
/cairo_flush_ascii85_file { cairo_ascii85_file status { cairo_ascii85_file flushfile } if } def
/cairo_image { image cairo_flush_ascii85_file } def
/cairo_imagemask { imagemask cairo_flush_ascii85_file } def
%%EndProlog
%%BeginSetup
%%EndSetup
%%Page: 1 1
%%BeginPageSetup
%%PageBoundingBox: 0 16 384 368
%%EndPageSetup
q 0 16 384 352 rectclip
1 0 0 -1 0 384 cm q
0.203922 0.0509804 0.4 rg
384 367.117 m 270 306.379 l 270 223.871 l 384 163.133 l h
384 367.117 m f
0.576471 0.717647 0.752941 rg
292.5 90 m 292.5 130.387 259.762 163.125 219.375 163.125 c 178.988 163.125
 146.25 130.387 146.25 90 c 146.25 49.613 178.988 16.875 219.375 16.875 
c 259.762 16.875 292.5 49.613 292.5 90 c h
292.5 90 m f
0.67451 0.835294 0.87451 rg
146.25 90 m 146.25 130.387 113.512 163.125 73.125 163.125 c 32.738 163.125
 0 130.387 0 90 c 0 49.613 32.738 16.875 73.125 16.875 c 113.512 16.875 
146.25 49.613 146.25 90 c h
146.25 90 m f
0.215686 0.243137 0.623529 rg
292.5 163.125 m 146.25 163.125 l 56.25 265.875 l 146.25 367.125 l 292.5
 367.125 l h
292.5 163.125 m f
0.219608 0.341176 0.737255 rg
0 163.125 146.25 204 re f
0.309804 0.858824 1 rg
247.5 208.125 m 146.25 208.125 l 101.25 265.125 l 146.25 322.125 l 247.5
 322.125 l h
247.5 208.125 m f
0.541176 0.905882 1 rg
45 208.125 101.25 114 re f
Q Q
showpage
%%Trailer
end
%%EOF
