%!PS-Adobe-3.0 EPSF-3.0
%%Creator: cairo 1.16.0 (https://cairographics.org)
%%CreationDate: Tue May  5 07:53:59 2020
%%Pages: 1
%%DocumentData: Clean7Bit
%%LanguageLevel: 2
%%BoundingBox: 0 0 384 384
%%EndComments
%%BeginProlog
50 dict begin
/q { gsave } bind def
/Q { grestore } bind def
/cm { 6 array astore concat } bind def
/w { setlinewidth } bind def
/J { setlinecap } bind def
/j { setlinejoin } bind def
/M { setmiterlimit } bind def
/d { setdash } bind def
/m { moveto } bind def
/l { lineto } bind def
/c { curveto } bind def
/h { closepath } bind def
/re { exch dup neg 3 1 roll 5 3 roll moveto 0 rlineto
      0 exch rlineto 0 rlineto closepath } bind def
/S { stroke } bind def
/f { fill } bind def
/f* { eofill } bind def
/n { newpath } bind def
/W { clip } bind def
/W* { eoclip } bind def
/BT { } bind def
/ET { } bind def
/BDC { mark 3 1 roll /BDC pdfmark } bind def
/EMC { mark /EMC pdfmark } bind def
/cairo_store_point { /cairo_point_y exch def /cairo_point_x exch def } def
/Tj { show currentpoint cairo_store_point } bind def
/TJ {
  {
    dup
    type /stringtype eq
    { show } { -0.001 mul 0 cairo_font_matrix dtransform rmoveto } ifelse
  } forall
  currentpoint cairo_store_point
} bind def
/cairo_selectfont { cairo_font_matrix aload pop pop pop 0 0 6 array astore
    cairo_font exch selectfont cairo_point_x cairo_point_y moveto } bind def
/Tf { pop /cairo_font exch def /cairo_font_matrix where
      { pop cairo_selectfont } if } bind def
/Td { matrix translate cairo_font_matrix matrix concatmatrix dup
      /cairo_font_matrix exch def dup 4 get exch 5 get cairo_store_point
      /cairo_font where { pop cairo_selectfont } if } bind def
/Tm { 2 copy 8 2 roll 6 array astore /cairo_font_matrix exch def
      cairo_store_point /cairo_font where { pop cairo_selectfont } if } bind def
/g { setgray } bind def
/rg { setrgbcolor } bind def
/d1 { setcachedevice } bind def
/cairo_data_source {
  CairoDataIndex CairoData length lt
    { CairoData CairoDataIndex get /CairoDataIndex CairoDataIndex 1 add def }
    { () } ifelse
} def
/cairo_flush_ascii85_file { cairo_ascii85_file status { cairo_ascii85_file flushfile } if } def
/cairo_image { image cairo_flush_ascii85_file } def
/cairo_imagemask { imagemask cairo_flush_ascii85_file } def
%%EndProlog
%%BeginSetup
%%EndSetup
%%Page: 1 1
%%BeginPageSetup
%%PageBoundingBox: 0 0 384 384
%%EndPageSetup
q 0 0 384 384 rectclip
1 0 0 -1 0 384 cm q
1 0.364706 0.203922 rg
384 192 m 359.746 158.621 l 369.426 118.504 l 334.203 97 l 327.766 56.234
 l 287.004 49.797 l 265.496 14.574 l 225.383 24.254 l 192 0 l 90.766 192
 l 192 384 l 225.383 359.746 l 265.496 369.426 l 287 334.203 l 327.766 327.766
 l 334.203 287.004 l 369.426 265.496 l 359.746 225.383 l h
384 192 m f
1 0.482353 0.176471 rg
158.621 24.254 m 118.504 14.574 l 97 49.797 l 56.234 56.234 l 49.797 96.996
 l 14.574 118.504 l 24.254 158.617 l 0 192 l 24.254 225.379 l 14.574 265.496
 l 49.797 287 l 56.234 327.766 l 96.996 334.203 l 118.504 369.426 l 158.617
 359.746 l 192 384 l 192 0 l h
158.621 24.254 m f
1 0.905882 0.709804 rg
192 68.27 m 114.477 192 l 192 315.73 l 260.336 315.73 315.73 260.336 315.73
 192 c 315.73 123.668 260.336 68.27 192 68.27 c h
192 68.27 m f
0.8 0.196078 0.270588 rg
192 68.27 m 151.523 68.27 115.586 87.707 93.008 117.762 c 70.746 167.254
 l 69.125 175.25 68.27 183.527 68.27 192 c 68.27 200.473 69.125 208.754 
70.746 216.746 c 93.008 266.238 l 115.586 296.293 151.523 315.73 192 315.73
 c 192 266.238 l 170.223 241.492 l 192 216.746 l 192 167.254 l 170.238 145.258
 l 192 117.762 l h
192 68.27 m f
1 0.243137 0.227451 rg
192 216.746 m 192 266.238 l 93.008 266.238 l 82.203 251.848 74.457 235.027
 70.746 216.746 c h
192 216.746 m f
192 117.762 m 192 167.254 l 70.746 167.254 l 74.457 148.973 82.203 132.152
 93.008 117.762 c h
192 117.762 m f
Q Q
showpage
%%Trailer
end
%%EOF
