%!PS-Adobe-3.0 EPSF-3.0
%%Creator: cairo 1.16.0 (https://cairographics.org)
%%CreationDate: Tue May  5 07:53:59 2020
%%Pages: 1
%%DocumentData: Clean7Bit
%%LanguageLevel: 2
%%BoundingBox: 0 0 384 384
%%EndComments
%%BeginProlog
50 dict begin
/q { gsave } bind def
/Q { grestore } bind def
/cm { 6 array astore concat } bind def
/w { setlinewidth } bind def
/J { setlinecap } bind def
/j { setlinejoin } bind def
/M { setmiterlimit } bind def
/d { setdash } bind def
/m { moveto } bind def
/l { lineto } bind def
/c { curveto } bind def
/h { closepath } bind def
/re { exch dup neg 3 1 roll 5 3 roll moveto 0 rlineto
      0 exch rlineto 0 rlineto closepath } bind def
/S { stroke } bind def
/f { fill } bind def
/f* { eofill } bind def
/n { newpath } bind def
/W { clip } bind def
/W* { eoclip } bind def
/BT { } bind def
/ET { } bind def
/BDC { mark 3 1 roll /BDC pdfmark } bind def
/EMC { mark /EMC pdfmark } bind def
/cairo_store_point { /cairo_point_y exch def /cairo_point_x exch def } def
/Tj { show currentpoint cairo_store_point } bind def
/TJ {
  {
    dup
    type /stringtype eq
    { show } { -0.001 mul 0 cairo_font_matrix dtransform rmoveto } ifelse
  } forall
  currentpoint cairo_store_point
} bind def
/cairo_selectfont { cairo_font_matrix aload pop pop pop 0 0 6 array astore
    cairo_font exch selectfont cairo_point_x cairo_point_y moveto } bind def
/Tf { pop /cairo_font exch def /cairo_font_matrix where
      { pop cairo_selectfont } if } bind def
/Td { matrix translate cairo_font_matrix matrix concatmatrix dup
      /cairo_font_matrix exch def dup 4 get exch 5 get cairo_store_point
      /cairo_font where { pop cairo_selectfont } if } bind def
/Tm { 2 copy 8 2 roll 6 array astore /cairo_font_matrix exch def
      cairo_store_point /cairo_font where { pop cairo_selectfont } if } bind def
/g { setgray } bind def
/rg { setrgbcolor } bind def
/d1 { setcachedevice } bind def
/cairo_data_source {
  CairoDataIndex CairoData length lt
    { CairoData CairoDataIndex get /CairoDataIndex CairoDataIndex 1 add def }
    { () } ifelse
} def
/cairo_flush_ascii85_file { cairo_ascii85_file status { cairo_ascii85_file flushfile } if } def
/cairo_image { image cairo_flush_ascii85_file } def
/cairo_imagemask { imagemask cairo_flush_ascii85_file } def
%%EndProlog
%%BeginSetup
%%EndSetup
%%Page: 1 1
%%BeginPageSetup
%%PageBoundingBox: 0 0 384 384
%%EndPageSetup
q 0 0 384 384 rectclip
1 0 0 -1 0 384 cm q
0.67451 0.835294 0.87451 rg
305.25 0 m 192 0 l 169.5 11.25 l 192 22.5 l 305.25 22.5 l 336.266 22.5 
361.5 47.734 361.5 78.75 c 361.5 305.25 l 361.5 336.266 336.266 361.5 305.25
 361.5 c 192 361.5 l 169.5 372.75 l 192 384 l 305.25 384 l 348.672 384 384
 348.672 384 305.25 c 384 78.75 l 384 35.328 348.672 0 305.25 0 c h
305.25 0 m f
0.768627 0.952941 1 rg
78.75 361.5 m 47.734 361.5 22.5 336.266 22.5 305.25 c 22.5 78.75 l 22.5
 47.734 47.734 22.5 78.75 22.5 c 192 22.5 l 192 0 l 78.75 0 l 35.328 0 0
 35.328 0 78.75 c 0 305.25 l 0 348.672 35.328 384 78.75 384 c 192 384 l 
192 361.5 l h
78.75 361.5 m f
1 0.815686 0.415686 rg
327.766 56.234 m 256.172 56.234 l 256.172 127.828 l 272.594 144.254 282.75
 166.941 282.75 192 c 282.75 217.059 272.594 239.746 256.172 256.172 c 256.172
 327.766 l 327.766 327.766 l 362.508 293.02 384 245.02 384 192 c 384 138.98
 362.508 90.98 327.766 56.234 c h
327.766 56.234 m f
1 0.905882 0.709804 rg
56.234 56.234 m 127.828 56.234 l 127.828 127.828 l 111.406 144.254 101.25
 166.941 101.25 192 c 101.25 217.059 111.406 239.746 127.828 256.172 c 127.828
 327.766 l 56.234 327.766 l 21.492 293.02 0 245.02 0 192 c 0 138.98 21.492
 90.98 56.234 56.234 c h
56.234 56.234 m f
1 0.243137 0.227451 rg
256.172 127.828 m 327.766 56.234 l 293.02 21.492 245.02 0 192 0 c 147 50.625
 l 192 101.25 l 217.059 101.25 239.746 111.406 256.172 127.828 c h
256.172 127.828 m f
1 0.364706 0.203922 rg
192 101.25 m 192 0 l 138.98 0 90.98 21.492 56.234 56.234 c 127.828 127.828
 l 144.254 111.406 166.941 101.25 192 101.25 c h
192 101.25 m f
1 0.243137 0.227451 rg
192 282.75 m 147 333.375 l 192 384 l 245.02 384 293.02 362.508 327.766 
327.766 c 256.172 256.172 l 239.746 272.594 217.059 282.75 192 282.75 c 
h
192 282.75 m f
1 0.364706 0.203922 rg
127.828 256.172 m 56.234 327.766 l 90.98 362.508 138.98 384 192 384 c 192
 282.75 l 166.941 282.75 144.254 272.594 127.828 256.172 c h
127.828 256.172 m f
Q Q
showpage
%%Trailer
end
%%EOF
