%!PS-Adobe-3.0 EPSF-3.0
%%Creator: cairo 1.16.0 (https://cairographics.org)
%%CreationDate: Tue May  5 07:54:01 2020
%%Pages: 1
%%DocumentData: Clean7Bit
%%LanguageLevel: 2
%%BoundingBox: 0 22 384 362
%%EndComments
%%BeginProlog
50 dict begin
/q { gsave } bind def
/Q { grestore } bind def
/cm { 6 array astore concat } bind def
/w { setlinewidth } bind def
/J { setlinecap } bind def
/j { setlinejoin } bind def
/M { setmiterlimit } bind def
/d { setdash } bind def
/m { moveto } bind def
/l { lineto } bind def
/c { curveto } bind def
/h { closepath } bind def
/re { exch dup neg 3 1 roll 5 3 roll moveto 0 rlineto
      0 exch rlineto 0 rlineto closepath } bind def
/S { stroke } bind def
/f { fill } bind def
/f* { eofill } bind def
/n { newpath } bind def
/W { clip } bind def
/W* { eoclip } bind def
/BT { } bind def
/ET { } bind def
/BDC { mark 3 1 roll /BDC pdfmark } bind def
/EMC { mark /EMC pdfmark } bind def
/cairo_store_point { /cairo_point_y exch def /cairo_point_x exch def } def
/Tj { show currentpoint cairo_store_point } bind def
/TJ {
  {
    dup
    type /stringtype eq
    { show } { -0.001 mul 0 cairo_font_matrix dtransform rmoveto } ifelse
  } forall
  currentpoint cairo_store_point
} bind def
/cairo_selectfont { cairo_font_matrix aload pop pop pop 0 0 6 array astore
    cairo_font exch selectfont cairo_point_x cairo_point_y moveto } bind def
/Tf { pop /cairo_font exch def /cairo_font_matrix where
      { pop cairo_selectfont } if } bind def
/Td { matrix translate cairo_font_matrix matrix concatmatrix dup
      /cairo_font_matrix exch def dup 4 get exch 5 get cairo_store_point
      /cairo_font where { pop cairo_selectfont } if } bind def
/Tm { 2 copy 8 2 roll 6 array astore /cairo_font_matrix exch def
      cairo_store_point /cairo_font where { pop cairo_selectfont } if } bind def
/g { setgray } bind def
/rg { setrgbcolor } bind def
/d1 { setcachedevice } bind def
/cairo_data_source {
  CairoDataIndex CairoData length lt
    { CairoData CairoDataIndex get /CairoDataIndex CairoDataIndex 1 add def }
    { () } ifelse
} def
/cairo_flush_ascii85_file { cairo_ascii85_file status { cairo_ascii85_file flushfile } if } def
/cairo_image { image cairo_flush_ascii85_file } def
/cairo_imagemask { imagemask cairo_flush_ascii85_file } def
%%EndProlog
%%BeginSetup
%%EndSetup
%%Page: 1 1
%%BeginPageSetup
%%PageBoundingBox: 0 22 384 362
%%EndPageSetup
q 0 22 384 340 rectclip
1 0 0 -1 0 384 cm q
0.156863 0.670588 0.980392 rg
361.5 260.25 m 169.5 215.25 l 169.5 347.594 l 384 302.594 l h
361.5 260.25 m f
0.0784314 0.811765 1 rg
22.5 260.25 m 0 302.594 l 192 347.594 l 192 215.25 l h
22.5 260.25 m f
0.231373 0.533333 0.960784 rg
237 361.5 m 384 361.5 l 384 302.594 l 237 302.594 l 214.5 332.047 l h
237 361.5 m f
0.227451 0.435294 0.847059 rg
192 302.594 m 169.5 332.047 l 192 361.5 l 237 361.5 l 237 302.594 l h
192 302.594 m f
0.231373 0.533333 0.960784 rg
147 302.594 m 124.5 332.047 l 147 361.5 l 192 361.5 l 192 302.594 l h
147 302.594 m f
0.156863 0.670588 0.980392 rg
0 302.594 147 58.906 re f
0.203922 0.0509804 0.4 rg
242.625 22.5 m 102 90 l 192 260.25 l 361.5 260.25 l 361.5 22.5 l h
242.625 22.5 m f
0.215686 0.243137 0.623529 rg
141.375 22.5 m 22.5 22.5 l 22.5 260.25 l 192 260.25 l 192 90 l h
141.375 22.5 m f
0.156863 0.670588 0.980392 rg
223.16 69.219 m 242.625 22.5 l 192 22.5 l 169.5 56.25 l 192 90 l 205.672
 90 217.902 81.844 223.16 69.219 c h
223.16 69.219 m f
0.0784314 0.811765 1 rg
192 90 m 192 22.5 l 141.375 22.5 l 160.84 69.219 l 166.098 81.844 178.328
 90 192 90 c h
192 90 m f
0.219608 0.341176 0.737255 rg
225.75 204 22.5 22.5 re f
0.227451 0.435294 0.847059 rg
135.75 204 22.5 22.5 re f
0.219608 0.341176 0.737255 rg
203.25 204 m 192 204 l 186.375 215.25 l 192 226.5 l 203.25 226.5 l h
203.25 204 m f
0.227451 0.435294 0.847059 rg
180.75 204 11.25 22.5 re f
Q Q
showpage
%%Trailer
end
%%EOF
