%!PS-Adobe-3.0 EPSF-3.0
%%Creator: cairo 1.16.0 (https://cairographics.org)
%%CreationDate: Tue May  5 07:54:01 2020
%%Pages: 1
%%DocumentData: Clean7Bit
%%LanguageLevel: 2
%%BoundingBox: 67 0 317 384
%%EndComments
%%BeginProlog
50 dict begin
/q { gsave } bind def
/Q { grestore } bind def
/cm { 6 array astore concat } bind def
/w { setlinewidth } bind def
/J { setlinecap } bind def
/j { setlinejoin } bind def
/M { setmiterlimit } bind def
/d { setdash } bind def
/m { moveto } bind def
/l { lineto } bind def
/c { curveto } bind def
/h { closepath } bind def
/re { exch dup neg 3 1 roll 5 3 roll moveto 0 rlineto
      0 exch rlineto 0 rlineto closepath } bind def
/S { stroke } bind def
/f { fill } bind def
/f* { eofill } bind def
/n { newpath } bind def
/W { clip } bind def
/W* { eoclip } bind def
/BT { } bind def
/ET { } bind def
/BDC { mark 3 1 roll /BDC pdfmark } bind def
/EMC { mark /EMC pdfmark } bind def
/cairo_store_point { /cairo_point_y exch def /cairo_point_x exch def } def
/Tj { show currentpoint cairo_store_point } bind def
/TJ {
  {
    dup
    type /stringtype eq
    { show } { -0.001 mul 0 cairo_font_matrix dtransform rmoveto } ifelse
  } forall
  currentpoint cairo_store_point
} bind def
/cairo_selectfont { cairo_font_matrix aload pop pop pop 0 0 6 array astore
    cairo_font exch selectfont cairo_point_x cairo_point_y moveto } bind def
/Tf { pop /cairo_font exch def /cairo_font_matrix where
      { pop cairo_selectfont } if } bind def
/Td { matrix translate cairo_font_matrix matrix concatmatrix dup
      /cairo_font_matrix exch def dup 4 get exch 5 get cairo_store_point
      /cairo_font where { pop cairo_selectfont } if } bind def
/Tm { 2 copy 8 2 roll 6 array astore /cairo_font_matrix exch def
      cairo_store_point /cairo_font where { pop cairo_selectfont } if } bind def
/g { setgray } bind def
/rg { setrgbcolor } bind def
/d1 { setcachedevice } bind def
/cairo_data_source {
  CairoDataIndex CairoData length lt
    { CairoData CairoDataIndex get /CairoDataIndex CairoDataIndex 1 add def }
    { () } ifelse
} def
/cairo_flush_ascii85_file { cairo_ascii85_file status { cairo_ascii85_file flushfile } if } def
/cairo_image { image cairo_flush_ascii85_file } def
/cairo_imagemask { imagemask cairo_flush_ascii85_file } def
%%EndProlog
%%BeginSetup
%%EndSetup
%%Page: 1 1
%%BeginPageSetup
%%PageBoundingBox: 67 0 317 384
%%EndPageSetup
q 67 0 250 384 rectclip
1 0 0 -1 0 384 cm q
0.156863 0.670588 0.980392 rg
316.5 327.75 m 147 237.75 l 192 384 l 316.5 384 l h
316.5 327.75 m f
0.0784314 0.811765 1 rg
67.5 327.75 m 67.5 384 l 192 384 l 192 271.5 l h
67.5 327.75 m f
0.203922 0.0509804 0.4 rg
242.625 0 m 102 67.5 l 192 327.75 l 316.5 327.75 l 316.5 0 l h
242.625 0 m f
0.215686 0.243137 0.623529 rg
141.375 0 m 67.5 0 l 67.5 327.75 l 192 327.75 l 192 67.5 l h
141.375 0 m f
0.219608 0.341176 0.737255 rg
225.75 271.5 22.5 22.5 re f
0.227451 0.435294 0.847059 rg
135.75 271.5 22.5 22.5 re f
0.156863 0.670588 0.980392 rg
223.16 46.719 m 242.625 0 l 192 0 l 169.5 33.75 l 192 67.5 l 205.672 67.5
 217.902 59.344 223.16 46.719 c h
223.16 46.719 m f
0.0784314 0.811765 1 rg
192 67.5 m 192 0 l 141.375 0 l 160.84 46.719 l 166.098 59.344 178.328 67.5
 192 67.5 c h
192 67.5 m f
0.219608 0.341176 0.737255 rg
203.25 271.5 m 192 271.5 l 186.375 282.75 l 192 294 l 203.25 294 l h
203.25 271.5 m f
0.227451 0.435294 0.847059 rg
180.75 271.5 11.25 22.5 re f
Q Q
showpage
%%Trailer
end
%%EOF
