%!PS-Adobe-3.0 EPSF-3.0
%%Creator: cairo 1.16.0 (https://cairographics.org)
%%CreationDate: Tue May  5 07:54:02 2020
%%Pages: 1
%%DocumentData: Clean7Bit
%%LanguageLevel: 2
%%BoundingBox: 0 7 384 377
%%EndComments
%%BeginProlog
50 dict begin
/q { gsave } bind def
/Q { grestore } bind def
/cm { 6 array astore concat } bind def
/w { setlinewidth } bind def
/J { setlinecap } bind def
/j { setlinejoin } bind def
/M { setmiterlimit } bind def
/d { setdash } bind def
/m { moveto } bind def
/l { lineto } bind def
/c { curveto } bind def
/h { closepath } bind def
/re { exch dup neg 3 1 roll 5 3 roll moveto 0 rlineto
      0 exch rlineto 0 rlineto closepath } bind def
/S { stroke } bind def
/f { fill } bind def
/f* { eofill } bind def
/n { newpath } bind def
/W { clip } bind def
/W* { eoclip } bind def
/BT { } bind def
/ET { } bind def
/BDC { mark 3 1 roll /BDC pdfmark } bind def
/EMC { mark /EMC pdfmark } bind def
/cairo_store_point { /cairo_point_y exch def /cairo_point_x exch def } def
/Tj { show currentpoint cairo_store_point } bind def
/TJ {
  {
    dup
    type /stringtype eq
    { show } { -0.001 mul 0 cairo_font_matrix dtransform rmoveto } ifelse
  } forall
  currentpoint cairo_store_point
} bind def
/cairo_selectfont { cairo_font_matrix aload pop pop pop 0 0 6 array astore
    cairo_font exch selectfont cairo_point_x cairo_point_y moveto } bind def
/Tf { pop /cairo_font exch def /cairo_font_matrix where
      { pop cairo_selectfont } if } bind def
/Td { matrix translate cairo_font_matrix matrix concatmatrix dup
      /cairo_font_matrix exch def dup 4 get exch 5 get cairo_store_point
      /cairo_font where { pop cairo_selectfont } if } bind def
/Tm { 2 copy 8 2 roll 6 array astore /cairo_font_matrix exch def
      cairo_store_point /cairo_font where { pop cairo_selectfont } if } bind def
/g { setgray } bind def
/rg { setrgbcolor } bind def
/d1 { setcachedevice } bind def
/cairo_data_source {
  CairoDataIndex CairoData length lt
    { CairoData CairoDataIndex get /CairoDataIndex CairoDataIndex 1 add def }
    { () } ifelse
} def
/cairo_flush_ascii85_file { cairo_ascii85_file status { cairo_ascii85_file flushfile } if } def
/cairo_image { image cairo_flush_ascii85_file } def
/cairo_imagemask { imagemask cairo_flush_ascii85_file } def
%%EndProlog
%%BeginSetup
%%EndSetup
%%Page: 1 1
%%BeginPageSetup
%%PageBoundingBox: 0 7 384 377
%%EndPageSetup
q 0 7 384 370 rectclip
1 0 0 -1 0 384 cm q
1 0.603922 0.152941 rg
382.266 145.961 m 377.652 131.816 365.062 122.68 350.188 122.68 c 254.262
 122.68 l 224.055 30.945 l 219.41 16.844 206.844 7.754 192.012 7.754 c 192
 7.754 147.008 160.262 147.008 160.262 c 192 312.77 l 269.859 369.629 l 
281.906 378.426 297.488 378.453 309.562 369.703 c 321.641 360.953 326.465
 346.133 321.855 331.949 c 292.09 240.344 l 292.492 240.344 l 370.086 183.676
 l 382.102 174.906 386.883 160.102 382.266 145.961 c h
382.266 145.961 m f
1 0.721569 0.12549 rg
191.867 7.754 m 176.973 7.812 164.414 17.016 159.867 31.199 c 130.539 122.68
 l 33.816 122.68 l 18.902 122.68 6.301 131.848 1.711 146.035 c -2.883 160.223
 1.961 175.039 14.047 183.773 c 91.984 240.109 l 62.141 331.949 l 57.535
 346.133 62.359 360.949 74.434 369.703 c 86.508 378.453 102.094 378.426 
114.137 369.629 c 192 312.77 l 192 312.77 192 7.754 192 7.754 c 191.957 
7.754 191.91 7.754 191.867 7.754 c h
191.867 7.754 m f
Q Q
showpage
%%Trailer
end
%%EOF
