%!PS-Adobe-3.0 EPSF-3.0
%%Creator: cairo 1.16.0 (https://cairographics.org)
%%CreationDate: Tue May  5 07:54:04 2020
%%Pages: 1
%%DocumentData: Clean7Bit
%%LanguageLevel: 2
%%BoundingBox: 0 45 384 339
%%EndComments
%%BeginProlog
50 dict begin
/q { gsave } bind def
/Q { grestore } bind def
/cm { 6 array astore concat } bind def
/w { setlinewidth } bind def
/J { setlinecap } bind def
/j { setlinejoin } bind def
/M { setmiterlimit } bind def
/d { setdash } bind def
/m { moveto } bind def
/l { lineto } bind def
/c { curveto } bind def
/h { closepath } bind def
/re { exch dup neg 3 1 roll 5 3 roll moveto 0 rlineto
      0 exch rlineto 0 rlineto closepath } bind def
/S { stroke } bind def
/f { fill } bind def
/f* { eofill } bind def
/n { newpath } bind def
/W { clip } bind def
/W* { eoclip } bind def
/BT { } bind def
/ET { } bind def
/BDC { mark 3 1 roll /BDC pdfmark } bind def
/EMC { mark /EMC pdfmark } bind def
/cairo_store_point { /cairo_point_y exch def /cairo_point_x exch def } def
/Tj { show currentpoint cairo_store_point } bind def
/TJ {
  {
    dup
    type /stringtype eq
    { show } { -0.001 mul 0 cairo_font_matrix dtransform rmoveto } ifelse
  } forall
  currentpoint cairo_store_point
} bind def
/cairo_selectfont { cairo_font_matrix aload pop pop pop 0 0 6 array astore
    cairo_font exch selectfont cairo_point_x cairo_point_y moveto } bind def
/Tf { pop /cairo_font exch def /cairo_font_matrix where
      { pop cairo_selectfont } if } bind def
/Td { matrix translate cairo_font_matrix matrix concatmatrix dup
      /cairo_font_matrix exch def dup 4 get exch 5 get cairo_store_point
      /cairo_font where { pop cairo_selectfont } if } bind def
/Tm { 2 copy 8 2 roll 6 array astore /cairo_font_matrix exch def
      cairo_store_point /cairo_font where { pop cairo_selectfont } if } bind def
/g { setgray } bind def
/rg { setrgbcolor } bind def
/d1 { setcachedevice } bind def
/cairo_data_source {
  CairoDataIndex CairoData length lt
    { CairoData CairoDataIndex get /CairoDataIndex CairoDataIndex 1 add def }
    { () } ifelse
} def
/cairo_flush_ascii85_file { cairo_ascii85_file status { cairo_ascii85_file flushfile } if } def
/cairo_image { image cairo_flush_ascii85_file } def
/cairo_imagemask { imagemask cairo_flush_ascii85_file } def
%%EndProlog
%%BeginSetup
%%EndSetup
%%Page: 1 1
%%BeginPageSetup
%%PageBoundingBox: 0 45 384 339
%%EndPageSetup
q 0 45 384 294 rectclip
1 0 0 -1 0 384 cm q
0.0784314 0.811765 1 rg
0 45 m 0 339 l 192 316.5 l 192 67.5 l h
0 45 m f
0.156863 0.670588 0.980392 rg
384 45 m 169.5 67.5 l 169.5 316.5 l 384 339 l h
384 45 m f
0.0784314 0.811765 1 rg
384 327.75 m 384 312.727 378.148 298.602 367.523 287.977 c 231.773 152.227
 l 221.148 141.602 207.023 135.75 192 135.75 c 147 237.375 l 192 339 l 384
 339 l h
384 327.75 m f
0.309804 0.858824 1 rg
152.227 152.227 m 16.477 287.977 l 5.852 298.602 0 312.727 0 327.75 c 0
 339 l 192 339 l 192 135.75 l 176.977 135.75 162.852 141.602 152.227 152.227
 c h
152.227 152.227 m f
192 45 m 147 146.625 l 192 248.25 l 207.023 248.25 221.148 242.398 231.773
 231.773 c 367.523 96.023 l 378.148 85.398 384 71.273 384 56.25 c 384 45
 l h
192 45 m f
0.541176 0.905882 1 rg
0 45 m 0 56.25 l 0 71.273 5.852 85.398 16.477 96.023 c 152.227 231.773 
l 162.852 242.398 176.977 248.25 192 248.25 c 192 45 l h
0 45 m f
0.219608 0.341176 0.737255 rg
203.25 90 m 192 90 l 184.5 101.25 l 192 112.5 l 203.25 112.5 l h
203.25 90 m f
0.227451 0.435294 0.847059 rg
180.75 90 11.25 22.5 re f
0.219608 0.341176 0.737255 rg
225.75 90 22.5 22.5 re f
0.227451 0.435294 0.847059 rg
135.75 90 22.5 22.5 re f
Q Q
showpage
%%Trailer
end
%%EOF
