%!PS-Adobe-3.0 EPSF-3.0
%%Creator: cairo 1.16.0 (https://cairographics.org)
%%CreationDate: Tue May  5 07:54:05 2020
%%Pages: 1
%%DocumentData: Clean7Bit
%%LanguageLevel: 2
%%BoundingBox: 2 0 382 384
%%EndComments
%%BeginProlog
50 dict begin
/q { gsave } bind def
/Q { grestore } bind def
/cm { 6 array astore concat } bind def
/w { setlinewidth } bind def
/J { setlinecap } bind def
/j { setlinejoin } bind def
/M { setmiterlimit } bind def
/d { setdash } bind def
/m { moveto } bind def
/l { lineto } bind def
/c { curveto } bind def
/h { closepath } bind def
/re { exch dup neg 3 1 roll 5 3 roll moveto 0 rlineto
      0 exch rlineto 0 rlineto closepath } bind def
/S { stroke } bind def
/f { fill } bind def
/f* { eofill } bind def
/n { newpath } bind def
/W { clip } bind def
/W* { eoclip } bind def
/BT { } bind def
/ET { } bind def
/BDC { mark 3 1 roll /BDC pdfmark } bind def
/EMC { mark /EMC pdfmark } bind def
/cairo_store_point { /cairo_point_y exch def /cairo_point_x exch def } def
/Tj { show currentpoint cairo_store_point } bind def
/TJ {
  {
    dup
    type /stringtype eq
    { show } { -0.001 mul 0 cairo_font_matrix dtransform rmoveto } ifelse
  } forall
  currentpoint cairo_store_point
} bind def
/cairo_selectfont { cairo_font_matrix aload pop pop pop 0 0 6 array astore
    cairo_font exch selectfont cairo_point_x cairo_point_y moveto } bind def
/Tf { pop /cairo_font exch def /cairo_font_matrix where
      { pop cairo_selectfont } if } bind def
/Td { matrix translate cairo_font_matrix matrix concatmatrix dup
      /cairo_font_matrix exch def dup 4 get exch 5 get cairo_store_point
      /cairo_font where { pop cairo_selectfont } if } bind def
/Tm { 2 copy 8 2 roll 6 array astore /cairo_font_matrix exch def
      cairo_store_point /cairo_font where { pop cairo_selectfont } if } bind def
/g { setgray } bind def
/rg { setrgbcolor } bind def
/d1 { setcachedevice } bind def
/cairo_data_source {
  CairoDataIndex CairoData length lt
    { CairoData CairoDataIndex get /CairoDataIndex CairoDataIndex 1 add def }
    { () } ifelse
} def
/cairo_flush_ascii85_file { cairo_ascii85_file status { cairo_ascii85_file flushfile } if } def
/cairo_image { image cairo_flush_ascii85_file } def
/cairo_imagemask { imagemask cairo_flush_ascii85_file } def
%%EndProlog
%%BeginSetup
%%EndSetup
%%Page: 1 1
%%BeginPageSetup
%%PageBoundingBox: 2 0 382 384
%%EndPageSetup
q 2 0 380 384 rectclip
1 0 0 -1 0 384 cm q
0.513726 0.639216 0.670588 rg
361.5 192 m 361.5 188.328 361.379 184.613 361.137 180.906 c 381.77 162.023
 l 380.578 155.844 l 379.07 148.023 377.059 140.227 374.602 132.672 c 372.148
 125.113 369.191 117.625 365.816 110.41 c 363.148 104.707 l 335.367 101.559
 l 331.418 95.312 327.047 89.309 322.312 83.617 c 327.906 56.203 l 323.312
 51.906 l 317.496 46.469 311.289 41.344 304.855 36.668 c 298.426 31.996 
291.629 27.676 284.66 23.824 c 279.152 20.781 l 254.848 34.551 l 247.969
 31.801 240.891 29.504 233.703 27.684 c 222.133 2.254 l 215.887 1.477 l 
207.984 0.496 199.945 0 192 0 c 147 67.875 l 192 135.75 l 223.066 135.75
 248.25 160.934 248.25 192 c 248.25 223.066 223.066 248.25 192 248.25 c 
154.5 316.125 l 192 384 l 199.949 384 207.984 383.504 215.887 382.52 c 222.133
 381.746 l 233.703 356.316 l 240.891 354.496 247.969 352.199 254.848 349.449
 c 279.152 363.219 l 284.66 360.176 l 291.629 356.324 298.426 352.004 304.855
 347.332 c 311.289 342.656 317.496 337.531 323.312 332.094 c 327.906 327.797
 l 322.312 300.383 l 327.047 294.691 331.418 288.688 335.367 282.441 c 363.148
 279.293 l 365.816 273.59 l 369.191 266.379 372.148 258.887 374.602 251.332
 c 377.059 243.773 379.07 235.977 380.578 228.156 c 381.77 221.977 l 361.137
 203.094 l 361.379 199.387 361.5 195.676 361.5 192 c h
361.5 192 m f
0.576471 0.717647 0.752941 rg
135.75 192 m 135.75 160.934 160.934 135.75 192 135.75 c 192 0 l 184.055
 0 176.016 0.496 168.113 1.477 c 161.867 2.254 l 150.297 27.684 l 143.109
 29.504 136.035 31.801 129.152 34.551 c 104.848 20.781 l 99.34 23.824 l 
92.371 27.676 85.574 31.996 79.145 36.668 c 72.711 41.344 66.504 46.469 
60.688 51.906 c 56.094 56.203 l 61.688 83.617 l 56.953 89.309 52.582 95.312
 48.633 101.559 c 20.852 104.707 l 18.184 110.41 l 14.809 117.621 11.852
 125.109 9.398 132.668 c 6.941 140.23 4.93 148.027 3.422 155.844 c 2.23 
162.023 l 22.863 180.906 l 22.621 184.613 22.5 188.328 22.5 192 c 22.5 195.676
 22.621 199.387 22.863 203.094 c 2.23 221.977 l 3.422 228.156 l 4.93 235.973
 6.941 243.77 9.398 251.332 c 11.852 258.891 14.809 266.379 18.184 273.59
 c 20.855 279.293 l 48.633 282.441 l 52.582 288.688 56.953 294.691 61.688
 300.383 c 56.094 327.797 l 60.691 332.094 l 66.504 337.531 72.711 342.656
 79.145 347.332 c 85.574 352.004 92.371 356.324 99.34 360.176 c 104.852 
363.219 l 129.152 349.449 l 136.035 352.199 143.109 354.496 150.297 356.316
 c 161.867 381.746 l 168.113 382.52 l 176.016 383.504 184.051 384 192 384
 c 192 248.25 l 160.934 248.25 135.75 223.066 135.75 192 c h
135.75 192 m f
0.4 0.494118 0.592157 rg
192 67.5 m 162 112.875 l 192 158.25 l 210.641 158.25 225.75 173.359 225.75
 192 c 225.75 210.641 210.641 225.75 192 225.75 c 162 271.125 l 192 316.5
 l 260.758 316.5 316.5 260.758 316.5 192 c 316.5 123.242 260.758 67.5 192
 67.5 c h
192 67.5 m f
0.447059 0.556863 0.584314 rg
158.25 192 m 158.25 173.359 173.359 158.25 192 158.25 c 192 67.5 l 123.242
 67.5 67.5 123.242 67.5 192 c 67.5 260.758 123.242 316.5 192 316.5 c 192
 225.75 l 173.359 225.75 158.25 210.641 158.25 192 c h
158.25 192 m f
Q Q
showpage
%%Trailer
end
%%EOF
