%!PS-Adobe-3.0 EPSF-3.0
%%Creator: cairo 1.16.0 (https://cairographics.org)
%%CreationDate: Tue May  5 07:54:07 2020
%%Pages: 1
%%DocumentData: Clean7Bit
%%LanguageLevel: 2
%%BoundingBox: 0 0 384 384
%%EndComments
%%BeginProlog
50 dict begin
/q { gsave } bind def
/Q { grestore } bind def
/cm { 6 array astore concat } bind def
/w { setlinewidth } bind def
/J { setlinecap } bind def
/j { setlinejoin } bind def
/M { setmiterlimit } bind def
/d { setdash } bind def
/m { moveto } bind def
/l { lineto } bind def
/c { curveto } bind def
/h { closepath } bind def
/re { exch dup neg 3 1 roll 5 3 roll moveto 0 rlineto
      0 exch rlineto 0 rlineto closepath } bind def
/S { stroke } bind def
/f { fill } bind def
/f* { eofill } bind def
/n { newpath } bind def
/W { clip } bind def
/W* { eoclip } bind def
/BT { } bind def
/ET { } bind def
/BDC { mark 3 1 roll /BDC pdfmark } bind def
/EMC { mark /EMC pdfmark } bind def
/cairo_store_point { /cairo_point_y exch def /cairo_point_x exch def } def
/Tj { show currentpoint cairo_store_point } bind def
/TJ {
  {
    dup
    type /stringtype eq
    { show } { -0.001 mul 0 cairo_font_matrix dtransform rmoveto } ifelse
  } forall
  currentpoint cairo_store_point
} bind def
/cairo_selectfont { cairo_font_matrix aload pop pop pop 0 0 6 array astore
    cairo_font exch selectfont cairo_point_x cairo_point_y moveto } bind def
/Tf { pop /cairo_font exch def /cairo_font_matrix where
      { pop cairo_selectfont } if } bind def
/Td { matrix translate cairo_font_matrix matrix concatmatrix dup
      /cairo_font_matrix exch def dup 4 get exch 5 get cairo_store_point
      /cairo_font where { pop cairo_selectfont } if } bind def
/Tm { 2 copy 8 2 roll 6 array astore /cairo_font_matrix exch def
      cairo_store_point /cairo_font where { pop cairo_selectfont } if } bind def
/g { setgray } bind def
/rg { setrgbcolor } bind def
/d1 { setcachedevice } bind def
/cairo_data_source {
  CairoDataIndex CairoData length lt
    { CairoData CairoDataIndex get /CairoDataIndex CairoDataIndex 1 add def }
    { () } ifelse
} def
/cairo_flush_ascii85_file { cairo_ascii85_file status { cairo_ascii85_file flushfile } if } def
/cairo_image { image cairo_flush_ascii85_file } def
/cairo_imagemask { imagemask cairo_flush_ascii85_file } def
%%EndProlog
%%BeginSetup
%%EndSetup
%%Page: 1 1
%%BeginPageSetup
%%PageBoundingBox: 0 0 384 384
%%EndPageSetup
q 0 0 384 384 rectclip
1 0 0 -1 0 384 cm q
0.513726 0.639216 0.670588 rg
134.93 238.418 m 182.652 190.695 l 195.91 203.953 l 148.188 251.676 l h
134.93 238.418 m f
0.576471 0.717647 0.752941 rg
132.277 235.766 m 180 188.043 l 187.953 195.996 l 140.23 243.719 l h
132.277 235.766 m f
49.645 302.535 m 9.871 374.129 l 23.027 387.289 44.441 387.289 57.598 374.129
 c 73.508 358.223 l h
49.645 302.535 m f
0.67451 0.835294 0.87451 rg
25.781 310.492 m 9.871 326.402 l -3.289 339.559 -3.289 360.973 9.871 374.129
 c 65.555 318.445 l h
25.781 310.492 m f
0.227451 0.435294 0.847059 rg
73.508 358.219 m 180.047 251.684 l 156.18 227.82 l 87.004 265.18 l 49.645
 334.355 l h
73.508 358.219 m f
0.231373 0.533333 0.960784 rg
25.75 310.465 m 132.27 203.945 l 156.133 227.809 l 49.613 334.328 l h
25.75 310.465 m f
0.576471 0.717647 0.752941 rg
347.645 36.355 m 215.992 80.242 l 172.105 211.895 l 220.578 260.367 299.172
 260.367 347.645 211.895 c 396.117 163.422 396.117 84.828 347.645 36.355
 c h
347.645 36.355 m f
0.67451 0.835294 0.87451 rg
172.105 36.355 m 123.633 84.828 123.633 163.422 172.105 211.895 c 347.645
 36.355 l 299.172 -12.117 220.578 -12.117 172.105 36.355 c h
172.105 36.355 m f
0.768627 0.952941 1 rg
315.824 68.176 m 231.898 96.148 l 203.926 180.074 l 234.824 210.977 284.926
 210.977 315.824 180.074 c 346.727 149.176 346.727 99.074 315.824 68.176
 c h
315.824 68.176 m f
1 g
203.926 68.176 m 173.023 99.074 173.023 149.176 203.926 180.074 c 315.824
 68.176 l 284.926 37.273 234.824 37.273 203.926 68.176 c h
203.926 68.176 m f
Q Q
showpage
%%Trailer
end
%%EOF
