%!PS-Adobe-3.0 EPSF-3.0
%%Creator: cairo 1.16.0 (https://cairographics.org)
%%CreationDate: Tue May  5 07:54:07 2020
%%Pages: 1
%%DocumentData: Clean7Bit
%%LanguageLevel: 2
%%BoundingBox: 22 0 362 384
%%EndComments
%%BeginProlog
50 dict begin
/q { gsave } bind def
/Q { grestore } bind def
/cm { 6 array astore concat } bind def
/w { setlinewidth } bind def
/J { setlinecap } bind def
/j { setlinejoin } bind def
/M { setmiterlimit } bind def
/d { setdash } bind def
/m { moveto } bind def
/l { lineto } bind def
/c { curveto } bind def
/h { closepath } bind def
/re { exch dup neg 3 1 roll 5 3 roll moveto 0 rlineto
      0 exch rlineto 0 rlineto closepath } bind def
/S { stroke } bind def
/f { fill } bind def
/f* { eofill } bind def
/n { newpath } bind def
/W { clip } bind def
/W* { eoclip } bind def
/BT { } bind def
/ET { } bind def
/BDC { mark 3 1 roll /BDC pdfmark } bind def
/EMC { mark /EMC pdfmark } bind def
/cairo_store_point { /cairo_point_y exch def /cairo_point_x exch def } def
/Tj { show currentpoint cairo_store_point } bind def
/TJ {
  {
    dup
    type /stringtype eq
    { show } { -0.001 mul 0 cairo_font_matrix dtransform rmoveto } ifelse
  } forall
  currentpoint cairo_store_point
} bind def
/cairo_selectfont { cairo_font_matrix aload pop pop pop 0 0 6 array astore
    cairo_font exch selectfont cairo_point_x cairo_point_y moveto } bind def
/Tf { pop /cairo_font exch def /cairo_font_matrix where
      { pop cairo_selectfont } if } bind def
/Td { matrix translate cairo_font_matrix matrix concatmatrix dup
      /cairo_font_matrix exch def dup 4 get exch 5 get cairo_store_point
      /cairo_font where { pop cairo_selectfont } if } bind def
/Tm { 2 copy 8 2 roll 6 array astore /cairo_font_matrix exch def
      cairo_store_point /cairo_font where { pop cairo_selectfont } if } bind def
/g { setgray } bind def
/rg { setrgbcolor } bind def
/d1 { setcachedevice } bind def
/cairo_data_source {
  CairoDataIndex CairoData length lt
    { CairoData CairoDataIndex get /CairoDataIndex CairoDataIndex 1 add def }
    { () } ifelse
} def
/cairo_flush_ascii85_file { cairo_ascii85_file status { cairo_ascii85_file flushfile } if } def
/cairo_image { image cairo_flush_ascii85_file } def
/cairo_imagemask { imagemask cairo_flush_ascii85_file } def
%%EndProlog
%%BeginSetup
%%EndSetup
%%Page: 1 1
%%BeginPageSetup
%%PageBoundingBox: 22 0 362 384
%%EndPageSetup
q 22 0 340 384 rectclip
1 0 0 -1 0 384 cm q
0.576471 0.717647 0.752941 rg
22.5 157.5 41.855 22.5 re f
0.4 0.494118 0.592157 rg
319.645 157.5 41.855 22.5 re f
0.576471 0.717647 0.752941 rg
192 0 m 177 11.25 l 192 22.5 l 226.125 22.5 l 226.125 56.25 l 248.625 56.25
 l 248.625 0 l h
192 0 m f
0.67451 0.835294 0.87451 rg
135.375 0 m 135.375 56.25 l 157.875 56.25 l 157.875 22.5 l 192 22.5 l 192
 0 l h
135.375 0 m f
0.4 0.494118 0.592157 rg
322.125 327.75 m 129.375 260.25 l 192 384 l 322.125 384 l h
322.125 327.75 m f
0.447059 0.556863 0.584314 rg
61.875 327.75 m 61.875 384 l 192 384 l 192 282.75 l h
61.875 327.75 m f
195.508 112.5 m 257.062 327.75 l 322.125 327.75 l 334.012 112.5 l h
195.508 112.5 m f
0.513726 0.639216 0.670588 rg
147 112.5 m 192 327.75 l 257.062 327.75 l 263.008 112.5 l h
147 112.5 m f
0.67451 0.835294 0.87451 rg
49.988 112.5 m 61.875 327.75 l 126.938 327.75 l 165.992 112.5 l h
49.988 112.5 m f
0.576471 0.717647 0.752941 rg
120.992 112.5 m 126.938 327.75 l 192 327.75 l 192 112.5 l h
120.992 112.5 m f
0.4 0.494118 0.592157 rg
355.875 101.25 m 355.875 70.234 330.641 45 299.625 45 c 192 45 l 154.5 
90 l 192 135 l 355.875 135 l h
355.875 101.25 m f
0.447059 0.556863 0.584314 rg
84.375 45 m 53.359 45 28.125 70.234 28.125 101.25 c 28.125 135 l 192 135
 l 192 45 l h
84.375 45 m f
Q Q
showpage
%%Trailer
end
%%EOF
