%!PS-Adobe-3.0 EPSF-3.0
%%Creator: cairo 1.16.0 (https://cairographics.org)
%%CreationDate: Tue May  5 07:54:08 2020
%%Pages: 1
%%DocumentData: Clean7Bit
%%LanguageLevel: 2
%%BoundingBox: 57 0 327 384
%%EndComments
%%BeginProlog
50 dict begin
/q { gsave } bind def
/Q { grestore } bind def
/cm { 6 array astore concat } bind def
/w { setlinewidth } bind def
/J { setlinecap } bind def
/j { setlinejoin } bind def
/M { setmiterlimit } bind def
/d { setdash } bind def
/m { moveto } bind def
/l { lineto } bind def
/c { curveto } bind def
/h { closepath } bind def
/re { exch dup neg 3 1 roll 5 3 roll moveto 0 rlineto
      0 exch rlineto 0 rlineto closepath } bind def
/S { stroke } bind def
/f { fill } bind def
/f* { eofill } bind def
/n { newpath } bind def
/W { clip } bind def
/W* { eoclip } bind def
/BT { } bind def
/ET { } bind def
/BDC { mark 3 1 roll /BDC pdfmark } bind def
/EMC { mark /EMC pdfmark } bind def
/cairo_store_point { /cairo_point_y exch def /cairo_point_x exch def } def
/Tj { show currentpoint cairo_store_point } bind def
/TJ {
  {
    dup
    type /stringtype eq
    { show } { -0.001 mul 0 cairo_font_matrix dtransform rmoveto } ifelse
  } forall
  currentpoint cairo_store_point
} bind def
/cairo_selectfont { cairo_font_matrix aload pop pop pop 0 0 6 array astore
    cairo_font exch selectfont cairo_point_x cairo_point_y moveto } bind def
/Tf { pop /cairo_font exch def /cairo_font_matrix where
      { pop cairo_selectfont } if } bind def
/Td { matrix translate cairo_font_matrix matrix concatmatrix dup
      /cairo_font_matrix exch def dup 4 get exch 5 get cairo_store_point
      /cairo_font where { pop cairo_selectfont } if } bind def
/Tm { 2 copy 8 2 roll 6 array astore /cairo_font_matrix exch def
      cairo_store_point /cairo_font where { pop cairo_selectfont } if } bind def
/g { setgray } bind def
/rg { setrgbcolor } bind def
/d1 { setcachedevice } bind def
/cairo_data_source {
  CairoDataIndex CairoData length lt
    { CairoData CairoDataIndex get /CairoDataIndex CairoDataIndex 1 add def }
    { () } ifelse
} def
/cairo_flush_ascii85_file { cairo_ascii85_file status { cairo_ascii85_file flushfile } if } def
/cairo_image { image cairo_flush_ascii85_file } def
/cairo_imagemask { imagemask cairo_flush_ascii85_file } def
%%EndProlog
%%BeginSetup
%%EndSetup
%%Page: 1 1
%%BeginPageSetup
%%PageBoundingBox: 57 0 327 384
%%EndPageSetup
q 57 0 270 384 rectclip
1 0 0 -1 0 384 cm q
0.67451 0.835294 0.87451 rg
192 0 m 169.5 28.125 l 192 56.25 l 216.852 56.25 237 76.398 237 101.25 
c 237 170.25 l 293.25 170.25 l 293.25 101.25 l 293.25 45.422 247.828 0 192
 0 c h
192 0 m f
0.768627 0.952941 1 rg
90.75 101.25 m 90.75 170.25 l 147 170.25 l 147 101.25 l 147 76.398 167.148
 56.25 192 56.25 c 192 0 l 136.172 0 90.75 45.422 90.75 101.25 c h
90.75 101.25 m f
0.576471 0.717647 0.752941 rg
327 159 m 192 159 l 147 271.5 l 192 384 l 327 384 l h
327 159 m f
0.67451 0.835294 0.87451 rg
57 159 135 225 re f
0.447059 0.556863 0.584314 rg
218.25 327.75 m 270.75 327.75 l 270.75 271.5 l 195.75 249 l h
218.25 327.75 m f
0.4 0.494118 0.592157 rg
169.5 249 m 192 327.75 l 218.25 327.75 l 218.25 249 l h
169.5 249 m f
0.447059 0.556863 0.584314 rg
143.25 249 m 165.75 327.75 l 192 327.75 l 192 249 l h
143.25 249 m f
0.513726 0.639216 0.670588 rg
113.25 271.5 m 113.25 327.75 l 165.75 327.75 l 165.75 249 l h
113.25 271.5 m f
218.25 215.25 m 203.25 243.375 l 218.25 271.5 l 270.75 271.5 l 270.75 215.25
 l h
218.25 215.25 m f
0.447059 0.556863 0.584314 rg
218.25 271.5 m 218.25 215.25 l 192 215.25 l 177 243.375 l 192 271.5 l h
218.25 271.5 m f
0.513726 0.639216 0.670588 rg
165.75 215.25 m 150.75 243.375 l 165.75 271.5 l 192 271.5 l 192 215.25 
l h
165.75 215.25 m f
0.576471 0.717647 0.752941 rg
113.25 215.25 52.5 56.25 re f
Q Q
showpage
%%Trailer
end
%%EOF
