%!PS-Adobe-3.0 EPSF-3.0
%%Creator: cairo 1.16.0 (https://cairographics.org)
%%CreationDate: Tue May  5 07:54:08 2020
%%Pages: 1
%%DocumentData: Clean7Bit
%%LanguageLevel: 2
%%BoundingBox: 22 0 362 384
%%EndComments
%%BeginProlog
50 dict begin
/q { gsave } bind def
/Q { grestore } bind def
/cm { 6 array astore concat } bind def
/w { setlinewidth } bind def
/J { setlinecap } bind def
/j { setlinejoin } bind def
/M { setmiterlimit } bind def
/d { setdash } bind def
/m { moveto } bind def
/l { lineto } bind def
/c { curveto } bind def
/h { closepath } bind def
/re { exch dup neg 3 1 roll 5 3 roll moveto 0 rlineto
      0 exch rlineto 0 rlineto closepath } bind def
/S { stroke } bind def
/f { fill } bind def
/f* { eofill } bind def
/n { newpath } bind def
/W { clip } bind def
/W* { eoclip } bind def
/BT { } bind def
/ET { } bind def
/BDC { mark 3 1 roll /BDC pdfmark } bind def
/EMC { mark /EMC pdfmark } bind def
/cairo_store_point { /cairo_point_y exch def /cairo_point_x exch def } def
/Tj { show currentpoint cairo_store_point } bind def
/TJ {
  {
    dup
    type /stringtype eq
    { show } { -0.001 mul 0 cairo_font_matrix dtransform rmoveto } ifelse
  } forall
  currentpoint cairo_store_point
} bind def
/cairo_selectfont { cairo_font_matrix aload pop pop pop 0 0 6 array astore
    cairo_font exch selectfont cairo_point_x cairo_point_y moveto } bind def
/Tf { pop /cairo_font exch def /cairo_font_matrix where
      { pop cairo_selectfont } if } bind def
/Td { matrix translate cairo_font_matrix matrix concatmatrix dup
      /cairo_font_matrix exch def dup 4 get exch 5 get cairo_store_point
      /cairo_font where { pop cairo_selectfont } if } bind def
/Tm { 2 copy 8 2 roll 6 array astore /cairo_font_matrix exch def
      cairo_store_point /cairo_font where { pop cairo_selectfont } if } bind def
/g { setgray } bind def
/rg { setrgbcolor } bind def
/d1 { setcachedevice } bind def
/cairo_data_source {
  CairoDataIndex CairoData length lt
    { CairoData CairoDataIndex get /CairoDataIndex CairoDataIndex 1 add def }
    { () } ifelse
} def
/cairo_flush_ascii85_file { cairo_ascii85_file status { cairo_ascii85_file flushfile } if } def
/cairo_image { image cairo_flush_ascii85_file } def
/cairo_imagemask { imagemask cairo_flush_ascii85_file } def
%%EndProlog
%%BeginSetup
%%EndSetup
%%Page: 1 1
%%BeginPageSetup
%%PageBoundingBox: 22 0 362 384
%%EndPageSetup
q 22 0 340 384 rectclip
1 0 0 -1 0 384 cm q
0.576471 0.717647 0.752941 rg
192 0 m 87 192 l 192 384 l 195.75 382.676 l 243.773 365.699 284.953 334.773
 314.832 293.242 c 345.363 250.805 361.5 200.648 361.5 148.203 c 361.5 48.199
 l h
192 0 m f
0.67451 0.835294 0.87451 rg
22.5 48.199 m 22.5 148.203 l 22.5 200.648 38.637 250.805 69.168 293.242
 c 99.047 334.777 140.227 365.699 188.25 382.676 c 192 384 l 192 0 l h
22.5 48.199 m f
0.768627 0.952941 1 rg
315.906 163.891 m 316.301 158.695 316.5 153.461 316.5 148.203 c 316.5 82.188
 l 192 46.785 l 109.5 163.891 l h
315.906 163.891 m f
1 g
192 46.785 m 67.5 82.188 l 67.5 148.203 l 67.5 153.461 67.699 158.695 68.094
 163.891 c 192 163.891 l h
192 46.785 m f
0.231373 0.533333 0.960784 rg
192 128.656 m 117 232.312 l 192 335.965 l 196.621 333.883 l 229.078 319.262
 257.324 296.121 278.301 266.965 c 300.23 236.48 313.086 201.121 315.906
 163.891 c h
192 128.656 m f
0.156863 0.670588 0.980392 rg
68.094 163.891 m 70.914 201.121 83.77 236.48 105.699 266.965 c 126.676 
296.121 154.922 319.262 187.379 333.883 c 192 335.965 l 192 128.656 l h
68.094 163.891 m f
Q Q
showpage
%%Trailer
end
%%EOF
