%!PS-Adobe-3.0 EPSF-3.0
%%Creator: cairo 1.16.0 (https://cairographics.org)
%%CreationDate: Tue May  5 07:54:09 2020
%%Pages: 1
%%DocumentData: Clean7Bit
%%LanguageLevel: 2
%%BoundingBox: 0 0 384 384
%%EndComments
%%BeginProlog
50 dict begin
/q { gsave } bind def
/Q { grestore } bind def
/cm { 6 array astore concat } bind def
/w { setlinewidth } bind def
/J { setlinecap } bind def
/j { setlinejoin } bind def
/M { setmiterlimit } bind def
/d { setdash } bind def
/m { moveto } bind def
/l { lineto } bind def
/c { curveto } bind def
/h { closepath } bind def
/re { exch dup neg 3 1 roll 5 3 roll moveto 0 rlineto
      0 exch rlineto 0 rlineto closepath } bind def
/S { stroke } bind def
/f { fill } bind def
/f* { eofill } bind def
/n { newpath } bind def
/W { clip } bind def
/W* { eoclip } bind def
/BT { } bind def
/ET { } bind def
/BDC { mark 3 1 roll /BDC pdfmark } bind def
/EMC { mark /EMC pdfmark } bind def
/cairo_store_point { /cairo_point_y exch def /cairo_point_x exch def } def
/Tj { show currentpoint cairo_store_point } bind def
/TJ {
  {
    dup
    type /stringtype eq
    { show } { -0.001 mul 0 cairo_font_matrix dtransform rmoveto } ifelse
  } forall
  currentpoint cairo_store_point
} bind def
/cairo_selectfont { cairo_font_matrix aload pop pop pop 0 0 6 array astore
    cairo_font exch selectfont cairo_point_x cairo_point_y moveto } bind def
/Tf { pop /cairo_font exch def /cairo_font_matrix where
      { pop cairo_selectfont } if } bind def
/Td { matrix translate cairo_font_matrix matrix concatmatrix dup
      /cairo_font_matrix exch def dup 4 get exch 5 get cairo_store_point
      /cairo_font where { pop cairo_selectfont } if } bind def
/Tm { 2 copy 8 2 roll 6 array astore /cairo_font_matrix exch def
      cairo_store_point /cairo_font where { pop cairo_selectfont } if } bind def
/g { setgray } bind def
/rg { setrgbcolor } bind def
/d1 { setcachedevice } bind def
/cairo_data_source {
  CairoDataIndex CairoData length lt
    { CairoData CairoDataIndex get /CairoDataIndex CairoDataIndex 1 add def }
    { () } ifelse
} def
/cairo_flush_ascii85_file { cairo_ascii85_file status { cairo_ascii85_file flushfile } if } def
/cairo_image { image cairo_flush_ascii85_file } def
/cairo_imagemask { imagemask cairo_flush_ascii85_file } def
%%EndProlog
%%BeginSetup
%%EndSetup
%%Page: 1 1
%%BeginPageSetup
%%PageBoundingBox: 0 0 384 384
%%EndPageSetup
q 0 0 384 384 rectclip
1 0 0 -1 0 384 cm q
0.219608 0.341176 0.737255 rg
384 0 m 339 0 l 118.875 192 l 208.875 384 l 384 384 l h
384 0 m f
0.227451 0.435294 0.847059 rg
33.75 0 m 33.75 384 l 208.875 384 l 208.875 192 l 78.75 0 l h
33.75 0 m f
0.768627 0.952941 1 rg
163.875 15 m 163.875 324 l 251.758 324 l 265.383 333.445 281.887 339 299.625
 339 c 321.281 339 339 321.281 339 299.625 c 339 0 l 294 0 l h
163.875 15 m f
1 g
78.75 0 m 78.75 324 l 208.875 324 l 208.875 15 l 123.75 0 l h
78.75 0 m f
0.541176 0.905882 1 rg
260.25 299.625 m 260.25 294 l 208.875 294 l 186.375 316.5 l 208.875 339
 l 299.625 339 l 277.969 339 260.25 321.281 260.25 299.625 c h
260.25 299.625 m f
0.768627 0.952941 1 rg
0 294 m 0 299.625 l 0 321.281 17.719 339 39.375 339 c 208.875 339 l 208.875
 294 l h
0 294 m f
0.513726 0.639216 0.670588 rg
271.5 0 m 208.875 0 l 186.375 33.75 l 208.875 45 l 282.75 45 l h
271.5 0 m f
0.576471 0.717647 0.752941 rg
146.25 0 m 135 45 l 208.875 45 l 208.875 0 l h
146.25 0 m f
294 0 m 271.5 0 l 271.5 90 l 208.875 90 l 193.875 101.25 l 208.875 112.5
 l 294 112.5 l h
294 0 m f
0.67451 0.835294 0.87451 rg
146.25 90 m 146.25 0 l 123.75 0 l 123.75 112.5 l 208.875 112.5 l 208.875
 90 l h
146.25 90 m f
Q Q
showpage
%%Trailer
end
%%EOF
