%!PS-Adobe-3.0 EPSF-3.0
%%Creator: cairo 1.16.0 (https://cairographics.org)
%%CreationDate: Tue May  5 07:54:10 2020
%%Pages: 1
%%DocumentData: Clean7Bit
%%LanguageLevel: 2
%%BoundingBox: 0 0 384 384
%%EndComments
%%BeginProlog
50 dict begin
/q { gsave } bind def
/Q { grestore } bind def
/cm { 6 array astore concat } bind def
/w { setlinewidth } bind def
/J { setlinecap } bind def
/j { setlinejoin } bind def
/M { setmiterlimit } bind def
/d { setdash } bind def
/m { moveto } bind def
/l { lineto } bind def
/c { curveto } bind def
/h { closepath } bind def
/re { exch dup neg 3 1 roll 5 3 roll moveto 0 rlineto
      0 exch rlineto 0 rlineto closepath } bind def
/S { stroke } bind def
/f { fill } bind def
/f* { eofill } bind def
/n { newpath } bind def
/W { clip } bind def
/W* { eoclip } bind def
/BT { } bind def
/ET { } bind def
/BDC { mark 3 1 roll /BDC pdfmark } bind def
/EMC { mark /EMC pdfmark } bind def
/cairo_store_point { /cairo_point_y exch def /cairo_point_x exch def } def
/Tj { show currentpoint cairo_store_point } bind def
/TJ {
  {
    dup
    type /stringtype eq
    { show } { -0.001 mul 0 cairo_font_matrix dtransform rmoveto } ifelse
  } forall
  currentpoint cairo_store_point
} bind def
/cairo_selectfont { cairo_font_matrix aload pop pop pop 0 0 6 array astore
    cairo_font exch selectfont cairo_point_x cairo_point_y moveto } bind def
/Tf { pop /cairo_font exch def /cairo_font_matrix where
      { pop cairo_selectfont } if } bind def
/Td { matrix translate cairo_font_matrix matrix concatmatrix dup
      /cairo_font_matrix exch def dup 4 get exch 5 get cairo_store_point
      /cairo_font where { pop cairo_selectfont } if } bind def
/Tm { 2 copy 8 2 roll 6 array astore /cairo_font_matrix exch def
      cairo_store_point /cairo_font where { pop cairo_selectfont } if } bind def
/g { setgray } bind def
/rg { setrgbcolor } bind def
/d1 { setcachedevice } bind def
/cairo_data_source {
  CairoDataIndex CairoData length lt
    { CairoData CairoDataIndex get /CairoDataIndex CairoDataIndex 1 add def }
    { () } ifelse
} def
/cairo_flush_ascii85_file { cairo_ascii85_file status { cairo_ascii85_file flushfile } if } def
/cairo_image { image cairo_flush_ascii85_file } def
/cairo_imagemask { imagemask cairo_flush_ascii85_file } def
%%EndProlog
%%BeginSetup
%%EndSetup
%%Page: 1 1
%%BeginPageSetup
%%PageBoundingBox: 0 0 384 384
%%EndPageSetup
q 0 0 384 384 rectclip
1 0 0 -1 0 384 cm q
0.541176 0.905882 1 rg
237 0 m 90 369 l 288.801 369 l 301.184 378.191 319.121 384 339 384 c 363.75
 384 384 363.75 384 339 c 384 0 l h
237 0 m f
0.768627 0.952941 1 rg
90 0 147 369 re f
0.309804 0.858824 1 rg
294 339 m 237 339 l 214.5 361.5 l 237 384 l 339 384 l 314.25 384 294 363.75
 294 339 c h
294 339 m f
0.541176 0.905882 1 rg
0 339 m 0 363.75 20.25 384 45 384 c 237 384 l 237 339 l h
0 339 m f
0.203922 0.0509804 0.4 rg
316.5 203.25 m 237 203.25 l 229.5 214.5 l 237 225.75 l 316.5 225.75 l h
316.5 203.25 m f
0.215686 0.243137 0.623529 rg
157.5 203.25 79.5 22.5 re f
0.203922 0.0509804 0.4 rg
316.5 158.25 m 237 158.25 l 229.5 169.5 l 237 180.75 l 316.5 180.75 l h
316.5 158.25 m f
0.215686 0.243137 0.623529 rg
157.5 158.25 79.5 22.5 re f
0.203922 0.0509804 0.4 rg
316.5 113.25 m 237 113.25 l 229.5 124.5 l 237 135.75 l 316.5 135.75 l h
316.5 113.25 m f
0.215686 0.243137 0.623529 rg
157.5 113.25 79.5 22.5 re f
Q Q
showpage
%%Trailer
end
%%EOF
