%!PS-Adobe-3.0 EPSF-3.0
%%Creator: cairo 1.16.0 (https://cairographics.org)
%%CreationDate: Tue May  5 07:54:11 2020
%%Pages: 1
%%DocumentData: Clean7Bit
%%LanguageLevel: 2
%%BoundingBox: 0 0 384 384
%%EndComments
%%BeginProlog
50 dict begin
/q { gsave } bind def
/Q { grestore } bind def
/cm { 6 array astore concat } bind def
/w { setlinewidth } bind def
/J { setlinecap } bind def
/j { setlinejoin } bind def
/M { setmiterlimit } bind def
/d { setdash } bind def
/m { moveto } bind def
/l { lineto } bind def
/c { curveto } bind def
/h { closepath } bind def
/re { exch dup neg 3 1 roll 5 3 roll moveto 0 rlineto
      0 exch rlineto 0 rlineto closepath } bind def
/S { stroke } bind def
/f { fill } bind def
/f* { eofill } bind def
/n { newpath } bind def
/W { clip } bind def
/W* { eoclip } bind def
/BT { } bind def
/ET { } bind def
/BDC { mark 3 1 roll /BDC pdfmark } bind def
/EMC { mark /EMC pdfmark } bind def
/cairo_store_point { /cairo_point_y exch def /cairo_point_x exch def } def
/Tj { show currentpoint cairo_store_point } bind def
/TJ {
  {
    dup
    type /stringtype eq
    { show } { -0.001 mul 0 cairo_font_matrix dtransform rmoveto } ifelse
  } forall
  currentpoint cairo_store_point
} bind def
/cairo_selectfont { cairo_font_matrix aload pop pop pop 0 0 6 array astore
    cairo_font exch selectfont cairo_point_x cairo_point_y moveto } bind def
/Tf { pop /cairo_font exch def /cairo_font_matrix where
      { pop cairo_selectfont } if } bind def
/Td { matrix translate cairo_font_matrix matrix concatmatrix dup
      /cairo_font_matrix exch def dup 4 get exch 5 get cairo_store_point
      /cairo_font where { pop cairo_selectfont } if } bind def
/Tm { 2 copy 8 2 roll 6 array astore /cairo_font_matrix exch def
      cairo_store_point /cairo_font where { pop cairo_selectfont } if } bind def
/g { setgray } bind def
/rg { setrgbcolor } bind def
/d1 { setcachedevice } bind def
/cairo_data_source {
  CairoDataIndex CairoData length lt
    { CairoData CairoDataIndex get /CairoDataIndex CairoDataIndex 1 add def }
    { () } ifelse
} def
/cairo_flush_ascii85_file { cairo_ascii85_file status { cairo_ascii85_file flushfile } if } def
/cairo_image { image cairo_flush_ascii85_file } def
/cairo_imagemask { imagemask cairo_flush_ascii85_file } def
%%EndProlog
%%BeginSetup
%%EndSetup
%%Page: 1 1
%%BeginPageSetup
%%PageBoundingBox: 0 0 384 384
%%EndPageSetup
q 0 0 384 384 rectclip
1 0 0 -1 0 384 cm q
0.231373 0.533333 0.960784 rg
224.398 224.301 m 134.301 314.398 l 116.465 332.234 87.441 332.234 69.602
 314.398 c 33.805 318.375 l 29.828 354.172 l 69.598 393.941 134.309 393.941
 174.078 354.172 c 264.172 264.078 l h
224.398 224.301 m f
0.156863 0.670588 0.980392 rg
29.828 209.922 m -9.941 249.691 -9.941 314.402 29.828 354.172 c 69.602 
314.398 l 51.766 296.559 51.766 267.535 69.602 249.699 c 159.699 159.602
 l 119.922 119.828 l h
29.828 209.922 m f
354.172 29.828 m 318.375 33.805 l 314.398 69.602 l 332.234 87.441 332.234
 116.465 314.398 134.305 c 224.398 224.305 l 206.559 242.141 177.535 242.141
 159.695 224.305 c 123.898 228.281 l 119.922 264.078 l 159.691 303.848 224.402
 303.848 264.172 264.078 c 354.172 174.078 l 393.941 134.309 393.941 69.598
 354.172 29.828 c h
354.172 29.828 m f
0.309804 0.858824 1 rg
119.922 119.828 m 80.152 159.598 80.152 224.309 119.922 264.078 c 159.699
 224.301 l 141.859 206.465 141.859 177.441 159.699 159.602 c 204.699 114.602
 l 206.023 73.5 l 164.922 74.828 l h
119.922 119.828 m f
0.0784314 0.811765 1 rg
314.398 69.602 m 354.172 29.828 l 314.402 -9.941 249.691 -9.941 209.922
 29.828 c 164.922 74.828 l 204.699 114.602 l 249.699 69.602 l 267.535 51.766
 296.559 51.766 314.398 69.602 c h
314.398 69.602 m f
Q Q
showpage
%%Trailer
end
%%EOF
