%!PS-Adobe-3.0 EPSF-3.0
%%Creator: cairo 1.16.0 (https://cairographics.org)
%%CreationDate: Tue May  5 07:54:11 2020
%%Pages: 1
%%DocumentData: Clean7Bit
%%LanguageLevel: 2
%%BoundingBox: 0 0 384 384
%%EndComments
%%BeginProlog
50 dict begin
/q { gsave } bind def
/Q { grestore } bind def
/cm { 6 array astore concat } bind def
/w { setlinewidth } bind def
/J { setlinecap } bind def
/j { setlinejoin } bind def
/M { setmiterlimit } bind def
/d { setdash } bind def
/m { moveto } bind def
/l { lineto } bind def
/c { curveto } bind def
/h { closepath } bind def
/re { exch dup neg 3 1 roll 5 3 roll moveto 0 rlineto
      0 exch rlineto 0 rlineto closepath } bind def
/S { stroke } bind def
/f { fill } bind def
/f* { eofill } bind def
/n { newpath } bind def
/W { clip } bind def
/W* { eoclip } bind def
/BT { } bind def
/ET { } bind def
/BDC { mark 3 1 roll /BDC pdfmark } bind def
/EMC { mark /EMC pdfmark } bind def
/cairo_store_point { /cairo_point_y exch def /cairo_point_x exch def } def
/Tj { show currentpoint cairo_store_point } bind def
/TJ {
  {
    dup
    type /stringtype eq
    { show } { -0.001 mul 0 cairo_font_matrix dtransform rmoveto } ifelse
  } forall
  currentpoint cairo_store_point
} bind def
/cairo_selectfont { cairo_font_matrix aload pop pop pop 0 0 6 array astore
    cairo_font exch selectfont cairo_point_x cairo_point_y moveto } bind def
/Tf { pop /cairo_font exch def /cairo_font_matrix where
      { pop cairo_selectfont } if } bind def
/Td { matrix translate cairo_font_matrix matrix concatmatrix dup
      /cairo_font_matrix exch def dup 4 get exch 5 get cairo_store_point
      /cairo_font where { pop cairo_selectfont } if } bind def
/Tm { 2 copy 8 2 roll 6 array astore /cairo_font_matrix exch def
      cairo_store_point /cairo_font where { pop cairo_selectfont } if } bind def
/g { setgray } bind def
/rg { setrgbcolor } bind def
/d1 { setcachedevice } bind def
/cairo_data_source {
  CairoDataIndex CairoData length lt
    { CairoData CairoDataIndex get /CairoDataIndex CairoDataIndex 1 add def }
    { () } ifelse
} def
/cairo_flush_ascii85_file { cairo_ascii85_file status { cairo_ascii85_file flushfile } if } def
/cairo_image { image cairo_flush_ascii85_file } def
/cairo_imagemask { imagemask cairo_flush_ascii85_file } def
%%EndProlog
%%BeginSetup
%%EndSetup
%%Page: 1 1
%%BeginPageSetup
%%PageBoundingBox: 0 0 384 384
%%EndPageSetup
q 0 0 384 384 rectclip
1 0 0 -1 0 384 cm q
0.576471 0.717647 0.752941 rg
175.008 224.902 m 161.75 211.641 l 7.957 365.438 l 7.957 376.043 l 15.91
 384 l h
175.008 224.902 m f
0.67451 0.835294 0.87451 rg
-0.027 368.055 m 159.047 208.98 l 167 216.934 l 7.926 376.012 l h
-0.027 368.055 m f
0.203922 0.0509804 0.4 rg
318.969 134.902 m 268.121 84.059 l 170.012 182.168 l 239.848 252.004 l 
h
318.969 134.902 m f
0.294118 0.152941 0.658824 rg
249.098 65.031 m 131.996 144.152 l 185.922 198.078 l 284.031 99.969 l h
249.098 65.031 m f
315.852 68.148 m 276.078 76.102 l 268.121 115.879 l 296.496 144.25 l 318.426
 166.18 354.113 166.184 376.043 144.25 c 384 136.293 l h
315.852 68.148 m f
0.384314 0.254902 0.917647 rg
247.707 0 m 239.75 7.957 l 217.816 29.887 217.82 65.574 239.75 87.504 c
 268.121 115.879 l 315.852 68.148 l h
247.707 0 m f
0.294118 0.152941 0.658824 rg
254.07 345.777 m 284.773 315.07 284.773 265.109 254.07 234.406 c 201.832
 182.168 l 151.145 201.035 l 138.191 245.809 l 246.113 353.73 l h
254.07 345.777 m f
0.384314 0.254902 0.917647 rg
149.594 129.93 m 118.891 99.227 68.93 99.227 38.227 129.93 c 30.27 137.887
 l 138.191 245.809 l 201.832 182.168 l h
149.594 129.93 m f
Q Q
showpage
%%Trailer
end
%%EOF
