%!PS-Adobe-3.0 EPSF-3.0
%%Creator: cairo 1.16.0 (https://cairographics.org)
%%CreationDate: Tue May  5 07:54:12 2020
%%Pages: 1
%%DocumentData: Clean7Bit
%%LanguageLevel: 2
%%BoundingBox: 0 0 384 384
%%EndComments
%%BeginProlog
50 dict begin
/q { gsave } bind def
/Q { grestore } bind def
/cm { 6 array astore concat } bind def
/w { setlinewidth } bind def
/J { setlinecap } bind def
/j { setlinejoin } bind def
/M { setmiterlimit } bind def
/d { setdash } bind def
/m { moveto } bind def
/l { lineto } bind def
/c { curveto } bind def
/h { closepath } bind def
/re { exch dup neg 3 1 roll 5 3 roll moveto 0 rlineto
      0 exch rlineto 0 rlineto closepath } bind def
/S { stroke } bind def
/f { fill } bind def
/f* { eofill } bind def
/n { newpath } bind def
/W { clip } bind def
/W* { eoclip } bind def
/BT { } bind def
/ET { } bind def
/BDC { mark 3 1 roll /BDC pdfmark } bind def
/EMC { mark /EMC pdfmark } bind def
/cairo_store_point { /cairo_point_y exch def /cairo_point_x exch def } def
/Tj { show currentpoint cairo_store_point } bind def
/TJ {
  {
    dup
    type /stringtype eq
    { show } { -0.001 mul 0 cairo_font_matrix dtransform rmoveto } ifelse
  } forall
  currentpoint cairo_store_point
} bind def
/cairo_selectfont { cairo_font_matrix aload pop pop pop 0 0 6 array astore
    cairo_font exch selectfont cairo_point_x cairo_point_y moveto } bind def
/Tf { pop /cairo_font exch def /cairo_font_matrix where
      { pop cairo_selectfont } if } bind def
/Td { matrix translate cairo_font_matrix matrix concatmatrix dup
      /cairo_font_matrix exch def dup 4 get exch 5 get cairo_store_point
      /cairo_font where { pop cairo_selectfont } if } bind def
/Tm { 2 copy 8 2 roll 6 array astore /cairo_font_matrix exch def
      cairo_store_point /cairo_font where { pop cairo_selectfont } if } bind def
/g { setgray } bind def
/rg { setrgbcolor } bind def
/d1 { setcachedevice } bind def
/cairo_data_source {
  CairoDataIndex CairoData length lt
    { CairoData CairoDataIndex get /CairoDataIndex CairoDataIndex 1 add def }
    { () } ifelse
} def
/cairo_flush_ascii85_file { cairo_ascii85_file status { cairo_ascii85_file flushfile } if } def
/cairo_image { image cairo_flush_ascii85_file } def
/cairo_imagemask { imagemask cairo_flush_ascii85_file } def
%%EndProlog
%%BeginSetup
%%EndSetup
%%Page: 1 1
%%BeginPageSetup
%%PageBoundingBox: 0 0 384 384
%%EndPageSetup
q 0 0 384 384 rectclip
1 0 0 -1 0 384 cm q
0.156863 0.670588 0.980392 rg
192 0 m 96 192 l 192 384 l 298.039 384 384 298.039 384 192 c 384 85.961
 298.039 0 192 0 c h
192 0 m f
0.0784314 0.811765 1 rg
0 192 m 0 298.039 85.961 384 192 384 c 192 0 l 85.961 0 0 85.961 0 192 
c h
0 192 m f
0.768627 0.952941 1 rg
192 45 m 118.5 192 l 192 339 l 273.188 339 339 273.188 339 192 c 339 110.812
 273.188 45 192 45 c h
192 45 m f
1 g
45 192 m 45 273.188 110.812 339 192 339 c 192 45 l 110.812 45 45 110.812
 45 192 c h
45 192 m f
0.203922 0.0509804 0.4 rg
223.82 207.91 m 192 176.09 l 177 176.09 l 192 207.91 l 207.91 223.82 l 
h
223.82 207.91 m f
0.215686 0.243137 0.623529 rg
128.094 112.188 m 112.188 128.094 l 192 207.91 l 192 176.09 l h
128.094 112.188 m f
256.172 111.922 m 192 176.09 l 177 207.91 l 192 207.91 l 272.078 127.828
 l h
256.172 111.922 m f
0.219608 0.341176 0.737255 rg
160.18 207.91 m 176.09 223.82 l 192 207.91 l 192 176.09 l h
160.18 207.91 m f
0.203922 0.0509804 0.4 rg
203.25 67.5 m 192 67.5 l 184.5 78.75 l 192 90 l 203.25 90 l h
203.25 67.5 m f
0.215686 0.243137 0.623529 rg
180.75 67.5 11.25 22.5 re f
0.203922 0.0509804 0.4 rg
203.25 294 m 192 294 l 184.5 305.25 l 192 316.5 l 203.25 316.5 l h
203.25 294 m f
0.215686 0.243137 0.623529 rg
180.75 294 11.25 22.5 re f
67.5 180.75 22.5 22.5 re f
0.203922 0.0509804 0.4 rg
294 180.75 22.5 22.5 re f
Q Q
showpage
%%Trailer
end
%%EOF
