%!PS-Adobe-3.0 EPSF-3.0
%%Creator: cairo 1.16.0 (https://cairographics.org)
%%CreationDate: Tue May  5 07:54:13 2020
%%Pages: 1
%%DocumentData: Clean7Bit
%%LanguageLevel: 2
%%BoundingBox: 0 0 384 384
%%EndComments
%%BeginProlog
50 dict begin
/q { gsave } bind def
/Q { grestore } bind def
/cm { 6 array astore concat } bind def
/w { setlinewidth } bind def
/J { setlinecap } bind def
/j { setlinejoin } bind def
/M { setmiterlimit } bind def
/d { setdash } bind def
/m { moveto } bind def
/l { lineto } bind def
/c { curveto } bind def
/h { closepath } bind def
/re { exch dup neg 3 1 roll 5 3 roll moveto 0 rlineto
      0 exch rlineto 0 rlineto closepath } bind def
/S { stroke } bind def
/f { fill } bind def
/f* { eofill } bind def
/n { newpath } bind def
/W { clip } bind def
/W* { eoclip } bind def
/BT { } bind def
/ET { } bind def
/BDC { mark 3 1 roll /BDC pdfmark } bind def
/EMC { mark /EMC pdfmark } bind def
/cairo_store_point { /cairo_point_y exch def /cairo_point_x exch def } def
/Tj { show currentpoint cairo_store_point } bind def
/TJ {
  {
    dup
    type /stringtype eq
    { show } { -0.001 mul 0 cairo_font_matrix dtransform rmoveto } ifelse
  } forall
  currentpoint cairo_store_point
} bind def
/cairo_selectfont { cairo_font_matrix aload pop pop pop 0 0 6 array astore
    cairo_font exch selectfont cairo_point_x cairo_point_y moveto } bind def
/Tf { pop /cairo_font exch def /cairo_font_matrix where
      { pop cairo_selectfont } if } bind def
/Td { matrix translate cairo_font_matrix matrix concatmatrix dup
      /cairo_font_matrix exch def dup 4 get exch 5 get cairo_store_point
      /cairo_font where { pop cairo_selectfont } if } bind def
/Tm { 2 copy 8 2 roll 6 array astore /cairo_font_matrix exch def
      cairo_store_point /cairo_font where { pop cairo_selectfont } if } bind def
/g { setgray } bind def
/rg { setrgbcolor } bind def
/d1 { setcachedevice } bind def
/cairo_data_source {
  CairoDataIndex CairoData length lt
    { CairoData CairoDataIndex get /CairoDataIndex CairoDataIndex 1 add def }
    { () } ifelse
} def
/cairo_flush_ascii85_file { cairo_ascii85_file status { cairo_ascii85_file flushfile } if } def
/cairo_image { image cairo_flush_ascii85_file } def
/cairo_imagemask { imagemask cairo_flush_ascii85_file } def
%%EndProlog
%%BeginSetup
%%EndSetup
%%Page: 1 1
%%BeginPageSetup
%%PageBoundingBox: 0 0 384 384
%%EndPageSetup
q 0 0 384 384 rectclip
1 0 0 -1 0 384 cm q
0.8 0.196078 0.270588 rg
384 69 m 384 0 l 339 0 l 294 125.25 l h
384 69 m f
1 0.243137 0.227451 rg
339 69 m 339 0 l 169.5 0 l 124.5 125.25 l h
339 69 m f
1 0.364706 0.203922 rg
169.5 0 m 0 0 l 0 69 l 169.5 125.25 l h
169.5 0 m f
0.309804 0.858824 1 rg
384 69 m 339 69 l 282.75 226.5 l 339 384 l 384 384 l h
384 69 m f
0.541176 0.905882 1 rg
169.5 69 m 117 226.5 l 169.5 384 l 339 384 l 339 69 l h
169.5 69 m f
0.768627 0.952941 1 rg
0 69 169.5 315 re f
0.0784314 0.811765 1 rg
169.5 339 m 211 339 l 211 264 l 144.766 239 l h
169.5 339 m f
0.309804 0.858824 1 rg
103.266 239 m 128 339 l 169.5 339 l 169.5 239 l h
103.266 239 m f
0.0784314 0.811765 1 rg
45 264 m 45 339 l 128 339 l 128 239 l h
45 264 m f
0.156863 0.670588 0.980392 rg
211 114 m 186.266 214 l 294 189 l 294 114 l h
211 114 m f
0.0784314 0.811765 1 rg
211 214 m 211 114 l 169.5 114 l 144.766 214 l h
211 214 m f
0.309804 0.858824 1 rg
169.5 214 m 169.5 114 l 128 114 l 103.266 214 l h
169.5 214 m f
0.0784314 0.811765 1 rg
128 114 m 45 114 l 45 189 l 128 214 l h
128 114 m f
0.231373 0.533333 0.960784 rg
211 264 m 294 264 l 294 189 l 211 189 l 178.02 226.5 l h
211 264 m f
0.156863 0.670588 0.980392 rg
169.5 189 m 144.766 226.5 l 169.5 264 l 211 264 l 211 189 l h
169.5 189 m f
0.0784314 0.811765 1 rg
128 264 m 169.5 264 l 169.5 189 l 128 189 l 103.266 226.5 l h
128 264 m f
0.309804 0.858824 1 rg
45 189 83 75 re f
Q Q
showpage
%%Trailer
end
%%EOF
