%!PS-Adobe-3.0 EPSF-3.0
%%Creator: cairo 1.16.0 (https://cairographics.org)
%%CreationDate: Tue May  5 07:53:51 2020
%%Pages: 1
%%DocumentData: Clean7Bit
%%LanguageLevel: 2
%%BoundingBox: 0 56 384 328
%%EndComments
%%BeginProlog
50 dict begin
/q { gsave } bind def
/Q { grestore } bind def
/cm { 6 array astore concat } bind def
/w { setlinewidth } bind def
/J { setlinecap } bind def
/j { setlinejoin } bind def
/M { setmiterlimit } bind def
/d { setdash } bind def
/m { moveto } bind def
/l { lineto } bind def
/c { curveto } bind def
/h { closepath } bind def
/re { exch dup neg 3 1 roll 5 3 roll moveto 0 rlineto
      0 exch rlineto 0 rlineto closepath } bind def
/S { stroke } bind def
/f { fill } bind def
/f* { eofill } bind def
/n { newpath } bind def
/W { clip } bind def
/W* { eoclip } bind def
/BT { } bind def
/ET { } bind def
/BDC { mark 3 1 roll /BDC pdfmark } bind def
/EMC { mark /EMC pdfmark } bind def
/cairo_store_point { /cairo_point_y exch def /cairo_point_x exch def } def
/Tj { show currentpoint cairo_store_point } bind def
/TJ {
  {
    dup
    type /stringtype eq
    { show } { -0.001 mul 0 cairo_font_matrix dtransform rmoveto } ifelse
  } forall
  currentpoint cairo_store_point
} bind def
/cairo_selectfont { cairo_font_matrix aload pop pop pop 0 0 6 array astore
    cairo_font exch selectfont cairo_point_x cairo_point_y moveto } bind def
/Tf { pop /cairo_font exch def /cairo_font_matrix where
      { pop cairo_selectfont } if } bind def
/Td { matrix translate cairo_font_matrix matrix concatmatrix dup
      /cairo_font_matrix exch def dup 4 get exch 5 get cairo_store_point
      /cairo_font where { pop cairo_selectfont } if } bind def
/Tm { 2 copy 8 2 roll 6 array astore /cairo_font_matrix exch def
      cairo_store_point /cairo_font where { pop cairo_selectfont } if } bind def
/g { setgray } bind def
/rg { setrgbcolor } bind def
/d1 { setcachedevice } bind def
/cairo_data_source {
  CairoDataIndex CairoData length lt
    { CairoData CairoDataIndex get /CairoDataIndex CairoDataIndex 1 add def }
    { () } ifelse
} def
/cairo_flush_ascii85_file { cairo_ascii85_file status { cairo_ascii85_file flushfile } if } def
/cairo_image { image cairo_flush_ascii85_file } def
/cairo_imagemask { imagemask cairo_flush_ascii85_file } def
%%EndProlog
%%BeginSetup
%%EndSetup
%%Page: 1 1
%%BeginPageSetup
%%PageBoundingBox: 0 56 384 328
%%EndPageSetup
q 0 56 384 272 rectclip
1 0 0 -1 0 384 cm q
0 g
248.625 56.625 m 135.375 56.625 l 60.73 56.625 0 117.355 0 192 c 0 266.645
 60.73 327.375 135.375 327.375 c 248.625 327.375 l 323.27 327.375 384 266.645
 384 192 c 384 117.355 323.27 56.625 248.625 56.625 c h
248.625 304.875 m 135.375 304.875 l 73.137 304.875 22.5 254.238 22.5 192
 c 22.5 129.762 73.137 79.125 135.375 79.125 c 248.625 79.125 l 310.863 
79.125 361.5 129.762 361.5 192 c 361.5 254.238 310.863 304.875 248.625 304.875
 c h
248.625 304.875 m f
248.625 101.625 m 135.375 101.625 l 85.543 101.625 45 142.168 45 192 c 
45 241.832 85.543 282.375 135.375 282.375 c 248.625 282.375 l 298.457 282.375
 339 241.832 339 192 c 339 142.168 298.457 101.625 248.625 101.625 c h
135.375 259.875 m 97.949 259.875 67.5 229.426 67.5 192 c 67.5 154.574 97.949
 124.125 135.375 124.125 c 189.023 124.125 l 170.172 140.699 158.25 164.984
 158.25 192 c 158.25 219.016 170.172 243.301 189.023 259.875 c h
248.625 259.875 m 211.199 259.875 180.75 229.426 180.75 192 c 180.75 154.574
 211.199 124.125 248.625 124.125 c 286.051 124.125 316.5 154.574 316.5 192
 c 316.5 229.426 286.051 259.875 248.625 259.875 c h
248.625 259.875 m f
Q Q
showpage
%%Trailer
end
%%EOF
