%!PS-Adobe-3.0 EPSF-3.0
%%Creator: cairo 1.16.0 (https://cairographics.org)
%%CreationDate: Tue May  5 07:53:52 2020
%%Pages: 1
%%DocumentData: Clean7Bit
%%LanguageLevel: 2
%%BoundingBox: 0 51 384 333
%%EndComments
%%BeginProlog
50 dict begin
/q { gsave } bind def
/Q { grestore } bind def
/cm { 6 array astore concat } bind def
/w { setlinewidth } bind def
/J { setlinecap } bind def
/j { setlinejoin } bind def
/M { setmiterlimit } bind def
/d { setdash } bind def
/m { moveto } bind def
/l { lineto } bind def
/c { curveto } bind def
/h { closepath } bind def
/re { exch dup neg 3 1 roll 5 3 roll moveto 0 rlineto
      0 exch rlineto 0 rlineto closepath } bind def
/S { stroke } bind def
/f { fill } bind def
/f* { eofill } bind def
/n { newpath } bind def
/W { clip } bind def
/W* { eoclip } bind def
/BT { } bind def
/ET { } bind def
/BDC { mark 3 1 roll /BDC pdfmark } bind def
/EMC { mark /EMC pdfmark } bind def
/cairo_store_point { /cairo_point_y exch def /cairo_point_x exch def } def
/Tj { show currentpoint cairo_store_point } bind def
/TJ {
  {
    dup
    type /stringtype eq
    { show } { -0.001 mul 0 cairo_font_matrix dtransform rmoveto } ifelse
  } forall
  currentpoint cairo_store_point
} bind def
/cairo_selectfont { cairo_font_matrix aload pop pop pop 0 0 6 array astore
    cairo_font exch selectfont cairo_point_x cairo_point_y moveto } bind def
/Tf { pop /cairo_font exch def /cairo_font_matrix where
      { pop cairo_selectfont } if } bind def
/Td { matrix translate cairo_font_matrix matrix concatmatrix dup
      /cairo_font_matrix exch def dup 4 get exch 5 get cairo_store_point
      /cairo_font where { pop cairo_selectfont } if } bind def
/Tm { 2 copy 8 2 roll 6 array astore /cairo_font_matrix exch def
      cairo_store_point /cairo_font where { pop cairo_selectfont } if } bind def
/g { setgray } bind def
/rg { setrgbcolor } bind def
/d1 { setcachedevice } bind def
/cairo_data_source {
  CairoDataIndex CairoData length lt
    { CairoData CairoDataIndex get /CairoDataIndex CairoDataIndex 1 add def }
    { () } ifelse
} def
/cairo_flush_ascii85_file { cairo_ascii85_file status { cairo_ascii85_file flushfile } if } def
/cairo_image { image cairo_flush_ascii85_file } def
/cairo_imagemask { imagemask cairo_flush_ascii85_file } def
%%EndProlog
%%BeginSetup
%%EndSetup
%%Page: 1 1
%%BeginPageSetup
%%PageBoundingBox: 0 51 384 333
%%EndPageSetup
q 0 51 384 282 rectclip
1 0 0 -1 0 384 cm q
0 g
101.25 231.375 m 384 231.375 l 384 152.625 l 101.25 152.625 l h
123.75 175.125 m 361.5 175.125 l 361.5 208.875 l 123.75 208.875 l h
123.75 175.125 m f
39.375 152.625 m 17.664 152.625 0 170.289 0 192 c 0 213.711 17.664 231.375
 39.375 231.375 c 61.086 231.375 78.75 213.711 78.75 192 c 78.75 170.289
 61.086 152.625 39.375 152.625 c h
39.375 208.875 m 30.07 208.875 22.5 201.305 22.5 192 c 22.5 182.695 30.07
 175.125 39.375 175.125 c 48.68 175.125 56.25 182.695 56.25 192 c 56.25 
201.305 48.68 208.875 39.375 208.875 c h
39.375 208.875 m f
101.25 332.625 m 384 332.625 l 384 253.875 l 101.25 253.875 l h
123.75 276.375 m 361.5 276.375 l 361.5 310.125 l 123.75 310.125 l h
123.75 276.375 m f
39.375 253.875 m 17.664 253.875 0 271.539 0 293.25 c 0 314.961 17.664 332.625
 39.375 332.625 c 61.086 332.625 78.75 314.961 78.75 293.25 c 78.75 271.539
 61.086 253.875 39.375 253.875 c h
39.375 310.125 m 30.07 310.125 22.5 302.555 22.5 293.25 c 22.5 283.945 
30.07 276.375 39.375 276.375 c 48.68 276.375 56.25 283.945 56.25 293.25 
c 56.25 302.555 48.68 310.125 39.375 310.125 c h
39.375 310.125 m f
101.25 51.375 m 101.25 130.125 l 384 130.125 l 384 51.375 l h
361.5 107.625 m 123.75 107.625 l 123.75 73.875 l 361.5 73.875 l h
361.5 107.625 m f
39.375 51.375 m 17.664 51.375 0 69.039 0 90.75 c 0 112.461 17.664 130.125
 39.375 130.125 c 61.086 130.125 78.75 112.461 78.75 90.75 c 78.75 69.039
 61.086 51.375 39.375 51.375 c h
39.375 107.625 m 30.07 107.625 22.5 100.055 22.5 90.75 c 22.5 81.445 30.07
 73.875 39.375 73.875 c 48.68 73.875 56.25 81.445 56.25 90.75 c 56.25 100.055
 48.68 107.625 39.375 107.625 c h
39.375 107.625 m f
Q Q
showpage
%%Trailer
end
%%EOF
