%!PS-Adobe-3.0 EPSF-3.0
%%Creator: cairo 1.16.0 (https://cairographics.org)
%%CreationDate: Tue May  5 07:53:54 2020
%%Pages: 1
%%DocumentData: Clean7Bit
%%LanguageLevel: 2
%%BoundingBox: 0 0 384 384
%%EndComments
%%BeginProlog
50 dict begin
/q { gsave } bind def
/Q { grestore } bind def
/cm { 6 array astore concat } bind def
/w { setlinewidth } bind def
/J { setlinecap } bind def
/j { setlinejoin } bind def
/M { setmiterlimit } bind def
/d { setdash } bind def
/m { moveto } bind def
/l { lineto } bind def
/c { curveto } bind def
/h { closepath } bind def
/re { exch dup neg 3 1 roll 5 3 roll moveto 0 rlineto
      0 exch rlineto 0 rlineto closepath } bind def
/S { stroke } bind def
/f { fill } bind def
/f* { eofill } bind def
/n { newpath } bind def
/W { clip } bind def
/W* { eoclip } bind def
/BT { } bind def
/ET { } bind def
/BDC { mark 3 1 roll /BDC pdfmark } bind def
/EMC { mark /EMC pdfmark } bind def
/cairo_store_point { /cairo_point_y exch def /cairo_point_x exch def } def
/Tj { show currentpoint cairo_store_point } bind def
/TJ {
  {
    dup
    type /stringtype eq
    { show } { -0.001 mul 0 cairo_font_matrix dtransform rmoveto } ifelse
  } forall
  currentpoint cairo_store_point
} bind def
/cairo_selectfont { cairo_font_matrix aload pop pop pop 0 0 6 array astore
    cairo_font exch selectfont cairo_point_x cairo_point_y moveto } bind def
/Tf { pop /cairo_font exch def /cairo_font_matrix where
      { pop cairo_selectfont } if } bind def
/Td { matrix translate cairo_font_matrix matrix concatmatrix dup
      /cairo_font_matrix exch def dup 4 get exch 5 get cairo_store_point
      /cairo_font where { pop cairo_selectfont } if } bind def
/Tm { 2 copy 8 2 roll 6 array astore /cairo_font_matrix exch def
      cairo_store_point /cairo_font where { pop cairo_selectfont } if } bind def
/g { setgray } bind def
/rg { setrgbcolor } bind def
/d1 { setcachedevice } bind def
/cairo_data_source {
  CairoDataIndex CairoData length lt
    { CairoData CairoDataIndex get /CairoDataIndex CairoDataIndex 1 add def }
    { () } ifelse
} def
/cairo_flush_ascii85_file { cairo_ascii85_file status { cairo_ascii85_file flushfile } if } def
/cairo_image { image cairo_flush_ascii85_file } def
/cairo_imagemask { imagemask cairo_flush_ascii85_file } def
%%EndProlog
%%BeginSetup
%%EndSetup
%%Page: 1 1
%%BeginPageSetup
%%PageBoundingBox: 0 0 384 384
%%EndPageSetup
q 0 0 384 384 rectclip
1 0 0 -1 0 384 cm q
0 g
359.328 24.672 m 326.43 -8.223 272.898 -8.223 240.004 24.672 c 180.074 
84.602 l 161.039 103.637 152.543 130.137 156.195 156.008 c 130.32 152.355
 103.82 160.855 84.789 179.887 c 24.672 240.004 l -8.223 272.898 -8.223 
326.43 24.672 359.328 c 57.57 392.223 111.102 392.223 143.996 359.328 c 
204.113 299.211 l 223.168 280.156 231.656 253.684 228 227.816 c 253.867 
231.473 280.34 222.984 299.395 203.93 c 359.324 144 l 392.223 111.102 392.223
 57.57 359.328 24.672 c h
188.203 283.305 m 128.09 343.418 l 103.961 367.543 64.707 367.543 40.582
 343.418 c 16.457 319.293 16.457 280.039 40.582 255.91 c 100.695 195.797
 l 113.988 182.508 132.246 176.223 150.352 177.965 c 56.5 271.816 l 41.145
 287.168 41.145 312.148 56.5 327.5 c 71.852 342.855 96.832 342.855 112.184
 327.5 c 206.043 233.641 l 207.797 251.746 201.512 269.992 188.203 283.305
 c h
108.473 275.527 m 112.742 279.797 117.754 282.871 123.098 284.766 c 96.273
 311.594 l 89.691 318.172 78.988 318.172 72.406 311.594 c 65.828 305.012
 65.828 294.309 72.406 287.727 c 99.23 260.902 l 101.129 266.246 104.203
 271.258 108.473 275.527 c h
148.246 259.617 m 141.668 266.195 130.961 266.195 124.383 259.617 c 117.805
 253.039 117.805 242.332 124.383 235.754 c 235.754 124.383 l 242.332 117.805
 253.039 117.805 259.617 124.383 c 266.195 130.961 266.195 141.668 259.617
 148.246 c h
260.902 99.234 m 287.727 72.406 l 294.309 65.828 305.012 65.828 311.594
 72.406 c 318.172 78.988 318.172 89.691 311.594 96.273 c 284.766 123.098
 l 282.871 117.754 279.797 112.742 275.527 108.473 c 271.258 104.203 266.246
 101.129 260.902 99.234 c h
343.418 128.09 m 283.488 188.016 l 270.18 201.328 251.93 207.609 233.828
 205.859 c 327.5 112.184 l 342.855 96.832 342.855 71.852 327.5 56.5 c 312.148
 41.145 287.168 41.145 271.816 56.5 c 178.148 150.164 l 176.406 132.062 
182.691 113.805 195.984 100.512 c 255.91 40.586 l 280.039 16.457 319.293
 16.457 343.418 40.586 c 367.543 64.707 367.543 103.961 343.418 128.09 c
 h
343.418 128.09 m f
Q Q
showpage
%%Trailer
end
%%EOF
