%!PS-Adobe-3.0 EPSF-3.0
%%Creator: cairo 1.16.0 (https://cairographics.org)
%%CreationDate: Tue May  5 07:53:55 2020
%%Pages: 1
%%DocumentData: Clean7Bit
%%LanguageLevel: 2
%%BoundingBox: 0 0 384 384
%%EndComments
%%BeginProlog
50 dict begin
/q { gsave } bind def
/Q { grestore } bind def
/cm { 6 array astore concat } bind def
/w { setlinewidth } bind def
/J { setlinecap } bind def
/j { setlinejoin } bind def
/M { setmiterlimit } bind def
/d { setdash } bind def
/m { moveto } bind def
/l { lineto } bind def
/c { curveto } bind def
/h { closepath } bind def
/re { exch dup neg 3 1 roll 5 3 roll moveto 0 rlineto
      0 exch rlineto 0 rlineto closepath } bind def
/S { stroke } bind def
/f { fill } bind def
/f* { eofill } bind def
/n { newpath } bind def
/W { clip } bind def
/W* { eoclip } bind def
/BT { } bind def
/ET { } bind def
/BDC { mark 3 1 roll /BDC pdfmark } bind def
/EMC { mark /EMC pdfmark } bind def
/cairo_store_point { /cairo_point_y exch def /cairo_point_x exch def } def
/Tj { show currentpoint cairo_store_point } bind def
/TJ {
  {
    dup
    type /stringtype eq
    { show } { -0.001 mul 0 cairo_font_matrix dtransform rmoveto } ifelse
  } forall
  currentpoint cairo_store_point
} bind def
/cairo_selectfont { cairo_font_matrix aload pop pop pop 0 0 6 array astore
    cairo_font exch selectfont cairo_point_x cairo_point_y moveto } bind def
/Tf { pop /cairo_font exch def /cairo_font_matrix where
      { pop cairo_selectfont } if } bind def
/Td { matrix translate cairo_font_matrix matrix concatmatrix dup
      /cairo_font_matrix exch def dup 4 get exch 5 get cairo_store_point
      /cairo_font where { pop cairo_selectfont } if } bind def
/Tm { 2 copy 8 2 roll 6 array astore /cairo_font_matrix exch def
      cairo_store_point /cairo_font where { pop cairo_selectfont } if } bind def
/g { setgray } bind def
/rg { setrgbcolor } bind def
/d1 { setcachedevice } bind def
/cairo_data_source {
  CairoDataIndex CairoData length lt
    { CairoData CairoDataIndex get /CairoDataIndex CairoDataIndex 1 add def }
    { () } ifelse
} def
/cairo_flush_ascii85_file { cairo_ascii85_file status { cairo_ascii85_file flushfile } if } def
/cairo_image { image cairo_flush_ascii85_file } def
/cairo_imagemask { imagemask cairo_flush_ascii85_file } def
%%EndProlog
%%BeginSetup
%%EndSetup
%%Page: 1 1
%%BeginPageSetup
%%PageBoundingBox: 0 0 384 384
%%EndPageSetup
q 0 0 384 384 rectclip
1 0 0 -1 0 384 cm q
0 g
299.625 123.75 m 321.336 123.75 339 106.086 339 84.375 c 339 62.664 321.336
 45 299.625 45 c 277.914 45 260.25 62.664 260.25 84.375 c 260.25 106.086
 277.914 123.75 299.625 123.75 c h
299.625 67.5 m 308.93 67.5 316.5 75.07 316.5 84.375 c 316.5 93.68 308.93
 101.25 299.625 101.25 c 290.32 101.25 282.75 93.68 282.75 84.375 c 282.75
 75.07 290.32 67.5 299.625 67.5 c h
299.625 67.5 m f
84.375 152.625 m 62.664 152.625 45 170.289 45 192 c 45 213.711 62.664 231.375
 84.375 231.375 c 106.086 231.375 123.75 213.711 123.75 192 c 123.75 170.289
 106.086 152.625 84.375 152.625 c h
84.375 208.875 m 75.07 208.875 67.5 201.305 67.5 192 c 67.5 182.695 75.07
 175.125 84.375 175.125 c 93.68 175.125 101.25 182.695 101.25 192 c 101.25
 201.305 93.68 208.875 84.375 208.875 c h
84.375 208.875 m f
299.625 215.25 m 270.68 215.25 245.094 229.902 229.891 252.18 c 164.203
 219.336 l 167.148 210.758 168.75 201.562 168.75 192 c 168.75 182.438 167.148
 173.242 164.203 164.664 c 229.891 131.82 l 245.094 154.098 270.68 168.75
 299.625 168.75 c 346.148 168.75 384 130.898 384 84.375 c 384 37.852 346.148
 0 299.625 0 c 253.102 0 215.25 37.852 215.25 84.375 c 215.25 93.938 216.852
 103.133 219.797 111.711 c 154.109 144.555 l 138.906 122.277 113.32 107.625
 84.375 107.625 c 37.852 107.625 0 145.477 0 192 c 0 238.523 37.852 276.375
 84.375 276.375 c 113.32 276.375 138.906 261.723 154.109 239.445 c 219.797
 272.289 l 216.852 280.867 215.25 290.062 215.25 299.625 c 215.25 346.148
 253.102 384 299.625 384 c 346.148 384 384 346.148 384 299.625 c 384 253.102
 346.148 215.25 299.625 215.25 c h
299.625 22.5 m 333.742 22.5 361.5 50.258 361.5 84.375 c 361.5 118.492 333.742
 146.25 299.625 146.25 c 265.508 146.25 237.75 118.492 237.75 84.375 c 237.75
 50.258 265.508 22.5 299.625 22.5 c h
84.375 253.875 m 50.258 253.875 22.5 226.117 22.5 192 c 22.5 157.883 50.258
 130.125 84.375 130.125 c 118.492 130.125 146.25 157.883 146.25 192 c 146.25
 226.117 118.492 253.875 84.375 253.875 c h
299.625 361.5 m 265.508 361.5 237.75 333.742 237.75 299.625 c 237.75 265.508
 265.508 237.75 299.625 237.75 c 333.742 237.75 361.5 265.508 361.5 299.625
 c 361.5 333.742 333.742 361.5 299.625 361.5 c h
299.625 361.5 m f
299.625 260.25 m 277.914 260.25 260.25 277.914 260.25 299.625 c 260.25 
321.336 277.914 339 299.625 339 c 321.336 339 339 321.336 339 299.625 c 
339 277.914 321.336 260.25 299.625 260.25 c h
299.625 316.5 m 290.32 316.5 282.75 308.93 282.75 299.625 c 282.75 290.32
 290.32 282.75 299.625 282.75 c 308.93 282.75 316.5 290.32 316.5 299.625
 c 316.5 308.93 308.93 316.5 299.625 316.5 c h
299.625 316.5 m f
Q Q
showpage
%%Trailer
end
%%EOF
