%!PS-Adobe-3.0 EPSF-3.0
%%Creator: cairo 1.16.0 (https://cairographics.org)
%%CreationDate: Tue May  5 07:53:55 2020
%%Pages: 1
%%DocumentData: Clean7Bit
%%LanguageLevel: 2
%%BoundingBox: 11 0 373 384
%%EndComments
%%BeginProlog
50 dict begin
/q { gsave } bind def
/Q { grestore } bind def
/cm { 6 array astore concat } bind def
/w { setlinewidth } bind def
/J { setlinecap } bind def
/j { setlinejoin } bind def
/M { setmiterlimit } bind def
/d { setdash } bind def
/m { moveto } bind def
/l { lineto } bind def
/c { curveto } bind def
/h { closepath } bind def
/re { exch dup neg 3 1 roll 5 3 roll moveto 0 rlineto
      0 exch rlineto 0 rlineto closepath } bind def
/S { stroke } bind def
/f { fill } bind def
/f* { eofill } bind def
/n { newpath } bind def
/W { clip } bind def
/W* { eoclip } bind def
/BT { } bind def
/ET { } bind def
/BDC { mark 3 1 roll /BDC pdfmark } bind def
/EMC { mark /EMC pdfmark } bind def
/cairo_store_point { /cairo_point_y exch def /cairo_point_x exch def } def
/Tj { show currentpoint cairo_store_point } bind def
/TJ {
  {
    dup
    type /stringtype eq
    { show } { -0.001 mul 0 cairo_font_matrix dtransform rmoveto } ifelse
  } forall
  currentpoint cairo_store_point
} bind def
/cairo_selectfont { cairo_font_matrix aload pop pop pop 0 0 6 array astore
    cairo_font exch selectfont cairo_point_x cairo_point_y moveto } bind def
/Tf { pop /cairo_font exch def /cairo_font_matrix where
      { pop cairo_selectfont } if } bind def
/Td { matrix translate cairo_font_matrix matrix concatmatrix dup
      /cairo_font_matrix exch def dup 4 get exch 5 get cairo_store_point
      /cairo_font where { pop cairo_selectfont } if } bind def
/Tm { 2 copy 8 2 roll 6 array astore /cairo_font_matrix exch def
      cairo_store_point /cairo_font where { pop cairo_selectfont } if } bind def
/g { setgray } bind def
/rg { setrgbcolor } bind def
/d1 { setcachedevice } bind def
/cairo_data_source {
  CairoDataIndex CairoData length lt
    { CairoData CairoDataIndex get /CairoDataIndex CairoDataIndex 1 add def }
    { () } ifelse
} def
/cairo_flush_ascii85_file { cairo_ascii85_file status { cairo_ascii85_file flushfile } if } def
/cairo_image { image cairo_flush_ascii85_file } def
/cairo_imagemask { imagemask cairo_flush_ascii85_file } def
%%EndProlog
%%BeginSetup
%%EndSetup
%%Page: 1 1
%%BeginPageSetup
%%PageBoundingBox: 11 0 373 384
%%EndPageSetup
q 11 0 362 384 rectclip
1 0 0 -1 0 384 cm q
0 g
372.75 316.5 m 372.75 277.316 355.203 240.805 324.605 216.328 c 315.07 
208.699 l 288.977 118.008 l 282.871 96.797 270.328 78.566 252.691 65.293
 c 247.715 61.543 242.461 58.316 237 55.582 c 237 0 l 147 0 l 147 55.582
 l 141.539 58.316 136.285 61.547 131.309 65.293 c 113.672 78.566 101.129
 96.797 95.023 118.008 c 68.93 208.699 l 59.395 216.328 l 28.797 240.805
 11.25 277.316 11.25 316.5 c 11.25 327.75 l 108.578 327.75 l 114.66 342.699
 124.789 356 137.723 365.793 c 153.453 377.703 172.223 384 192 384 c 211.777
 384 230.547 377.703 246.281 365.793 c 259.211 356 269.344 342.699 275.422
 327.75 c 372.75 327.75 l h
169.5 22.5 m 214.5 22.5 l 214.5 47.527 l 207.191 45.867 199.664 45 192 
45 c 184.336 45 176.809 45.867 169.5 47.527 c h
116.645 124.23 m 126.258 90.828 157.246 67.5 192 67.5 c 226.758 67.5 257.742
 90.828 267.355 124.23 c 290.309 204 l 93.691 204 l h
192 361.5 m 167.703 361.5 145.457 348.18 133.566 327.75 c 250.434 327.75
 l 238.543 348.18 216.297 361.5 192 361.5 c h
34.34 305.25 m 37.285 277.273 51.176 251.715 73.453 233.895 c 82.695 226.5
 l 301.305 226.5 l 310.547 233.895 l 332.824 251.715 346.711 277.273 349.66
 305.25 c h
34.34 305.25 m f
Q Q
showpage
%%Trailer
end
%%EOF
