%!PS-Adobe-3.0 EPSF-3.0
%%Creator: cairo 1.16.0 (https://cairographics.org)
%%CreationDate: Tue May  5 07:53:56 2020
%%Pages: 1
%%DocumentData: Clean7Bit
%%LanguageLevel: 2
%%BoundingBox: 0 0 384 384
%%EndComments
%%BeginProlog
50 dict begin
/q { gsave } bind def
/Q { grestore } bind def
/cm { 6 array astore concat } bind def
/w { setlinewidth } bind def
/J { setlinecap } bind def
/j { setlinejoin } bind def
/M { setmiterlimit } bind def
/d { setdash } bind def
/m { moveto } bind def
/l { lineto } bind def
/c { curveto } bind def
/h { closepath } bind def
/re { exch dup neg 3 1 roll 5 3 roll moveto 0 rlineto
      0 exch rlineto 0 rlineto closepath } bind def
/S { stroke } bind def
/f { fill } bind def
/f* { eofill } bind def
/n { newpath } bind def
/W { clip } bind def
/W* { eoclip } bind def
/BT { } bind def
/ET { } bind def
/BDC { mark 3 1 roll /BDC pdfmark } bind def
/EMC { mark /EMC pdfmark } bind def
/cairo_store_point { /cairo_point_y exch def /cairo_point_x exch def } def
/Tj { show currentpoint cairo_store_point } bind def
/TJ {
  {
    dup
    type /stringtype eq
    { show } { -0.001 mul 0 cairo_font_matrix dtransform rmoveto } ifelse
  } forall
  currentpoint cairo_store_point
} bind def
/cairo_selectfont { cairo_font_matrix aload pop pop pop 0 0 6 array astore
    cairo_font exch selectfont cairo_point_x cairo_point_y moveto } bind def
/Tf { pop /cairo_font exch def /cairo_font_matrix where
      { pop cairo_selectfont } if } bind def
/Td { matrix translate cairo_font_matrix matrix concatmatrix dup
      /cairo_font_matrix exch def dup 4 get exch 5 get cairo_store_point
      /cairo_font where { pop cairo_selectfont } if } bind def
/Tm { 2 copy 8 2 roll 6 array astore /cairo_font_matrix exch def
      cairo_store_point /cairo_font where { pop cairo_selectfont } if } bind def
/g { setgray } bind def
/rg { setrgbcolor } bind def
/d1 { setcachedevice } bind def
/cairo_data_source {
  CairoDataIndex CairoData length lt
    { CairoData CairoDataIndex get /CairoDataIndex CairoDataIndex 1 add def }
    { () } ifelse
} def
/cairo_flush_ascii85_file { cairo_ascii85_file status { cairo_ascii85_file flushfile } if } def
/cairo_image { image cairo_flush_ascii85_file } def
/cairo_imagemask { imagemask cairo_flush_ascii85_file } def
%%EndProlog
%%BeginSetup
%%EndSetup
%%Page: 1 1
%%BeginPageSetup
%%PageBoundingBox: 0 0 384 384
%%EndPageSetup
q 0 0 384 384 rectclip
1 0 0 -1 0 384 cm q
0 g
192 0 m 86.129 0 0 86.129 0 192 c 0 297.871 86.129 384 192 384 c 297.871
 384 384 297.871 384 192 c 384 86.129 297.871 0 192 0 c h
192 361.5 m 98.539 361.5 22.5 285.461 22.5 192 c 22.5 98.539 98.539 22.5
 192 22.5 c 285.461 22.5 361.5 98.539 361.5 192 c 361.5 285.461 285.461 
361.5 192 361.5 c h
192 361.5 m f
318.602 117.25 m 305.652 95.363 287.152 77.102 265.102 64.438 c 248.25 
54.762 l 248.25 135.664 l 251.133 138.871 l 264.266 153.477 271.5 172.344
 271.5 192 c 271.5 235.836 235.836 271.5 192 271.5 c 148.164 271.5 112.5
 235.836 112.5 192 c 112.5 172.344 119.734 153.477 132.867 138.871 c 135.75
 135.664 l 135.75 54.762 l 118.898 64.441 l 96.848 77.102 78.348 95.363 
65.398 117.25 c 52.055 139.809 45 165.656 45 192 c 45 273.055 110.945 339
 192 339 c 273.055 339 339 273.055 339 192 c 339 165.656 331.945 139.809
 318.602 117.25 c h
192 316.5 m 123.352 316.5 67.5 260.648 67.5 192 c 67.5 154.414 84.633 119.02
 113.25 95.578 c 113.25 127.176 l 98.227 145.41 90 168.258 90 192 c 90 248.242
 135.758 294 192 294 c 248.242 294 294 248.242 294 192 c 294 168.258 285.773
 145.41 270.75 127.176 c 270.75 95.578 l 299.367 119.02 316.5 154.414 316.5
 192 c 316.5 260.648 260.648 316.5 192 316.5 c h
192 316.5 m f
225.75 48.59 m 216.352 47.02 l 200.281 44.34 183.719 44.34 167.648 47.02
 c 158.25 48.59 l 158.25 203.25 l 225.75 203.25 l h
203.25 180.75 m 180.75 180.75 l 180.75 68.008 l 188.242 67.332 195.758 
67.332 203.25 68.008 c h
203.25 180.75 m f
Q Q
showpage
%%Trailer
end
%%EOF
