%!PS-Adobe-3.0 EPSF-3.0
%%Creator: cairo 1.16.0 (https://cairographics.org)
%%CreationDate: Tue May  5 07:53:56 2020
%%Pages: 1
%%DocumentData: Clean7Bit
%%LanguageLevel: 2
%%BoundingBox: 51 0 333 384
%%EndComments
%%BeginProlog
50 dict begin
/q { gsave } bind def
/Q { grestore } bind def
/cm { 6 array astore concat } bind def
/w { setlinewidth } bind def
/J { setlinecap } bind def
/j { setlinejoin } bind def
/M { setmiterlimit } bind def
/d { setdash } bind def
/m { moveto } bind def
/l { lineto } bind def
/c { curveto } bind def
/h { closepath } bind def
/re { exch dup neg 3 1 roll 5 3 roll moveto 0 rlineto
      0 exch rlineto 0 rlineto closepath } bind def
/S { stroke } bind def
/f { fill } bind def
/f* { eofill } bind def
/n { newpath } bind def
/W { clip } bind def
/W* { eoclip } bind def
/BT { } bind def
/ET { } bind def
/BDC { mark 3 1 roll /BDC pdfmark } bind def
/EMC { mark /EMC pdfmark } bind def
/cairo_store_point { /cairo_point_y exch def /cairo_point_x exch def } def
/Tj { show currentpoint cairo_store_point } bind def
/TJ {
  {
    dup
    type /stringtype eq
    { show } { -0.001 mul 0 cairo_font_matrix dtransform rmoveto } ifelse
  } forall
  currentpoint cairo_store_point
} bind def
/cairo_selectfont { cairo_font_matrix aload pop pop pop 0 0 6 array astore
    cairo_font exch selectfont cairo_point_x cairo_point_y moveto } bind def
/Tf { pop /cairo_font exch def /cairo_font_matrix where
      { pop cairo_selectfont } if } bind def
/Td { matrix translate cairo_font_matrix matrix concatmatrix dup
      /cairo_font_matrix exch def dup 4 get exch 5 get cairo_store_point
      /cairo_font where { pop cairo_selectfont } if } bind def
/Tm { 2 copy 8 2 roll 6 array astore /cairo_font_matrix exch def
      cairo_store_point /cairo_font where { pop cairo_selectfont } if } bind def
/g { setgray } bind def
/rg { setrgbcolor } bind def
/d1 { setcachedevice } bind def
/cairo_data_source {
  CairoDataIndex CairoData length lt
    { CairoData CairoDataIndex get /CairoDataIndex CairoDataIndex 1 add def }
    { () } ifelse
} def
/cairo_flush_ascii85_file { cairo_ascii85_file status { cairo_ascii85_file flushfile } if } def
/cairo_image { image cairo_flush_ascii85_file } def
/cairo_imagemask { imagemask cairo_flush_ascii85_file } def
%%EndProlog
%%BeginSetup
%%EndSetup
%%Page: 1 1
%%BeginPageSetup
%%PageBoundingBox: 51 0 333 384
%%EndPageSetup
q 51 0 282 384 rectclip
1 0 0 -1 0 384 cm q
0 g
192 249 m 232.32 249 265.125 216.195 265.125 175.875 c 265.125 73.125 l
 265.125 32.805 232.32 0 192 0 c 151.68 0 118.875 32.805 118.875 73.125 
c 118.875 175.875 l 118.875 216.195 151.68 249 192 249 c h
141.375 73.125 m 141.375 45.211 164.086 22.5 192 22.5 c 219.914 22.5 242.625
 45.211 242.625 73.125 c 242.625 175.875 l 242.625 203.789 219.914 226.5
 192 226.5 c 164.086 226.5 141.375 203.789 141.375 175.875 c h
141.375 73.125 m f
276.375 316.5 m 231.375 316.5 l 231.375 287.242 l 277.207 270.992 310.125
 227.207 310.125 175.875 c 310.125 124.5 l 287.625 124.5 l 287.625 175.875
 l 287.625 228.602 244.727 271.5 192 271.5 c 139.273 271.5 96.375 228.602
 96.375 175.875 c 96.375 124.5 l 73.875 124.5 l 73.875 175.875 l 73.875 
227.207 106.793 270.992 152.625 287.242 c 152.625 316.5 l 107.625 316.5 
l 76.609 316.5 51.375 341.734 51.375 372.75 c 51.375 384 l 332.625 384 l
 332.625 372.75 l 332.625 341.734 307.391 316.5 276.375 316.5 c h
175.125 292.789 m 180.637 293.582 186.27 294 192 294 c 197.73 294 203.363
 293.582 208.875 292.789 c 208.875 316.5 l 175.125 316.5 l h
75.801 361.5 m 80.445 348.402 92.957 339 107.625 339 c 276.375 339 l 291.043
 339 303.555 348.402 308.199 361.5 c h
75.801 361.5 m f
Q Q
showpage
%%Trailer
end
%%EOF
