%!PS-Adobe-3.0 EPSF-3.0
%%Creator: cairo 1.16.0 (https://cairographics.org)
%%CreationDate: Tue May  5 07:53:58 2020
%%Pages: 1
%%DocumentData: Clean7Bit
%%LanguageLevel: 2
%%BoundingBox: 0 0 384 384
%%EndComments
%%BeginProlog
50 dict begin
/q { gsave } bind def
/Q { grestore } bind def
/cm { 6 array astore concat } bind def
/w { setlinewidth } bind def
/J { setlinecap } bind def
/j { setlinejoin } bind def
/M { setmiterlimit } bind def
/d { setdash } bind def
/m { moveto } bind def
/l { lineto } bind def
/c { curveto } bind def
/h { closepath } bind def
/re { exch dup neg 3 1 roll 5 3 roll moveto 0 rlineto
      0 exch rlineto 0 rlineto closepath } bind def
/S { stroke } bind def
/f { fill } bind def
/f* { eofill } bind def
/n { newpath } bind def
/W { clip } bind def
/W* { eoclip } bind def
/BT { } bind def
/ET { } bind def
/BDC { mark 3 1 roll /BDC pdfmark } bind def
/EMC { mark /EMC pdfmark } bind def
/cairo_store_point { /cairo_point_y exch def /cairo_point_x exch def } def
/Tj { show currentpoint cairo_store_point } bind def
/TJ {
  {
    dup
    type /stringtype eq
    { show } { -0.001 mul 0 cairo_font_matrix dtransform rmoveto } ifelse
  } forall
  currentpoint cairo_store_point
} bind def
/cairo_selectfont { cairo_font_matrix aload pop pop pop 0 0 6 array astore
    cairo_font exch selectfont cairo_point_x cairo_point_y moveto } bind def
/Tf { pop /cairo_font exch def /cairo_font_matrix where
      { pop cairo_selectfont } if } bind def
/Td { matrix translate cairo_font_matrix matrix concatmatrix dup
      /cairo_font_matrix exch def dup 4 get exch 5 get cairo_store_point
      /cairo_font where { pop cairo_selectfont } if } bind def
/Tm { 2 copy 8 2 roll 6 array astore /cairo_font_matrix exch def
      cairo_store_point /cairo_font where { pop cairo_selectfont } if } bind def
/g { setgray } bind def
/rg { setrgbcolor } bind def
/d1 { setcachedevice } bind def
/cairo_data_source {
  CairoDataIndex CairoData length lt
    { CairoData CairoDataIndex get /CairoDataIndex CairoDataIndex 1 add def }
    { () } ifelse
} def
/cairo_flush_ascii85_file { cairo_ascii85_file status { cairo_ascii85_file flushfile } if } def
/cairo_image { image cairo_flush_ascii85_file } def
/cairo_imagemask { imagemask cairo_flush_ascii85_file } def
%%EndProlog
%%BeginSetup
%%EndSetup
%%Page: 1 1
%%BeginPageSetup
%%PageBoundingBox: 0 0 384 384
%%EndPageSetup
q 0 0 384 384 rectclip
1 0 0 -1 0 384 cm q
0 g
384 384 m 316.5 384 l 316.5 372.75 l 316.5 204.434 179.566 67.5 11.25 67.5
 c 0 67.5 l 0 0 l 11.25 0 l 216.785 0 384 167.215 384 372.75 c h
338.809 361.5 m 361.32 361.5 l 355.484 177.285 206.715 28.516 22.5 22.68
 c 22.5 45.191 l 194.309 51.008 332.992 189.691 338.809 361.5 c h
338.809 361.5 m f
294 384 m 226.5 384 l 226.5 372.75 l 226.5 254.062 129.938 157.5 11.25 
157.5 c 0 157.5 l 0 90 l 11.25 90 l 167.16 90 294 216.84 294 372.75 c h
248.738 361.5 m 271.258 361.5 l 265.512 226.922 157.078 118.488 22.5 112.738
 c 22.5 135.262 l 144.672 140.977 243.023 239.332 248.738 361.5 c h
248.738 361.5 m f
204 384 m 136.5 384 l 136.5 372.75 l 136.5 303.688 80.312 247.5 11.25 247.5
 c 0 247.5 l 0 180 l 11.25 180 l 117.531 180 204 266.469 204 372.75 c h
158.578 361.5 m 181.133 361.5 l 175.562 276.57 107.43 208.438 22.5 202.867
 c 22.5 225.422 l 95.02 230.91 153.09 288.98 158.578 361.5 c h
158.578 361.5 m f
Q Q
showpage
%%Trailer
end
%%EOF
