%!PS-Adobe-3.0 EPSF-3.0
%%Creator: cairo 1.16.0 (https://cairographics.org)
%%CreationDate: Tue May  5 07:53:59 2020
%%Pages: 1
%%DocumentData: Clean7Bit
%%LanguageLevel: 2
%%BoundingBox: 0 0 384 384
%%EndComments
%%BeginProlog
50 dict begin
/q { gsave } bind def
/Q { grestore } bind def
/cm { 6 array astore concat } bind def
/w { setlinewidth } bind def
/J { setlinecap } bind def
/j { setlinejoin } bind def
/M { setmiterlimit } bind def
/d { setdash } bind def
/m { moveto } bind def
/l { lineto } bind def
/c { curveto } bind def
/h { closepath } bind def
/re { exch dup neg 3 1 roll 5 3 roll moveto 0 rlineto
      0 exch rlineto 0 rlineto closepath } bind def
/S { stroke } bind def
/f { fill } bind def
/f* { eofill } bind def
/n { newpath } bind def
/W { clip } bind def
/W* { eoclip } bind def
/BT { } bind def
/ET { } bind def
/BDC { mark 3 1 roll /BDC pdfmark } bind def
/EMC { mark /EMC pdfmark } bind def
/cairo_store_point { /cairo_point_y exch def /cairo_point_x exch def } def
/Tj { show currentpoint cairo_store_point } bind def
/TJ {
  {
    dup
    type /stringtype eq
    { show } { -0.001 mul 0 cairo_font_matrix dtransform rmoveto } ifelse
  } forall
  currentpoint cairo_store_point
} bind def
/cairo_selectfont { cairo_font_matrix aload pop pop pop 0 0 6 array astore
    cairo_font exch selectfont cairo_point_x cairo_point_y moveto } bind def
/Tf { pop /cairo_font exch def /cairo_font_matrix where
      { pop cairo_selectfont } if } bind def
/Td { matrix translate cairo_font_matrix matrix concatmatrix dup
      /cairo_font_matrix exch def dup 4 get exch 5 get cairo_store_point
      /cairo_font where { pop cairo_selectfont } if } bind def
/Tm { 2 copy 8 2 roll 6 array astore /cairo_font_matrix exch def
      cairo_store_point /cairo_font where { pop cairo_selectfont } if } bind def
/g { setgray } bind def
/rg { setrgbcolor } bind def
/d1 { setcachedevice } bind def
/cairo_data_source {
  CairoDataIndex CairoData length lt
    { CairoData CairoDataIndex get /CairoDataIndex CairoDataIndex 1 add def }
    { () } ifelse
} def
/cairo_flush_ascii85_file { cairo_ascii85_file status { cairo_ascii85_file flushfile } if } def
/cairo_image { image cairo_flush_ascii85_file } def
/cairo_imagemask { imagemask cairo_flush_ascii85_file } def
%%EndProlog
%%BeginSetup
%%EndSetup
%%Page: 1 1
%%BeginPageSetup
%%PageBoundingBox: 0 0 384 384
%%EndPageSetup
q 0 0 384 384 rectclip
1 0 0 -1 0 384 cm q
0 g
192 0 m 86.129 0 0 86.129 0 192 c 0 297.871 86.129 384 192 384 c 297.871
 384 384 297.871 384 192 c 384 86.129 297.871 0 192 0 c h
192 361.5 m 98.539 361.5 22.5 285.461 22.5 192 c 22.5 98.539 98.539 22.5
 192 22.5 c 285.461 22.5 361.5 98.539 361.5 192 c 361.5 285.461 285.461 
361.5 192 361.5 c h
192 361.5 m f
192 202.5 m 235.422 202.5 270.75 167.172 270.75 123.75 c 270.75 80.328 
235.422 45 192 45 c 148.578 45 113.25 80.328 113.25 123.75 c 113.25 167.172
 148.578 202.5 192 202.5 c h
192 67.5 m 223.016 67.5 248.25 92.734 248.25 123.75 c 248.25 154.766 223.016
 180 192 180 c 160.984 180 135.75 154.766 135.75 123.75 c 135.75 92.734 
160.984 67.5 192 67.5 c h
192 67.5 m f
318.488 251.582 m 303.535 234.688 282.035 225 259.5 225 c 124.5 225 l 101.965
 225 80.465 234.688 65.512 251.582 c 60.18 257.609 l 64.16 264.602 l 90.273
 310.492 139.258 339 192 339 c 244.742 339 293.727 310.492 319.84 264.602
 c 323.82 257.609 l h
192 316.5 m 150.199 316.5 111.18 295.352 88.211 260.777 c 98.301 252.266
 111.148 247.5 124.5 247.5 c 259.5 247.5 l 272.852 247.5 285.699 252.266
 295.789 260.777 c 272.82 295.352 233.801 316.5 192 316.5 c h
192 316.5 m f
Q Q
showpage
%%Trailer
end
%%EOF
