%!PS-Adobe-3.0 EPSF-3.0
%%Creator: cairo 1.16.0 (https://cairographics.org)
%%CreationDate: Tue May  5 07:53:59 2020
%%Pages: 1
%%DocumentData: Clean7Bit
%%LanguageLevel: 2
%%BoundingBox: 0 28 384 356
%%EndComments
%%BeginProlog
50 dict begin
/q { gsave } bind def
/Q { grestore } bind def
/cm { 6 array astore concat } bind def
/w { setlinewidth } bind def
/J { setlinecap } bind def
/j { setlinejoin } bind def
/M { setmiterlimit } bind def
/d { setdash } bind def
/m { moveto } bind def
/l { lineto } bind def
/c { curveto } bind def
/h { closepath } bind def
/re { exch dup neg 3 1 roll 5 3 roll moveto 0 rlineto
      0 exch rlineto 0 rlineto closepath } bind def
/S { stroke } bind def
/f { fill } bind def
/f* { eofill } bind def
/n { newpath } bind def
/W { clip } bind def
/W* { eoclip } bind def
/BT { } bind def
/ET { } bind def
/BDC { mark 3 1 roll /BDC pdfmark } bind def
/EMC { mark /EMC pdfmark } bind def
/cairo_store_point { /cairo_point_y exch def /cairo_point_x exch def } def
/Tj { show currentpoint cairo_store_point } bind def
/TJ {
  {
    dup
    type /stringtype eq
    { show } { -0.001 mul 0 cairo_font_matrix dtransform rmoveto } ifelse
  } forall
  currentpoint cairo_store_point
} bind def
/cairo_selectfont { cairo_font_matrix aload pop pop pop 0 0 6 array astore
    cairo_font exch selectfont cairo_point_x cairo_point_y moveto } bind def
/Tf { pop /cairo_font exch def /cairo_font_matrix where
      { pop cairo_selectfont } if } bind def
/Td { matrix translate cairo_font_matrix matrix concatmatrix dup
      /cairo_font_matrix exch def dup 4 get exch 5 get cairo_store_point
      /cairo_font where { pop cairo_selectfont } if } bind def
/Tm { 2 copy 8 2 roll 6 array astore /cairo_font_matrix exch def
      cairo_store_point /cairo_font where { pop cairo_selectfont } if } bind def
/g { setgray } bind def
/rg { setrgbcolor } bind def
/d1 { setcachedevice } bind def
/cairo_data_source {
  CairoDataIndex CairoData length lt
    { CairoData CairoDataIndex get /CairoDataIndex CairoDataIndex 1 add def }
    { () } ifelse
} def
/cairo_flush_ascii85_file { cairo_ascii85_file status { cairo_ascii85_file flushfile } if } def
/cairo_image { image cairo_flush_ascii85_file } def
/cairo_imagemask { imagemask cairo_flush_ascii85_file } def
%%EndProlog
%%BeginSetup
%%EndSetup
%%Page: 1 1
%%BeginPageSetup
%%PageBoundingBox: 0 28 384 356
%%EndPageSetup
q 0 28 384 328 rectclip
1 0 0 -1 0 384 cm q
0 g
192 265.875 m 223.43 265.875 249 240.305 249 208.875 c 249 177.445 223.43
 151.875 192 151.875 c 160.57 151.875 135 177.445 135 208.875 c 135 240.305
 160.57 265.875 192 265.875 c h
192 174.375 m 211.023 174.375 226.5 189.852 226.5 208.875 c 226.5 227.898
 211.023 243.375 192 243.375 c 172.977 243.375 157.5 227.898 157.5 208.875
 c 157.5 189.852 172.977 174.375 192 174.375 c h
192 174.375 m f
300.719 84.375 m 270.828 28.125 l 113.172 28.125 l 83.281 84.375 l 0 84.375
 l 0 355.875 l 384 355.875 l 384 84.375 l h
96.805 106.875 m 126.695 50.625 l 257.305 50.625 l 287.195 106.875 l 361.5
 106.875 l 361.5 129.375 l 255.824 129.375 l 238.34 115.309 216.137 106.875
 192 106.875 c 167.863 106.875 145.66 115.309 128.176 129.375 c 22.5 129.375
 l 22.5 106.875 l h
112.5 208.875 m 112.5 165.039 148.164 129.375 192 129.375 c 235.836 129.375
 271.5 165.039 271.5 208.875 c 271.5 252.711 235.836 288.375 192 288.375
 c 148.164 288.375 112.5 252.711 112.5 208.875 c h
107.449 265.875 m 22.5 265.875 l 22.5 151.875 l 107.449 151.875 l 96.438
 168.16 90 187.777 90 208.875 c 90 229.973 96.438 249.59 107.449 265.875
 c h
276.551 151.875 m 361.5 151.875 l 361.5 265.875 l 276.551 265.875 l 287.562
 249.59 294 229.973 294 208.875 c 294 187.777 287.562 168.16 276.551 151.875
 c h
22.5 333.375 m 22.5 288.375 l 128.176 288.375 l 145.66 302.441 167.863 
310.875 192 310.875 c 216.137 310.875 238.34 302.441 255.824 288.375 c 361.5
 288.375 l 361.5 333.375 l h
22.5 333.375 m f
Q Q
showpage
%%Trailer
end
%%EOF
