%!PS-Adobe-3.0 EPSF-3.0
%%Creator: cairo 1.16.0 (https://cairographics.org)
%%CreationDate: Tue May  5 07:54:00 2020
%%Pages: 1
%%DocumentData: Clean7Bit
%%LanguageLevel: 2
%%BoundingBox: 0 22 384 362
%%EndComments
%%BeginProlog
50 dict begin
/q { gsave } bind def
/Q { grestore } bind def
/cm { 6 array astore concat } bind def
/w { setlinewidth } bind def
/J { setlinecap } bind def
/j { setlinejoin } bind def
/M { setmiterlimit } bind def
/d { setdash } bind def
/m { moveto } bind def
/l { lineto } bind def
/c { curveto } bind def
/h { closepath } bind def
/re { exch dup neg 3 1 roll 5 3 roll moveto 0 rlineto
      0 exch rlineto 0 rlineto closepath } bind def
/S { stroke } bind def
/f { fill } bind def
/f* { eofill } bind def
/n { newpath } bind def
/W { clip } bind def
/W* { eoclip } bind def
/BT { } bind def
/ET { } bind def
/BDC { mark 3 1 roll /BDC pdfmark } bind def
/EMC { mark /EMC pdfmark } bind def
/cairo_store_point { /cairo_point_y exch def /cairo_point_x exch def } def
/Tj { show currentpoint cairo_store_point } bind def
/TJ {
  {
    dup
    type /stringtype eq
    { show } { -0.001 mul 0 cairo_font_matrix dtransform rmoveto } ifelse
  } forall
  currentpoint cairo_store_point
} bind def
/cairo_selectfont { cairo_font_matrix aload pop pop pop 0 0 6 array astore
    cairo_font exch selectfont cairo_point_x cairo_point_y moveto } bind def
/Tf { pop /cairo_font exch def /cairo_font_matrix where
      { pop cairo_selectfont } if } bind def
/Td { matrix translate cairo_font_matrix matrix concatmatrix dup
      /cairo_font_matrix exch def dup 4 get exch 5 get cairo_store_point
      /cairo_font where { pop cairo_selectfont } if } bind def
/Tm { 2 copy 8 2 roll 6 array astore /cairo_font_matrix exch def
      cairo_store_point /cairo_font where { pop cairo_selectfont } if } bind def
/g { setgray } bind def
/rg { setrgbcolor } bind def
/d1 { setcachedevice } bind def
/cairo_data_source {
  CairoDataIndex CairoData length lt
    { CairoData CairoDataIndex get /CairoDataIndex CairoDataIndex 1 add def }
    { () } ifelse
} def
/cairo_flush_ascii85_file { cairo_ascii85_file status { cairo_ascii85_file flushfile } if } def
/cairo_image { image cairo_flush_ascii85_file } def
/cairo_imagemask { imagemask cairo_flush_ascii85_file } def
%%EndProlog
%%BeginSetup
%%EndSetup
%%Page: 1 1
%%BeginPageSetup
%%PageBoundingBox: 0 22 384 362
%%EndPageSetup
q 0 22 384 340 rectclip
1 0 0 -1 0 384 cm q
0 g
384 157.508 m 292.5 206.258 l 292.5 157.5 l 268.805 157.5 l 283.414 143.195
 292.5 123.266 292.5 101.25 c 292.5 57.828 257.172 22.5 213.75 22.5 c 185.137
 22.5 160.039 37.84 146.25 60.727 c 132.461 37.84 107.363 22.5 78.75 22.5
 c 35.328 22.5 0 57.828 0 101.25 c 0 123.266 9.086 143.195 23.695 157.5 
c 0 157.5 l 0 361.5 l 292.5 361.5 l 292.5 312.742 l 384 361.492 l h
213.75 45 m 244.766 45 270 70.234 270 101.25 c 270 132.266 244.766 157.5
 213.75 157.5 c 182.734 157.5 157.5 132.266 157.5 101.25 c 157.5 70.234 
182.734 45 213.75 45 c h
158.695 157.5 m 133.801 157.5 l 138.586 152.816 142.777 147.535 146.25 
141.773 c 149.723 147.535 153.914 152.816 158.695 157.5 c h
22.5 101.25 m 22.5 70.234 47.734 45 78.75 45 c 109.766 45 135 70.234 135
 101.25 c 135 132.266 109.766 157.5 78.75 157.5 c 47.734 157.5 22.5 132.266
 22.5 101.25 c h
270 339 m 22.5 339 l 22.5 180 l 270 180 l h
361.5 324.008 m 292.5 287.246 l 292.5 231.754 l 361.5 194.992 l h
361.5 324.008 m f
45 316.5 m 247.5 316.5 l 247.5 202.5 l 45 202.5 l h
67.5 225 m 225 225 l 225 294 l 67.5 294 l h
67.5 225 m f
Q Q
showpage
%%Trailer
end
%%EOF
