%!PS-Adobe-3.0 EPSF-3.0
%%Creator: cairo 1.16.0 (https://cairographics.org)
%%CreationDate: Tue May  5 07:54:00 2020
%%Pages: 1
%%DocumentData: Clean7Bit
%%LanguageLevel: 2
%%BoundingBox: 0 0 384 384
%%EndComments
%%BeginProlog
50 dict begin
/q { gsave } bind def
/Q { grestore } bind def
/cm { 6 array astore concat } bind def
/w { setlinewidth } bind def
/J { setlinecap } bind def
/j { setlinejoin } bind def
/M { setmiterlimit } bind def
/d { setdash } bind def
/m { moveto } bind def
/l { lineto } bind def
/c { curveto } bind def
/h { closepath } bind def
/re { exch dup neg 3 1 roll 5 3 roll moveto 0 rlineto
      0 exch rlineto 0 rlineto closepath } bind def
/S { stroke } bind def
/f { fill } bind def
/f* { eofill } bind def
/n { newpath } bind def
/W { clip } bind def
/W* { eoclip } bind def
/BT { } bind def
/ET { } bind def
/BDC { mark 3 1 roll /BDC pdfmark } bind def
/EMC { mark /EMC pdfmark } bind def
/cairo_store_point { /cairo_point_y exch def /cairo_point_x exch def } def
/Tj { show currentpoint cairo_store_point } bind def
/TJ {
  {
    dup
    type /stringtype eq
    { show } { -0.001 mul 0 cairo_font_matrix dtransform rmoveto } ifelse
  } forall
  currentpoint cairo_store_point
} bind def
/cairo_selectfont { cairo_font_matrix aload pop pop pop 0 0 6 array astore
    cairo_font exch selectfont cairo_point_x cairo_point_y moveto } bind def
/Tf { pop /cairo_font exch def /cairo_font_matrix where
      { pop cairo_selectfont } if } bind def
/Td { matrix translate cairo_font_matrix matrix concatmatrix dup
      /cairo_font_matrix exch def dup 4 get exch 5 get cairo_store_point
      /cairo_font where { pop cairo_selectfont } if } bind def
/Tm { 2 copy 8 2 roll 6 array astore /cairo_font_matrix exch def
      cairo_store_point /cairo_font where { pop cairo_selectfont } if } bind def
/g { setgray } bind def
/rg { setrgbcolor } bind def
/d1 { setcachedevice } bind def
/cairo_data_source {
  CairoDataIndex CairoData length lt
    { CairoData CairoDataIndex get /CairoDataIndex CairoDataIndex 1 add def }
    { () } ifelse
} def
/cairo_flush_ascii85_file { cairo_ascii85_file status { cairo_ascii85_file flushfile } if } def
/cairo_image { image cairo_flush_ascii85_file } def
/cairo_imagemask { imagemask cairo_flush_ascii85_file } def
%%EndProlog
%%BeginSetup
%%EndSetup
%%Page: 1 1
%%BeginPageSetup
%%PageBoundingBox: 0 0 384 384
%%EndPageSetup
q 0 0 384 384 rectclip
1 0 0 -1 0 384 cm q
0 g
384 192 m 359.746 158.621 l 369.426 118.504 l 334.203 96.996 l 327.766 
56.234 l 287.004 49.797 l 265.496 14.574 l 225.379 24.254 l 192 0 l 158.621
 24.254 l 118.504 14.57 l 96.996 49.797 l 56.234 56.234 l 49.797 96.996 
l 14.574 118.504 l 24.254 158.617 l 0 192 l 24.254 225.383 l 14.574 265.496
 l 49.797 287.004 l 56.238 327.766 l 96.996 334.203 l 118.504 369.43 l 158.621
 359.746 l 192 384 l 225.383 359.746 l 265.496 369.43 l 287.004 334.203 
l 327.766 327.766 l 334.203 287.004 l 369.43 265.496 l 359.746 225.383 l
 h
343.715 254.84 m 313.605 273.219 l 308.098 308.098 l 273.219 313.605 l 
254.836 343.711 l 220.559 335.438 l 192 356.191 l 163.438 335.441 l 129.16
 343.715 l 110.777 313.605 l 75.902 308.098 l 70.395 273.223 l 40.285 254.84
 l 48.559 220.562 l 27.809 192 l 48.559 163.441 l 40.285 129.16 l 70.395
 110.777 l 75.902 75.902 l 110.781 70.395 l 129.16 40.289 l 163.441 48.562
 l 192 27.809 l 220.562 48.562 l 254.84 40.289 l 273.223 70.395 l 308.098
 75.906 l 313.605 110.781 l 343.715 129.164 l 335.441 163.441 l 356.195 
192 l 335.441 220.562 l h
343.715 254.84 m f
192 68.27 m 123.777 68.27 68.27 123.777 68.27 192 c 68.27 260.227 123.777
 315.73 192 315.73 c 260.227 315.73 315.73 260.227 315.73 192 c 315.73 123.777
 260.227 68.27 192 68.27 c h
90.766 192 m 90.766 188.199 90.984 184.445 91.395 180.754 c 180.754 180.754
 l 180.754 203.25 l 91.395 203.25 l 90.984 199.555 90.766 195.801 90.766
 192 c h
180.754 113.262 m 128.449 113.262 l 143.086 101.426 161.078 93.582 180.754
 91.395 c h
180.754 135.758 m 180.754 158.254 l 96.559 158.254 l 99.395 150.25 103.211
 142.699 107.867 135.758 c h
180.754 225.746 m 180.754 248.242 l 107.867 248.242 l 103.215 241.301 99.395
 233.754 96.559 225.746 c h
180.754 270.738 m 180.754 292.605 l 161.078 290.422 143.086 282.574 128.449
 270.738 c h
203.25 292.605 m 203.25 91.395 l 253.793 97.008 293.234 139.98 293.234 
192 c 293.234 244.02 253.793 286.992 203.25 292.605 c h
203.25 292.605 m f
Q Q
showpage
%%Trailer
end
%%EOF
