%!PS-Adobe-3.0 EPSF-3.0
%%Creator: cairo 1.16.0 (https://cairographics.org)
%%CreationDate: Tue May  5 07:54:01 2020
%%Pages: 1
%%DocumentData: Clean7Bit
%%LanguageLevel: 2
%%BoundingBox: 0 0 384 384
%%EndComments
%%BeginProlog
50 dict begin
/q { gsave } bind def
/Q { grestore } bind def
/cm { 6 array astore concat } bind def
/w { setlinewidth } bind def
/J { setlinecap } bind def
/j { setlinejoin } bind def
/M { setmiterlimit } bind def
/d { setdash } bind def
/m { moveto } bind def
/l { lineto } bind def
/c { curveto } bind def
/h { closepath } bind def
/re { exch dup neg 3 1 roll 5 3 roll moveto 0 rlineto
      0 exch rlineto 0 rlineto closepath } bind def
/S { stroke } bind def
/f { fill } bind def
/f* { eofill } bind def
/n { newpath } bind def
/W { clip } bind def
/W* { eoclip } bind def
/BT { } bind def
/ET { } bind def
/BDC { mark 3 1 roll /BDC pdfmark } bind def
/EMC { mark /EMC pdfmark } bind def
/cairo_store_point { /cairo_point_y exch def /cairo_point_x exch def } def
/Tj { show currentpoint cairo_store_point } bind def
/TJ {
  {
    dup
    type /stringtype eq
    { show } { -0.001 mul 0 cairo_font_matrix dtransform rmoveto } ifelse
  } forall
  currentpoint cairo_store_point
} bind def
/cairo_selectfont { cairo_font_matrix aload pop pop pop 0 0 6 array astore
    cairo_font exch selectfont cairo_point_x cairo_point_y moveto } bind def
/Tf { pop /cairo_font exch def /cairo_font_matrix where
      { pop cairo_selectfont } if } bind def
/Td { matrix translate cairo_font_matrix matrix concatmatrix dup
      /cairo_font_matrix exch def dup 4 get exch 5 get cairo_store_point
      /cairo_font where { pop cairo_selectfont } if } bind def
/Tm { 2 copy 8 2 roll 6 array astore /cairo_font_matrix exch def
      cairo_store_point /cairo_font where { pop cairo_selectfont } if } bind def
/g { setgray } bind def
/rg { setrgbcolor } bind def
/d1 { setcachedevice } bind def
/cairo_data_source {
  CairoDataIndex CairoData length lt
    { CairoData CairoDataIndex get /CairoDataIndex CairoDataIndex 1 add def }
    { () } ifelse
} def
/cairo_flush_ascii85_file { cairo_ascii85_file status { cairo_ascii85_file flushfile } if } def
/cairo_image { image cairo_flush_ascii85_file } def
/cairo_imagemask { imagemask cairo_flush_ascii85_file } def
%%EndProlog
%%BeginSetup
%%EndSetup
%%Page: 1 1
%%BeginPageSetup
%%PageBoundingBox: 0 0 384 384
%%EndPageSetup
q 0 0 384 384 rectclip
1 0 0 -1 0 384 cm q
0 g
305.25 0 m 78.75 0 l 35.328 0 0 35.328 0 78.75 c 0 305.25 l 0 348.672 35.328
 384 78.75 384 c 305.25 384 l 348.672 384 384 348.672 384 305.25 c 384 78.75
 l 384 35.328 348.672 0 305.25 0 c h
64.516 80.426 m 112.395 128.305 l 98.391 145.773 90 167.922 90 192 c 90
 216.078 98.391 238.227 112.395 255.695 c 64.516 303.574 l 38.371 273.742
 22.5 234.691 22.5 192 c 22.5 149.309 38.371 110.258 64.516 80.426 c h
271.5 192 m 271.5 235.836 235.836 271.5 192 271.5 c 148.164 271.5 112.5
 235.836 112.5 192 c 112.5 148.164 148.164 112.5 192 112.5 c 235.836 112.5
 271.5 148.164 271.5 192 c h
128.305 271.605 m 145.773 285.609 167.922 294 192 294 c 216.078 294 238.227
 285.609 255.695 271.605 c 303.574 319.484 l 273.742 345.629 234.691 361.5
 192 361.5 c 149.309 361.5 110.258 345.629 80.426 319.484 c h
319.484 303.574 m 271.605 255.695 l 285.609 238.227 294 216.078 294 192
 c 294 167.922 285.609 145.773 271.605 128.305 c 319.484 80.426 l 345.629
 110.258 361.5 149.309 361.5 192 c 361.5 234.691 345.629 273.742 319.484
 303.574 c h
255.695 112.395 m 238.227 98.391 216.078 90 192 90 c 167.922 90 145.773
 98.391 128.305 112.395 c 80.426 64.516 l 110.258 38.371 149.309 22.5 192
 22.5 c 234.691 22.5 273.742 38.371 303.574 64.516 c h
22.5 78.75 m 22.5 47.734 47.734 22.5 78.75 22.5 c 101.895 22.5 l 68.207
 40.48 40.48 68.207 22.5 101.895 c h
78.75 361.5 m 47.734 361.5 22.5 336.266 22.5 305.25 c 22.5 282.105 l 40.48
 315.793 68.207 343.52 101.895 361.5 c h
361.5 305.25 m 361.5 336.266 336.266 361.5 305.25 361.5 c 282.105 361.5
 l 315.793 343.52 343.52 315.793 361.5 282.105 c h
282.105 22.5 m 305.25 22.5 l 336.266 22.5 361.5 47.734 361.5 78.75 c 361.5
 101.895 l 343.52 68.207 315.793 40.48 282.105 22.5 c h
282.105 22.5 m f
Q Q
showpage
%%Trailer
end
%%EOF
