%!PS-Adobe-3.0 EPSF-3.0
%%Creator: cairo 1.16.0 (https://cairographics.org)
%%CreationDate: Tue May  5 07:54:02 2020
%%Pages: 1
%%DocumentData: Clean7Bit
%%LanguageLevel: 2
%%BoundingBox: 0 22 384 362
%%EndComments
%%BeginProlog
50 dict begin
/q { gsave } bind def
/Q { grestore } bind def
/cm { 6 array astore concat } bind def
/w { setlinewidth } bind def
/J { setlinecap } bind def
/j { setlinejoin } bind def
/M { setmiterlimit } bind def
/d { setdash } bind def
/m { moveto } bind def
/l { lineto } bind def
/c { curveto } bind def
/h { closepath } bind def
/re { exch dup neg 3 1 roll 5 3 roll moveto 0 rlineto
      0 exch rlineto 0 rlineto closepath } bind def
/S { stroke } bind def
/f { fill } bind def
/f* { eofill } bind def
/n { newpath } bind def
/W { clip } bind def
/W* { eoclip } bind def
/BT { } bind def
/ET { } bind def
/BDC { mark 3 1 roll /BDC pdfmark } bind def
/EMC { mark /EMC pdfmark } bind def
/cairo_store_point { /cairo_point_y exch def /cairo_point_x exch def } def
/Tj { show currentpoint cairo_store_point } bind def
/TJ {
  {
    dup
    type /stringtype eq
    { show } { -0.001 mul 0 cairo_font_matrix dtransform rmoveto } ifelse
  } forall
  currentpoint cairo_store_point
} bind def
/cairo_selectfont { cairo_font_matrix aload pop pop pop 0 0 6 array astore
    cairo_font exch selectfont cairo_point_x cairo_point_y moveto } bind def
/Tf { pop /cairo_font exch def /cairo_font_matrix where
      { pop cairo_selectfont } if } bind def
/Td { matrix translate cairo_font_matrix matrix concatmatrix dup
      /cairo_font_matrix exch def dup 4 get exch 5 get cairo_store_point
      /cairo_font where { pop cairo_selectfont } if } bind def
/Tm { 2 copy 8 2 roll 6 array astore /cairo_font_matrix exch def
      cairo_store_point /cairo_font where { pop cairo_selectfont } if } bind def
/g { setgray } bind def
/rg { setrgbcolor } bind def
/d1 { setcachedevice } bind def
/cairo_data_source {
  CairoDataIndex CairoData length lt
    { CairoData CairoDataIndex get /CairoDataIndex CairoDataIndex 1 add def }
    { () } ifelse
} def
/cairo_flush_ascii85_file { cairo_ascii85_file status { cairo_ascii85_file flushfile } if } def
/cairo_image { image cairo_flush_ascii85_file } def
/cairo_imagemask { imagemask cairo_flush_ascii85_file } def
%%EndProlog
%%BeginSetup
%%EndSetup
%%Page: 1 1
%%BeginPageSetup
%%PageBoundingBox: 0 22 384 362
%%EndPageSetup
q 0 22 384 340 rectclip
1 0 0 -1 0 384 cm q
0 g
384 22.5 m 0 22.5 l 0 316.5 l 135.75 316.5 l 135.75 328.906 125.656 339
 113.25 339 c 45 339 l 45 361.5 l 339 361.5 l 339 339 l 270.75 339 l 258.344
 339 248.25 328.906 248.25 316.5 c 384 316.5 l h
208.875 45 m 202.391 60.566 l 200.637 64.777 196.559 67.5 192 67.5 c 187.441
 67.5 183.363 64.777 181.609 60.566 c 175.125 45 l h
150.75 45 m 160.84 69.219 l 166.098 81.844 178.328 90 192 90 c 205.672 
90 217.902 81.844 223.16 69.219 c 233.25 45 l 361.5 45 l 361.5 249 l 22.5
 249 l 22.5 45 l h
231.805 339 m 152.195 339 l 156.039 332.375 158.25 324.695 158.25 316.5
 c 225.75 316.5 l 225.75 324.695 227.961 332.375 231.805 339 c h
22.5 294 m 22.5 271.5 l 361.5 271.5 l 361.5 294 l h
22.5 294 m f
180.75 204 22.5 22.5 re f
225.75 204 22.5 22.5 re f
135.75 204 22.5 22.5 re f
Q Q
showpage
%%Trailer
end
%%EOF
