%!PS-Adobe-3.0 EPSF-3.0
%%Creator: cairo 1.16.0 (https://cairographics.org)
%%CreationDate: Tue May  5 07:54:03 2020
%%Pages: 1
%%DocumentData: Clean7Bit
%%LanguageLevel: 2
%%BoundingBox: 0 7 384 377
%%EndComments
%%BeginProlog
50 dict begin
/q { gsave } bind def
/Q { grestore } bind def
/cm { 6 array astore concat } bind def
/w { setlinewidth } bind def
/J { setlinecap } bind def
/j { setlinejoin } bind def
/M { setmiterlimit } bind def
/d { setdash } bind def
/m { moveto } bind def
/l { lineto } bind def
/c { curveto } bind def
/h { closepath } bind def
/re { exch dup neg 3 1 roll 5 3 roll moveto 0 rlineto
      0 exch rlineto 0 rlineto closepath } bind def
/S { stroke } bind def
/f { fill } bind def
/f* { eofill } bind def
/n { newpath } bind def
/W { clip } bind def
/W* { eoclip } bind def
/BT { } bind def
/ET { } bind def
/BDC { mark 3 1 roll /BDC pdfmark } bind def
/EMC { mark /EMC pdfmark } bind def
/cairo_store_point { /cairo_point_y exch def /cairo_point_x exch def } def
/Tj { show currentpoint cairo_store_point } bind def
/TJ {
  {
    dup
    type /stringtype eq
    { show } { -0.001 mul 0 cairo_font_matrix dtransform rmoveto } ifelse
  } forall
  currentpoint cairo_store_point
} bind def
/cairo_selectfont { cairo_font_matrix aload pop pop pop 0 0 6 array astore
    cairo_font exch selectfont cairo_point_x cairo_point_y moveto } bind def
/Tf { pop /cairo_font exch def /cairo_font_matrix where
      { pop cairo_selectfont } if } bind def
/Td { matrix translate cairo_font_matrix matrix concatmatrix dup
      /cairo_font_matrix exch def dup 4 get exch 5 get cairo_store_point
      /cairo_font where { pop cairo_selectfont } if } bind def
/Tm { 2 copy 8 2 roll 6 array astore /cairo_font_matrix exch def
      cairo_store_point /cairo_font where { pop cairo_selectfont } if } bind def
/g { setgray } bind def
/rg { setrgbcolor } bind def
/d1 { setcachedevice } bind def
/cairo_data_source {
  CairoDataIndex CairoData length lt
    { CairoData CairoDataIndex get /CairoDataIndex CairoDataIndex 1 add def }
    { () } ifelse
} def
/cairo_flush_ascii85_file { cairo_ascii85_file status { cairo_ascii85_file flushfile } if } def
/cairo_image { image cairo_flush_ascii85_file } def
/cairo_imagemask { imagemask cairo_flush_ascii85_file } def
%%EndProlog
%%BeginSetup
%%EndSetup
%%Page: 1 1
%%BeginPageSetup
%%PageBoundingBox: 0 7 384 377
%%EndPageSetup
q 0 7 384 370 rectclip
1 0 0 -1 0 384 cm q
0 g
382.266 145.961 m 377.652 131.816 365.062 122.68 350.188 122.68 c 254.262
 122.68 l 224.055 30.945 l 219.41 16.844 206.844 7.754 192.012 7.754 c 191.965
 7.754 191.914 7.754 191.867 7.754 c 176.973 7.812 164.414 17.016 159.867
 31.199 c 130.539 122.68 l 33.816 122.68 l 18.902 122.68 6.301 131.848 1.711
 146.035 c -2.883 160.223 1.961 175.039 14.047 183.773 c 92.309 240.344 
l 62.184 331.824 l 57.523 345.98 62.285 360.816 74.316 369.613 c 80.359 
374.035 87.293 376.246 94.234 376.246 c 101.109 376.246 107.992 374.074 
114.004 369.727 c 192.402 313.062 l 269.863 369.633 l 281.883 378.406 297.445
 378.449 309.516 369.742 c 321.582 361.031 326.441 346.25 321.902 332.078
 c 292.492 240.344 l 370.086 183.676 l 382.102 174.906 386.883 160.102 382.266
 145.961 c h
356.82 165.508 m 266.113 231.75 l 300.477 338.945 l 302.789 346.16 297.902
 350.379 296.348 351.5 c 294.793 352.621 289.25 355.93 283.129 351.461 c
 192.469 285.254 l 100.824 351.496 l 94.676 355.938 89.145 352.59 87.594
 351.457 c 86.047 350.324 81.18 346.066 83.551 338.859 c 118.82 231.75 l
 27.227 165.543 l 21.07 161.094 22.523 154.789 23.113 152.961 c 23.703 151.137
 26.223 145.176 33.816 145.176 c 146.953 145.176 l 181.289 38.066 l 183.605
 30.844 190.039 30.258 191.957 30.25 c 191.996 30.25 l 193.961 30.25 200.328
 30.828 202.688 37.98 c 237.984 145.176 l 350.188 145.176 l 357.762 145.176
 360.285 151.117 360.879 152.938 c 361.473 154.758 362.934 161.043 356.82
 165.508 c h
356.82 165.508 m f
Q Q
showpage
%%Trailer
end
%%EOF
