%!PS-Adobe-3.0 EPSF-3.0
%%Creator: cairo 1.16.0 (https://cairographics.org)
%%CreationDate: Tue May  5 07:54:04 2020
%%Pages: 1
%%DocumentData: Clean7Bit
%%LanguageLevel: 2
%%BoundingBox: 0 0 384 384
%%EndComments
%%BeginProlog
50 dict begin
/q { gsave } bind def
/Q { grestore } bind def
/cm { 6 array astore concat } bind def
/w { setlinewidth } bind def
/J { setlinecap } bind def
/j { setlinejoin } bind def
/M { setmiterlimit } bind def
/d { setdash } bind def
/m { moveto } bind def
/l { lineto } bind def
/c { curveto } bind def
/h { closepath } bind def
/re { exch dup neg 3 1 roll 5 3 roll moveto 0 rlineto
      0 exch rlineto 0 rlineto closepath } bind def
/S { stroke } bind def
/f { fill } bind def
/f* { eofill } bind def
/n { newpath } bind def
/W { clip } bind def
/W* { eoclip } bind def
/BT { } bind def
/ET { } bind def
/BDC { mark 3 1 roll /BDC pdfmark } bind def
/EMC { mark /EMC pdfmark } bind def
/cairo_store_point { /cairo_point_y exch def /cairo_point_x exch def } def
/Tj { show currentpoint cairo_store_point } bind def
/TJ {
  {
    dup
    type /stringtype eq
    { show } { -0.001 mul 0 cairo_font_matrix dtransform rmoveto } ifelse
  } forall
  currentpoint cairo_store_point
} bind def
/cairo_selectfont { cairo_font_matrix aload pop pop pop 0 0 6 array astore
    cairo_font exch selectfont cairo_point_x cairo_point_y moveto } bind def
/Tf { pop /cairo_font exch def /cairo_font_matrix where
      { pop cairo_selectfont } if } bind def
/Td { matrix translate cairo_font_matrix matrix concatmatrix dup
      /cairo_font_matrix exch def dup 4 get exch 5 get cairo_store_point
      /cairo_font where { pop cairo_selectfont } if } bind def
/Tm { 2 copy 8 2 roll 6 array astore /cairo_font_matrix exch def
      cairo_store_point /cairo_font where { pop cairo_selectfont } if } bind def
/g { setgray } bind def
/rg { setrgbcolor } bind def
/d1 { setcachedevice } bind def
/cairo_data_source {
  CairoDataIndex CairoData length lt
    { CairoData CairoDataIndex get /CairoDataIndex CairoDataIndex 1 add def }
    { () } ifelse
} def
/cairo_flush_ascii85_file { cairo_ascii85_file status { cairo_ascii85_file flushfile } if } def
/cairo_image { image cairo_flush_ascii85_file } def
/cairo_imagemask { imagemask cairo_flush_ascii85_file } def
%%EndProlog
%%BeginSetup
%%EndSetup
%%Page: 1 1
%%BeginPageSetup
%%PageBoundingBox: 0 0 384 384
%%EndPageSetup
q 0 0 384 384 rectclip
1 0 0 -1 0 384 cm q
0 g
384 123.75 m 384 112.5 l 259.5 112.5 l 259.5 90 l 259.5 65.188 239.312 
45 214.5 45 c 67.5 45 l 67.5 0 l 0 0 l 0 384 l 67.5 384 l 67.5 271.5 l 169.5
 271.5 l 169.5 294 l 169.5 318.812 189.688 339 214.5 339 c 384 339 l 384
 327.75 l 384 299.879 377.516 285.18 371.793 272.207 c 366.27 259.691 361.5
 248.879 361.5 225.75 c 361.5 202.621 366.27 191.809 371.793 179.293 c 377.516
 166.32 384 151.621 384 123.75 c h
45 361.5 m 22.5 361.5 l 22.5 22.5 l 45 22.5 l h
67.5 67.5 m 214.5 67.5 l 226.906 67.5 237 77.594 237 90 c 237 255.055 l
 230.375 251.211 222.695 249 214.5 249 c 67.5 249 l h
192 294 m 192 271.5 l 214.5 271.5 l 226.906 271.5 237 281.594 237 294 c
 237 306.406 226.906 316.5 214.5 316.5 c 202.094 316.5 192 306.406 192 294
 c h
351.207 281.293 m 355.746 291.582 359.781 300.723 361.07 316.5 c 253.445
 316.5 l 257.289 309.875 259.5 302.195 259.5 294 c 259.5 135 l 361.07 135
 l 359.781 150.777 355.746 159.918 351.207 170.207 c 345.484 183.18 339 
197.879 339 225.75 c 339 253.621 345.484 268.32 351.207 281.293 c h
351.207 281.293 m f
Q Q
showpage
%%Trailer
end
%%EOF
