%!PS-Adobe-3.0 EPSF-3.0
%%Creator: cairo 1.16.0 (https://cairographics.org)
%%CreationDate: Tue May  5 07:54:05 2020
%%Pages: 1
%%DocumentData: Clean7Bit
%%LanguageLevel: 2
%%BoundingBox: 16 0 368 384
%%EndComments
%%BeginProlog
50 dict begin
/q { gsave } bind def
/Q { grestore } bind def
/cm { 6 array astore concat } bind def
/w { setlinewidth } bind def
/J { setlinecap } bind def
/j { setlinejoin } bind def
/M { setmiterlimit } bind def
/d { setdash } bind def
/m { moveto } bind def
/l { lineto } bind def
/c { curveto } bind def
/h { closepath } bind def
/re { exch dup neg 3 1 roll 5 3 roll moveto 0 rlineto
      0 exch rlineto 0 rlineto closepath } bind def
/S { stroke } bind def
/f { fill } bind def
/f* { eofill } bind def
/n { newpath } bind def
/W { clip } bind def
/W* { eoclip } bind def
/BT { } bind def
/ET { } bind def
/BDC { mark 3 1 roll /BDC pdfmark } bind def
/EMC { mark /EMC pdfmark } bind def
/cairo_store_point { /cairo_point_y exch def /cairo_point_x exch def } def
/Tj { show currentpoint cairo_store_point } bind def
/TJ {
  {
    dup
    type /stringtype eq
    { show } { -0.001 mul 0 cairo_font_matrix dtransform rmoveto } ifelse
  } forall
  currentpoint cairo_store_point
} bind def
/cairo_selectfont { cairo_font_matrix aload pop pop pop 0 0 6 array astore
    cairo_font exch selectfont cairo_point_x cairo_point_y moveto } bind def
/Tf { pop /cairo_font exch def /cairo_font_matrix where
      { pop cairo_selectfont } if } bind def
/Td { matrix translate cairo_font_matrix matrix concatmatrix dup
      /cairo_font_matrix exch def dup 4 get exch 5 get cairo_store_point
      /cairo_font where { pop cairo_selectfont } if } bind def
/Tm { 2 copy 8 2 roll 6 array astore /cairo_font_matrix exch def
      cairo_store_point /cairo_font where { pop cairo_selectfont } if } bind def
/g { setgray } bind def
/rg { setrgbcolor } bind def
/d1 { setcachedevice } bind def
/cairo_data_source {
  CairoDataIndex CairoData length lt
    { CairoData CairoDataIndex get /CairoDataIndex CairoDataIndex 1 add def }
    { () } ifelse
} def
/cairo_flush_ascii85_file { cairo_ascii85_file status { cairo_ascii85_file flushfile } if } def
/cairo_image { image cairo_flush_ascii85_file } def
/cairo_imagemask { imagemask cairo_flush_ascii85_file } def
%%EndProlog
%%BeginSetup
%%EndSetup
%%Page: 1 1
%%BeginPageSetup
%%PageBoundingBox: 16 0 368 384
%%EndPageSetup
q 16 0 352 384 rectclip
1 0 0 -1 0 384 cm q
0 g
208.875 0 m 208.875 112.5 l 222.805 112.5 l 192 143.305 l 161.195 112.5
 l 175.125 112.5 l 175.125 0 l 16.875 0 l 16.875 384 l 367.125 384 l 367.125
 0 l h
344.625 22.5 m 344.625 271.5 l 322.125 271.5 l 322.125 45 l 231.375 45 
l 231.375 22.5 l h
192 175.125 m 277.125 90 l 231.375 90 l 231.375 67.5 l 299.625 67.5 l 299.625
 271.5 l 254.625 271.5 l 254.625 282.75 l 254.625 301.359 239.484 316.5 
220.875 316.5 c 163.125 316.5 l 144.516 316.5 129.375 301.359 129.375 282.75
 c 129.375 271.5 l 84.375 271.5 l 84.375 67.5 l 152.625 67.5 l 152.625 90
 l 106.875 90 l h
152.625 22.5 m 152.625 45 l 61.875 45 l 61.875 271.5 l 39.375 271.5 l 39.375
 22.5 l h
39.375 361.5 m 39.375 294 l 108.004 294 l 113.234 319.641 135.961 339 163.125
 339 c 220.875 339 l 248.039 339 270.766 319.641 275.996 294 c 344.625 294
 l 344.625 361.5 l h
39.375 361.5 m f
Q Q
showpage
%%Trailer
end
%%EOF
