%!PS-Adobe-3.0 EPSF-3.0
%%Creator: cairo 1.16.0 (https://cairographics.org)
%%CreationDate: Tue May  5 07:54:05 2020
%%Pages: 1
%%DocumentData: Clean7Bit
%%LanguageLevel: 2
%%BoundingBox: 0 45 384 339
%%EndComments
%%BeginProlog
50 dict begin
/q { gsave } bind def
/Q { grestore } bind def
/cm { 6 array astore concat } bind def
/w { setlinewidth } bind def
/J { setlinecap } bind def
/j { setlinejoin } bind def
/M { setmiterlimit } bind def
/d { setdash } bind def
/m { moveto } bind def
/l { lineto } bind def
/c { curveto } bind def
/h { closepath } bind def
/re { exch dup neg 3 1 roll 5 3 roll moveto 0 rlineto
      0 exch rlineto 0 rlineto closepath } bind def
/S { stroke } bind def
/f { fill } bind def
/f* { eofill } bind def
/n { newpath } bind def
/W { clip } bind def
/W* { eoclip } bind def
/BT { } bind def
/ET { } bind def
/BDC { mark 3 1 roll /BDC pdfmark } bind def
/EMC { mark /EMC pdfmark } bind def
/cairo_store_point { /cairo_point_y exch def /cairo_point_x exch def } def
/Tj { show currentpoint cairo_store_point } bind def
/TJ {
  {
    dup
    type /stringtype eq
    { show } { -0.001 mul 0 cairo_font_matrix dtransform rmoveto } ifelse
  } forall
  currentpoint cairo_store_point
} bind def
/cairo_selectfont { cairo_font_matrix aload pop pop pop 0 0 6 array astore
    cairo_font exch selectfont cairo_point_x cairo_point_y moveto } bind def
/Tf { pop /cairo_font exch def /cairo_font_matrix where
      { pop cairo_selectfont } if } bind def
/Td { matrix translate cairo_font_matrix matrix concatmatrix dup
      /cairo_font_matrix exch def dup 4 get exch 5 get cairo_store_point
      /cairo_font where { pop cairo_selectfont } if } bind def
/Tm { 2 copy 8 2 roll 6 array astore /cairo_font_matrix exch def
      cairo_store_point /cairo_font where { pop cairo_selectfont } if } bind def
/g { setgray } bind def
/rg { setrgbcolor } bind def
/d1 { setcachedevice } bind def
/cairo_data_source {
  CairoDataIndex CairoData length lt
    { CairoData CairoDataIndex get /CairoDataIndex CairoDataIndex 1 add def }
    { () } ifelse
} def
/cairo_flush_ascii85_file { cairo_ascii85_file status { cairo_ascii85_file flushfile } if } def
/cairo_image { image cairo_flush_ascii85_file } def
/cairo_imagemask { imagemask cairo_flush_ascii85_file } def
%%EndProlog
%%BeginSetup
%%EndSetup
%%Page: 1 1
%%BeginPageSetup
%%PageBoundingBox: 0 45 384 339
%%EndPageSetup
q 0 45 384 294 rectclip
1 0 0 -1 0 384 cm q
0 g
0 45 m 0 339 l 384 339 l 384 45 l h
112.449 192 m 22.5 281.949 l 22.5 102.051 l h
32.387 303.887 m 128.359 207.91 l 152.227 231.773 l 162.852 242.398 176.977
 248.25 192 248.25 c 207.023 248.25 221.148 242.398 231.773 231.773 c 255.641
 207.91 l 351.613 303.887 l 355.234 307.508 357.93 311.809 359.586 316.5
 c 24.414 316.5 l 26.07 311.809 28.762 307.508 32.387 303.887 c h
271.551 192 m 361.5 102.051 l 361.5 281.949 l h
351.613 80.113 m 215.863 215.863 l 209.488 222.238 201.016 225.75 192 225.75
 c 182.984 225.75 174.512 222.238 168.137 215.863 c 32.387 80.113 l 28.762
 76.492 26.07 72.191 24.414 67.5 c 359.586 67.5 l 357.93 72.191 355.238 
76.492 351.613 80.113 c h
351.613 80.113 m f
180.75 90 22.5 22.5 re f
225.75 90 22.5 22.5 re f
135.75 90 22.5 22.5 re f
Q Q
showpage
%%Trailer
end
%%EOF
