%!PS-Adobe-3.0 EPSF-3.0
%%Creator: cairo 1.16.0 (https://cairographics.org)
%%CreationDate: Tue May  5 07:54:05 2020
%%Pages: 1
%%DocumentData: Clean7Bit
%%LanguageLevel: 2
%%BoundingBox: 0 0 384 384
%%EndComments
%%BeginProlog
50 dict begin
/q { gsave } bind def
/Q { grestore } bind def
/cm { 6 array astore concat } bind def
/w { setlinewidth } bind def
/J { setlinecap } bind def
/j { setlinejoin } bind def
/M { setmiterlimit } bind def
/d { setdash } bind def
/m { moveto } bind def
/l { lineto } bind def
/c { curveto } bind def
/h { closepath } bind def
/re { exch dup neg 3 1 roll 5 3 roll moveto 0 rlineto
      0 exch rlineto 0 rlineto closepath } bind def
/S { stroke } bind def
/f { fill } bind def
/f* { eofill } bind def
/n { newpath } bind def
/W { clip } bind def
/W* { eoclip } bind def
/BT { } bind def
/ET { } bind def
/BDC { mark 3 1 roll /BDC pdfmark } bind def
/EMC { mark /EMC pdfmark } bind def
/cairo_store_point { /cairo_point_y exch def /cairo_point_x exch def } def
/Tj { show currentpoint cairo_store_point } bind def
/TJ {
  {
    dup
    type /stringtype eq
    { show } { -0.001 mul 0 cairo_font_matrix dtransform rmoveto } ifelse
  } forall
  currentpoint cairo_store_point
} bind def
/cairo_selectfont { cairo_font_matrix aload pop pop pop 0 0 6 array astore
    cairo_font exch selectfont cairo_point_x cairo_point_y moveto } bind def
/Tf { pop /cairo_font exch def /cairo_font_matrix where
      { pop cairo_selectfont } if } bind def
/Td { matrix translate cairo_font_matrix matrix concatmatrix dup
      /cairo_font_matrix exch def dup 4 get exch 5 get cairo_store_point
      /cairo_font where { pop cairo_selectfont } if } bind def
/Tm { 2 copy 8 2 roll 6 array astore /cairo_font_matrix exch def
      cairo_store_point /cairo_font where { pop cairo_selectfont } if } bind def
/g { setgray } bind def
/rg { setrgbcolor } bind def
/d1 { setcachedevice } bind def
/cairo_data_source {
  CairoDataIndex CairoData length lt
    { CairoData CairoDataIndex get /CairoDataIndex CairoDataIndex 1 add def }
    { () } ifelse
} def
/cairo_flush_ascii85_file { cairo_ascii85_file status { cairo_ascii85_file flushfile } if } def
/cairo_image { image cairo_flush_ascii85_file } def
/cairo_imagemask { imagemask cairo_flush_ascii85_file } def
%%EndProlog
%%BeginSetup
%%EndSetup
%%Page: 1 1
%%BeginPageSetup
%%PageBoundingBox: 0 0 384 384
%%EndPageSetup
q 0 0 384 384 rectclip
1 0 0 -1 0 384 cm q
0 g
322.125 90 m 322.125 0 l 61.875 0 l 61.875 90 l 0 90 l 0 384 l 384 384 
l 384 90 l h
112.449 237 m 22.5 326.949 l 22.5 147.051 l h
32.387 348.887 m 128.359 252.91 l 152.227 276.773 l 162.852 287.398 176.977
 293.25 192 293.25 c 207.023 293.25 221.148 287.398 231.773 276.773 c 255.641
 252.91 l 351.613 348.887 l 355.234 352.508 357.93 356.809 359.586 361.5
 c 24.414 361.5 l 26.07 356.809 28.762 352.508 32.387 348.887 c h
271.551 237 m 361.5 147.051 l 361.5 326.949 l h
351.613 125.113 m 322.125 154.605 l 322.125 112.5 l 359.586 112.5 l 357.93
 117.191 355.238 121.492 351.613 125.113 c h
299.625 22.5 m 299.625 177.105 l 215.863 260.863 l 209.488 267.238 201.016
 270.75 192 270.75 c 182.984 270.75 174.512 267.238 168.137 260.863 c 84.375
 177.105 l 84.375 22.5 l h
61.875 154.605 m 32.387 125.113 l 28.766 121.492 26.07 117.191 24.414 112.5
 c 61.875 112.5 l h
61.875 154.605 m f
Q Q
showpage
%%Trailer
end
%%EOF
