%!PS-Adobe-3.0 EPSF-3.0
%%Creator: cairo 1.16.0 (https://cairographics.org)
%%CreationDate: Tue May  5 07:54:07 2020
%%Pages: 1
%%DocumentData: Clean7Bit
%%LanguageLevel: 2
%%BoundingBox: 2 0 382 384
%%EndComments
%%BeginProlog
50 dict begin
/q { gsave } bind def
/Q { grestore } bind def
/cm { 6 array astore concat } bind def
/w { setlinewidth } bind def
/J { setlinecap } bind def
/j { setlinejoin } bind def
/M { setmiterlimit } bind def
/d { setdash } bind def
/m { moveto } bind def
/l { lineto } bind def
/c { curveto } bind def
/h { closepath } bind def
/re { exch dup neg 3 1 roll 5 3 roll moveto 0 rlineto
      0 exch rlineto 0 rlineto closepath } bind def
/S { stroke } bind def
/f { fill } bind def
/f* { eofill } bind def
/n { newpath } bind def
/W { clip } bind def
/W* { eoclip } bind def
/BT { } bind def
/ET { } bind def
/BDC { mark 3 1 roll /BDC pdfmark } bind def
/EMC { mark /EMC pdfmark } bind def
/cairo_store_point { /cairo_point_y exch def /cairo_point_x exch def } def
/Tj { show currentpoint cairo_store_point } bind def
/TJ {
  {
    dup
    type /stringtype eq
    { show } { -0.001 mul 0 cairo_font_matrix dtransform rmoveto } ifelse
  } forall
  currentpoint cairo_store_point
} bind def
/cairo_selectfont { cairo_font_matrix aload pop pop pop 0 0 6 array astore
    cairo_font exch selectfont cairo_point_x cairo_point_y moveto } bind def
/Tf { pop /cairo_font exch def /cairo_font_matrix where
      { pop cairo_selectfont } if } bind def
/Td { matrix translate cairo_font_matrix matrix concatmatrix dup
      /cairo_font_matrix exch def dup 4 get exch 5 get cairo_store_point
      /cairo_font where { pop cairo_selectfont } if } bind def
/Tm { 2 copy 8 2 roll 6 array astore /cairo_font_matrix exch def
      cairo_store_point /cairo_font where { pop cairo_selectfont } if } bind def
/g { setgray } bind def
/rg { setrgbcolor } bind def
/d1 { setcachedevice } bind def
/cairo_data_source {
  CairoDataIndex CairoData length lt
    { CairoData CairoDataIndex get /CairoDataIndex CairoDataIndex 1 add def }
    { () } ifelse
} def
/cairo_flush_ascii85_file { cairo_ascii85_file status { cairo_ascii85_file flushfile } if } def
/cairo_image { image cairo_flush_ascii85_file } def
/cairo_imagemask { imagemask cairo_flush_ascii85_file } def
%%EndProlog
%%BeginSetup
%%EndSetup
%%Page: 1 1
%%BeginPageSetup
%%PageBoundingBox: 2 0 382 384
%%EndPageSetup
q 2 0 380 384 rectclip
1 0 0 -1 0 384 cm q
0 g
361.5 192 m 361.5 188.328 361.379 184.613 361.137 180.906 c 381.77 162.023
 l 380.578 155.844 l 379.07 148.023 377.059 140.227 374.602 132.672 c 372.148
 125.113 369.191 117.625 365.816 110.41 c 363.148 104.707 l 335.367 101.559
 l 331.418 95.312 327.047 89.309 322.312 83.617 c 327.906 56.203 l 323.312
 51.906 l 317.496 46.469 311.289 41.344 304.855 36.668 c 298.426 31.996 
291.629 27.676 284.66 23.824 c 279.152 20.781 l 254.848 34.551 l 247.969
 31.801 240.891 29.504 233.703 27.684 c 222.133 2.254 l 215.887 1.477 l 
207.984 0.496 199.945 0 192 0 c 184.055 0 176.016 0.496 168.113 1.477 c 
161.867 2.254 l 150.297 27.684 l 143.109 29.504 136.035 31.801 129.152 34.551
 c 104.848 20.781 l 99.34 23.824 l 92.371 27.676 85.574 31.996 79.145 36.668
 c 72.711 41.344 66.504 46.469 60.688 51.906 c 56.094 56.203 l 61.688 83.617
 l 56.953 89.309 52.582 95.312 48.633 101.559 c 20.852 104.707 l 18.184 
110.41 l 14.809 117.621 11.852 125.109 9.398 132.668 c 6.941 140.23 4.93
 148.027 3.422 155.844 c 2.23 162.023 l 22.863 180.906 l 22.621 184.613 
22.5 188.328 22.5 192 c 22.5 195.676 22.621 199.387 22.863 203.094 c 2.23
 221.977 l 3.422 228.156 l 4.93 235.973 6.941 243.77 9.398 251.332 c 11.852
 258.891 14.809 266.379 18.184 273.59 c 20.855 279.293 l 48.633 282.441 
l 52.582 288.688 56.953 294.691 61.688 300.383 c 56.094 327.797 l 60.691
 332.094 l 66.504 337.531 72.711 342.656 79.145 347.332 c 85.574 352.004
 92.371 356.324 99.34 360.176 c 104.852 363.219 l 129.152 349.449 l 136.035
 352.199 143.109 354.496 150.297 356.316 c 161.867 381.746 l 168.113 382.52
 l 176.016 383.504 184.051 384 192 384 c 199.949 384 207.984 383.504 215.887
 382.52 c 222.133 381.746 l 233.703 356.316 l 240.891 354.496 247.969 352.199
 254.848 349.449 c 279.152 363.219 l 284.66 360.176 l 291.629 356.324 298.426
 352.004 304.855 347.332 c 311.289 342.656 317.496 337.531 323.312 332.094
 c 327.906 327.797 l 322.312 300.383 l 327.047 294.691 331.418 288.688 335.367
 282.441 c 363.148 279.293 l 365.816 273.59 l 369.191 266.379 372.148 258.887
 374.602 251.332 c 377.059 243.773 379.07 235.977 380.578 228.156 c 381.77
 221.977 l 361.137 203.094 l 361.379 199.387 361.5 195.676 361.5 192 c h
338.281 177.426 m 338.758 182.273 339 187.176 339 192 c 339 196.824 338.758
 201.727 338.281 206.57 c 337.73 212.172 l 357.195 229.984 l 356.07 234.844
 354.734 239.664 353.203 244.379 c 351.672 249.094 349.922 253.777 347.973
 258.367 c 321.766 261.336 l 318.922 266.195 l 314.02 274.559 308.254 282.48
 301.785 289.742 c 298.035 293.949 l 303.316 319.828 l 299.555 323.098 295.641
 326.215 291.629 329.129 c 287.617 332.043 283.445 334.805 279.176 337.371
 c 256.23 324.371 l 251.066 326.641 l 242.176 330.547 232.855 333.574 223.363
 335.637 c 217.848 336.836 l 206.922 360.848 l 196.988 361.715 187.012 361.715
 177.078 360.848 c 166.152 336.836 l 160.641 335.637 l 151.145 333.574 141.824
 330.547 132.934 326.641 c 127.77 324.371 l 104.828 337.371 l 100.555 334.805
 96.383 332.043 92.371 329.129 c 88.359 326.211 84.445 323.098 80.684 319.828
 c 85.965 293.949 l 82.215 289.742 l 75.746 282.48 69.98 274.559 65.082 
266.195 c 62.234 261.336 l 36.027 258.367 l 34.082 253.777 32.328 249.094
 30.797 244.379 c 29.262 239.66 27.93 234.844 26.805 229.984 c 46.27 212.172
 l 45.719 206.57 l 45.242 201.727 45 196.824 45 192 c 45 187.176 45.242 
182.273 45.719 177.426 c 46.27 171.828 l 26.805 154.016 l 27.926 149.156
 29.262 144.34 30.797 139.621 c 32.328 134.906 34.078 130.223 36.027 125.633
 c 62.234 122.664 l 65.082 117.805 l 69.98 109.445 75.742 101.523 82.215
 94.262 c 85.965 90.051 l 80.684 64.172 l 84.445 60.902 88.359 57.785 92.371
 54.871 c 96.383 51.957 100.555 49.199 104.824 46.629 c 127.77 59.629 l 
132.934 57.359 l 141.824 53.453 151.145 50.426 160.637 48.363 c 166.152 
47.164 l 177.078 23.152 l 187.012 22.285 196.984 22.285 206.922 23.152 c
 217.848 47.164 l 223.359 48.363 l 232.855 50.426 242.176 53.453 251.066
 57.359 c 256.23 59.629 l 279.172 46.629 l 283.445 49.199 287.617 51.957
 291.629 54.871 c 295.641 57.789 299.555 60.902 303.316 64.172 c 298.035
 90.051 l 301.785 94.262 l 308.254 101.52 314.02 109.441 318.918 117.805
 c 321.766 122.664 l 347.973 125.633 l 349.918 130.223 351.672 134.906 353.203
 139.621 c 354.734 144.336 356.07 149.16 357.195 154.016 c 337.73 171.828
 l h
338.281 177.426 m f
192 67.5 m 123.352 67.5 67.5 123.352 67.5 192 c 67.5 260.648 123.352 316.5
 192 316.5 c 260.648 316.5 316.5 260.648 316.5 192 c 316.5 123.352 260.648
 67.5 192 67.5 c h
192 294 m 135.758 294 90 248.242 90 192 c 90 135.758 135.758 90 192 90 
c 248.242 90 294 135.758 294 192 c 294 248.242 248.242 294 192 294 c h
192 294 m f
192 147 m 167.188 147 147 167.188 147 192 c 147 216.812 167.188 237 192
 237 c 216.812 237 237 216.812 237 192 c 237 167.188 216.812 147 192 147
 c h
192 214.5 m 179.594 214.5 169.5 204.406 169.5 192 c 169.5 179.594 179.594
 169.5 192 169.5 c 204.406 169.5 214.5 179.594 214.5 192 c 214.5 204.406
 204.406 214.5 192 214.5 c h
192 214.5 m f
Q Q
showpage
%%Trailer
end
%%EOF
