%!PS-Adobe-3.0 EPSF-3.0
%%Creator: cairo 1.16.0 (https://cairographics.org)
%%CreationDate: Tue May  5 07:54:08 2020
%%Pages: 1
%%DocumentData: Clean7Bit
%%LanguageLevel: 2
%%BoundingBox: 22 0 362 384
%%EndComments
%%BeginProlog
50 dict begin
/q { gsave } bind def
/Q { grestore } bind def
/cm { 6 array astore concat } bind def
/w { setlinewidth } bind def
/J { setlinecap } bind def
/j { setlinejoin } bind def
/M { setmiterlimit } bind def
/d { setdash } bind def
/m { moveto } bind def
/l { lineto } bind def
/c { curveto } bind def
/h { closepath } bind def
/re { exch dup neg 3 1 roll 5 3 roll moveto 0 rlineto
      0 exch rlineto 0 rlineto closepath } bind def
/S { stroke } bind def
/f { fill } bind def
/f* { eofill } bind def
/n { newpath } bind def
/W { clip } bind def
/W* { eoclip } bind def
/BT { } bind def
/ET { } bind def
/BDC { mark 3 1 roll /BDC pdfmark } bind def
/EMC { mark /EMC pdfmark } bind def
/cairo_store_point { /cairo_point_y exch def /cairo_point_x exch def } def
/Tj { show currentpoint cairo_store_point } bind def
/TJ {
  {
    dup
    type /stringtype eq
    { show } { -0.001 mul 0 cairo_font_matrix dtransform rmoveto } ifelse
  } forall
  currentpoint cairo_store_point
} bind def
/cairo_selectfont { cairo_font_matrix aload pop pop pop 0 0 6 array astore
    cairo_font exch selectfont cairo_point_x cairo_point_y moveto } bind def
/Tf { pop /cairo_font exch def /cairo_font_matrix where
      { pop cairo_selectfont } if } bind def
/Td { matrix translate cairo_font_matrix matrix concatmatrix dup
      /cairo_font_matrix exch def dup 4 get exch 5 get cairo_store_point
      /cairo_font where { pop cairo_selectfont } if } bind def
/Tm { 2 copy 8 2 roll 6 array astore /cairo_font_matrix exch def
      cairo_store_point /cairo_font where { pop cairo_selectfont } if } bind def
/g { setgray } bind def
/rg { setrgbcolor } bind def
/d1 { setcachedevice } bind def
/cairo_data_source {
  CairoDataIndex CairoData length lt
    { CairoData CairoDataIndex get /CairoDataIndex CairoDataIndex 1 add def }
    { () } ifelse
} def
/cairo_flush_ascii85_file { cairo_ascii85_file status { cairo_ascii85_file flushfile } if } def
/cairo_image { image cairo_flush_ascii85_file } def
/cairo_imagemask { imagemask cairo_flush_ascii85_file } def
%%EndProlog
%%BeginSetup
%%EndSetup
%%Page: 1 1
%%BeginPageSetup
%%PageBoundingBox: 22 0 362 384
%%EndPageSetup
q 22 0 340 384 rectclip
1 0 0 -1 0 384 cm q
0 g
192 44.336 m 123.215 44.336 67.258 100.297 67.258 169.082 c 67.258 237.863
 123.215 293.824 192 293.824 c 260.785 293.824 316.742 237.863 316.742 169.082
 c 316.742 100.297 260.785 44.336 192 44.336 c h
192 271.281 m 135.648 271.281 89.801 225.434 89.801 169.082 c 89.801 112.727
 135.648 66.879 192 66.879 c 248.352 66.879 294.199 112.727 294.199 169.082
 c 294.199 225.434 248.352 271.281 192 271.281 c h
192 271.281 m f
312.09 49.742 m 280.012 17.664 237.363 0 192 0 c 146.637 0 103.988 17.664
 71.91 49.742 c 39.832 81.82 22.168 124.469 22.168 169.832 c 22.168 249.863
 78.117 318.957 155.844 335.793 c 192 384 l 228.156 335.793 l 305.883 318.953
 361.832 249.863 361.832 169.832 c 361.832 124.469 344.168 81.82 312.09 
49.742 c h
219.609 314.523 m 215.316 315.34 l 192 346.426 l 168.684 315.34 l 164.391
 314.527 l 95.043 301.379 44.711 240.527 44.711 169.832 c 44.711 88.617 
110.785 22.543 192 22.543 c 273.215 22.543 339.289 88.617 339.289 169.832
 c 339.289 240.523 288.957 301.379 219.609 314.523 c h
219.609 314.523 m f
Q Q
showpage
%%Trailer
end
%%EOF
