%!PS-Adobe-3.0 EPSF-3.0
%%Creator: cairo 1.16.0 (https://cairographics.org)
%%CreationDate: Tue May  5 07:54:08 2020
%%Pages: 1
%%DocumentData: Clean7Bit
%%LanguageLevel: 2
%%BoundingBox: 0 0 384 384
%%EndComments
%%BeginProlog
50 dict begin
/q { gsave } bind def
/Q { grestore } bind def
/cm { 6 array astore concat } bind def
/w { setlinewidth } bind def
/J { setlinecap } bind def
/j { setlinejoin } bind def
/M { setmiterlimit } bind def
/d { setdash } bind def
/m { moveto } bind def
/l { lineto } bind def
/c { curveto } bind def
/h { closepath } bind def
/re { exch dup neg 3 1 roll 5 3 roll moveto 0 rlineto
      0 exch rlineto 0 rlineto closepath } bind def
/S { stroke } bind def
/f { fill } bind def
/f* { eofill } bind def
/n { newpath } bind def
/W { clip } bind def
/W* { eoclip } bind def
/BT { } bind def
/ET { } bind def
/BDC { mark 3 1 roll /BDC pdfmark } bind def
/EMC { mark /EMC pdfmark } bind def
/cairo_store_point { /cairo_point_y exch def /cairo_point_x exch def } def
/Tj { show currentpoint cairo_store_point } bind def
/TJ {
  {
    dup
    type /stringtype eq
    { show } { -0.001 mul 0 cairo_font_matrix dtransform rmoveto } ifelse
  } forall
  currentpoint cairo_store_point
} bind def
/cairo_selectfont { cairo_font_matrix aload pop pop pop 0 0 6 array astore
    cairo_font exch selectfont cairo_point_x cairo_point_y moveto } bind def
/Tf { pop /cairo_font exch def /cairo_font_matrix where
      { pop cairo_selectfont } if } bind def
/Td { matrix translate cairo_font_matrix matrix concatmatrix dup
      /cairo_font_matrix exch def dup 4 get exch 5 get cairo_store_point
      /cairo_font where { pop cairo_selectfont } if } bind def
/Tm { 2 copy 8 2 roll 6 array astore /cairo_font_matrix exch def
      cairo_store_point /cairo_font where { pop cairo_selectfont } if } bind def
/g { setgray } bind def
/rg { setrgbcolor } bind def
/d1 { setcachedevice } bind def
/cairo_data_source {
  CairoDataIndex CairoData length lt
    { CairoData CairoDataIndex get /CairoDataIndex CairoDataIndex 1 add def }
    { () } ifelse
} def
/cairo_flush_ascii85_file { cairo_ascii85_file status { cairo_ascii85_file flushfile } if } def
/cairo_image { image cairo_flush_ascii85_file } def
/cairo_imagemask { imagemask cairo_flush_ascii85_file } def
%%EndProlog
%%BeginSetup
%%EndSetup
%%Page: 1 1
%%BeginPageSetup
%%PageBoundingBox: 0 0 384 384
%%EndPageSetup
q 0 0 384 384 rectclip
1 0 0 -1 0 384 cm q
0 g
259.875 0 m 191.434 0 135.75 55.684 135.75 124.125 c 135.75 154.305 146.582
 182 164.555 203.535 c 148.227 219.867 l 132.316 203.953 l 9.871 326.402
 l -3.289 339.559 -3.289 360.973 9.871 374.129 c 23.027 387.289 44.441 387.289
 57.598 374.129 c 180.047 251.684 l 164.137 235.773 l 180.465 219.445 l 
202 237.418 229.695 248.25 259.875 248.25 c 328.316 248.25 384 192.566 384
 124.125 c 384 55.684 328.316 0 259.875 0 c h
41.691 358.223 m 37.305 362.609 30.164 362.605 25.781 358.223 c 21.395 
353.836 21.395 346.695 25.781 342.312 c 33.734 334.355 l 49.645 350.266 
l h
65.555 334.355 m 49.645 318.445 l 132.316 235.773 l 148.227 251.684 l h
259.875 225.75 m 203.84 225.75 158.25 180.16 158.25 124.125 c 158.25 68.09
 203.84 22.5 259.875 22.5 c 315.91 22.5 361.5 68.09 361.5 124.125 c 361.5
 180.16 315.91 225.75 259.875 225.75 c h
259.875 225.75 m f
259.875 45 m 216.246 45 180.75 80.496 180.75 124.125 c 180.75 167.754 216.246
 203.25 259.875 203.25 c 303.504 203.25 339 167.754 339 124.125 c 339 80.496
 303.504 45 259.875 45 c h
259.875 180.75 m 228.652 180.75 203.25 155.348 203.25 124.125 c 203.25 
92.902 228.652 67.5 259.875 67.5 c 291.098 67.5 316.5 92.902 316.5 124.125
 c 316.5 155.348 291.098 180.75 259.875 180.75 c h
259.875 180.75 m f
Q Q
showpage
%%Trailer
end
%%EOF
