%!PS-Adobe-3.0 EPSF-3.0
%%Creator: cairo 1.16.0 (https://cairographics.org)
%%CreationDate: Tue May  5 07:54:09 2020
%%Pages: 1
%%DocumentData: Clean7Bit
%%LanguageLevel: 2
%%BoundingBox: 22 0 362 384
%%EndComments
%%BeginProlog
50 dict begin
/q { gsave } bind def
/Q { grestore } bind def
/cm { 6 array astore concat } bind def
/w { setlinewidth } bind def
/J { setlinecap } bind def
/j { setlinejoin } bind def
/M { setmiterlimit } bind def
/d { setdash } bind def
/m { moveto } bind def
/l { lineto } bind def
/c { curveto } bind def
/h { closepath } bind def
/re { exch dup neg 3 1 roll 5 3 roll moveto 0 rlineto
      0 exch rlineto 0 rlineto closepath } bind def
/S { stroke } bind def
/f { fill } bind def
/f* { eofill } bind def
/n { newpath } bind def
/W { clip } bind def
/W* { eoclip } bind def
/BT { } bind def
/ET { } bind def
/BDC { mark 3 1 roll /BDC pdfmark } bind def
/EMC { mark /EMC pdfmark } bind def
/cairo_store_point { /cairo_point_y exch def /cairo_point_x exch def } def
/Tj { show currentpoint cairo_store_point } bind def
/TJ {
  {
    dup
    type /stringtype eq
    { show } { -0.001 mul 0 cairo_font_matrix dtransform rmoveto } ifelse
  } forall
  currentpoint cairo_store_point
} bind def
/cairo_selectfont { cairo_font_matrix aload pop pop pop 0 0 6 array astore
    cairo_font exch selectfont cairo_point_x cairo_point_y moveto } bind def
/Tf { pop /cairo_font exch def /cairo_font_matrix where
      { pop cairo_selectfont } if } bind def
/Td { matrix translate cairo_font_matrix matrix concatmatrix dup
      /cairo_font_matrix exch def dup 4 get exch 5 get cairo_store_point
      /cairo_font where { pop cairo_selectfont } if } bind def
/Tm { 2 copy 8 2 roll 6 array astore /cairo_font_matrix exch def
      cairo_store_point /cairo_font where { pop cairo_selectfont } if } bind def
/g { setgray } bind def
/rg { setrgbcolor } bind def
/d1 { setcachedevice } bind def
/cairo_data_source {
  CairoDataIndex CairoData length lt
    { CairoData CairoDataIndex get /CairoDataIndex CairoDataIndex 1 add def }
    { () } ifelse
} def
/cairo_flush_ascii85_file { cairo_ascii85_file status { cairo_ascii85_file flushfile } if } def
/cairo_image { image cairo_flush_ascii85_file } def
/cairo_imagemask { imagemask cairo_flush_ascii85_file } def
%%EndProlog
%%BeginSetup
%%EndSetup
%%Page: 1 1
%%BeginPageSetup
%%PageBoundingBox: 22 0 362 384
%%EndPageSetup
q 22 0 340 384 rectclip
1 0 0 -1 0 384 cm q
0 g
361.5 157.5 m 331.531 157.5 l 332.773 135 l 355.875 135 l 355.875 101.25
 l 355.875 70.234 330.641 45 299.625 45 c 248.625 45 l 248.625 0 l 135.375
 0 l 135.375 45 l 84.375 45 l 53.359 45 28.125 70.234 28.125 101.25 c 28.125
 135 l 51.23 135 l 52.469 157.5 l 22.5 157.5 l 22.5 180 l 53.711 180 l 61.875
 328.059 l 61.875 384 l 322.125 384 l 322.125 328.059 l 330.289 180 l 361.5
 180 l h
263 316.5 m 268.008 135 l 310.238 135 l 300.227 316.5 l h
143.508 316.5 m 138.5 135 l 180.75 135 l 180.75 316.5 l h
203.25 135 m 245.5 135 l 240.492 316.5 l 203.25 316.5 l h
157.875 22.5 m 226.125 22.5 l 226.125 45 l 157.875 45 l h
50.625 101.25 m 50.625 82.641 65.766 67.5 84.375 67.5 c 299.625 67.5 l 
318.234 67.5 333.375 82.641 333.375 101.25 c 333.375 112.5 l 50.625 112.5
 l h
115.992 135 m 121 316.5 l 83.773 316.5 l 73.762 135 l h
84.375 361.5 m 84.375 339 l 299.625 339 l 299.625 361.5 l h
84.375 361.5 m f
Q Q
showpage
%%Trailer
end
%%EOF
