%!PS-Adobe-3.0 EPSF-3.0
%%Creator: cairo 1.16.0 (https://cairographics.org)
%%CreationDate: Tue May  5 07:54:10 2020
%%Pages: 1
%%DocumentData: Clean7Bit
%%LanguageLevel: 2
%%BoundingBox: 57 0 327 384
%%EndComments
%%BeginProlog
50 dict begin
/q { gsave } bind def
/Q { grestore } bind def
/cm { 6 array astore concat } bind def
/w { setlinewidth } bind def
/J { setlinecap } bind def
/j { setlinejoin } bind def
/M { setmiterlimit } bind def
/d { setdash } bind def
/m { moveto } bind def
/l { lineto } bind def
/c { curveto } bind def
/h { closepath } bind def
/re { exch dup neg 3 1 roll 5 3 roll moveto 0 rlineto
      0 exch rlineto 0 rlineto closepath } bind def
/S { stroke } bind def
/f { fill } bind def
/f* { eofill } bind def
/n { newpath } bind def
/W { clip } bind def
/W* { eoclip } bind def
/BT { } bind def
/ET { } bind def
/BDC { mark 3 1 roll /BDC pdfmark } bind def
/EMC { mark /EMC pdfmark } bind def
/cairo_store_point { /cairo_point_y exch def /cairo_point_x exch def } def
/Tj { show currentpoint cairo_store_point } bind def
/TJ {
  {
    dup
    type /stringtype eq
    { show } { -0.001 mul 0 cairo_font_matrix dtransform rmoveto } ifelse
  } forall
  currentpoint cairo_store_point
} bind def
/cairo_selectfont { cairo_font_matrix aload pop pop pop 0 0 6 array astore
    cairo_font exch selectfont cairo_point_x cairo_point_y moveto } bind def
/Tf { pop /cairo_font exch def /cairo_font_matrix where
      { pop cairo_selectfont } if } bind def
/Td { matrix translate cairo_font_matrix matrix concatmatrix dup
      /cairo_font_matrix exch def dup 4 get exch 5 get cairo_store_point
      /cairo_font where { pop cairo_selectfont } if } bind def
/Tm { 2 copy 8 2 roll 6 array astore /cairo_font_matrix exch def
      cairo_store_point /cairo_font where { pop cairo_selectfont } if } bind def
/g { setgray } bind def
/rg { setrgbcolor } bind def
/d1 { setcachedevice } bind def
/cairo_data_source {
  CairoDataIndex CairoData length lt
    { CairoData CairoDataIndex get /CairoDataIndex CairoDataIndex 1 add def }
    { () } ifelse
} def
/cairo_flush_ascii85_file { cairo_ascii85_file status { cairo_ascii85_file flushfile } if } def
/cairo_image { image cairo_flush_ascii85_file } def
/cairo_imagemask { imagemask cairo_flush_ascii85_file } def
%%EndProlog
%%BeginSetup
%%EndSetup
%%Page: 1 1
%%BeginPageSetup
%%PageBoundingBox: 57 0 327 384
%%EndPageSetup
q 57 0 270 384 rectclip
1 0 0 -1 0 384 cm q
0 g
270.75 215.25 m 113.25 215.25 l 113.25 327.75 l 270.75 327.75 l h
248.25 260.25 m 225.75 260.25 l 225.75 237.75 l 248.25 237.75 l h
180.75 260.25 m 180.75 237.75 l 203.25 237.75 l 203.25 260.25 l h
203.25 282.75 m 203.25 305.25 l 180.75 305.25 l 180.75 282.75 l h
158.25 237.75 m 158.25 260.25 l 135.75 260.25 l 135.75 237.75 l h
135.75 282.75 m 158.25 282.75 l 158.25 305.25 l 135.75 305.25 l h
225.75 305.25 m 225.75 282.75 l 248.25 282.75 l 248.25 305.25 l h
225.75 305.25 m f
293.25 159 m 293.25 101.25 l 293.25 45.422 247.828 0 192 0 c 136.172 0 
90.75 45.422 90.75 101.25 c 90.75 159 l 57 159 l 57 384 l 327 384 l 327 
159 l h
113.25 101.25 m 113.25 57.828 148.578 22.5 192 22.5 c 235.422 22.5 270.75
 57.828 270.75 101.25 c 270.75 159 l 248.25 159 l 248.25 101.25 l 248.25
 70.234 223.016 45 192 45 c 160.984 45 135.75 70.234 135.75 101.25 c 135.75
 159 l 113.25 159 l h
225.75 159 m 158.25 159 l 158.25 101.25 l 158.25 82.641 173.391 67.5 192
 67.5 c 210.609 67.5 225.75 82.641 225.75 101.25 c h
304.5 361.5 m 79.5 361.5 l 79.5 181.5 l 304.5 181.5 l h
304.5 361.5 m f
Q Q
showpage
%%Trailer
end
%%EOF
