%!PS-Adobe-3.0 EPSF-3.0
%%Creator: cairo 1.16.0 (https://cairographics.org)
%%CreationDate: Tue May  5 07:54:10 2020
%%Pages: 1
%%DocumentData: Clean7Bit
%%LanguageLevel: 2
%%BoundingBox: 22 0 362 384
%%EndComments
%%BeginProlog
50 dict begin
/q { gsave } bind def
/Q { grestore } bind def
/cm { 6 array astore concat } bind def
/w { setlinewidth } bind def
/J { setlinecap } bind def
/j { setlinejoin } bind def
/M { setmiterlimit } bind def
/d { setdash } bind def
/m { moveto } bind def
/l { lineto } bind def
/c { curveto } bind def
/h { closepath } bind def
/re { exch dup neg 3 1 roll 5 3 roll moveto 0 rlineto
      0 exch rlineto 0 rlineto closepath } bind def
/S { stroke } bind def
/f { fill } bind def
/f* { eofill } bind def
/n { newpath } bind def
/W { clip } bind def
/W* { eoclip } bind def
/BT { } bind def
/ET { } bind def
/BDC { mark 3 1 roll /BDC pdfmark } bind def
/EMC { mark /EMC pdfmark } bind def
/cairo_store_point { /cairo_point_y exch def /cairo_point_x exch def } def
/Tj { show currentpoint cairo_store_point } bind def
/TJ {
  {
    dup
    type /stringtype eq
    { show } { -0.001 mul 0 cairo_font_matrix dtransform rmoveto } ifelse
  } forall
  currentpoint cairo_store_point
} bind def
/cairo_selectfont { cairo_font_matrix aload pop pop pop 0 0 6 array astore
    cairo_font exch selectfont cairo_point_x cairo_point_y moveto } bind def
/Tf { pop /cairo_font exch def /cairo_font_matrix where
      { pop cairo_selectfont } if } bind def
/Td { matrix translate cairo_font_matrix matrix concatmatrix dup
      /cairo_font_matrix exch def dup 4 get exch 5 get cairo_store_point
      /cairo_font where { pop cairo_selectfont } if } bind def
/Tm { 2 copy 8 2 roll 6 array astore /cairo_font_matrix exch def
      cairo_store_point /cairo_font where { pop cairo_selectfont } if } bind def
/g { setgray } bind def
/rg { setrgbcolor } bind def
/d1 { setcachedevice } bind def
/cairo_data_source {
  CairoDataIndex CairoData length lt
    { CairoData CairoDataIndex get /CairoDataIndex CairoDataIndex 1 add def }
    { () } ifelse
} def
/cairo_flush_ascii85_file { cairo_ascii85_file status { cairo_ascii85_file flushfile } if } def
/cairo_image { image cairo_flush_ascii85_file } def
/cairo_imagemask { imagemask cairo_flush_ascii85_file } def
%%EndProlog
%%BeginSetup
%%EndSetup
%%Page: 1 1
%%BeginPageSetup
%%PageBoundingBox: 22 0 362 384
%%EndPageSetup
q 22 0 340 384 rectclip
1 0 0 -1 0 384 cm q
0 g
192 0 m 22.5 48.199 l 22.5 148.203 l 22.5 200.648 38.637 250.805 69.168
 293.242 c 99.047 334.777 140.227 365.699 188.25 382.676 c 192 384 l 195.75
 382.676 l 243.773 365.699 284.953 334.773 314.832 293.242 c 345.363 250.805
 361.5 200.648 361.5 148.203 c 361.5 48.199 l h
192 311.207 m 165.078 298.137 141.629 278.383 123.965 253.824 c 105.816
 228.598 94.66 199.613 91.18 169.02 c 192 140.352 l 292.82 169.023 l 289.34
 199.613 278.184 228.602 260.035 253.824 c 242.371 278.383 218.922 298.141
 192 311.207 c h
294 145.965 m 192 116.961 l 90 145.965 l 90 99.18 l 192 70.176 l 294 99.18
 l h
45 148.203 m 45 65.191 l 180.75 26.59 l 180.75 49.984 l 67.5 82.188 l 67.5
 148.203 l 67.5 191.16 80.707 232.227 105.699 266.965 c 125.234 294.117 
151.074 316.051 180.75 330.746 c 180.75 355.543 l 98.93 319.863 45 238.48
 45 148.203 c h
339 148.203 m 339 238.48 285.07 319.863 203.25 355.543 c 203.25 330.746
 l 232.926 316.051 258.766 294.117 278.301 266.965 c 303.293 232.227 316.5
 191.16 316.5 148.203 c 316.5 82.188 l 203.25 49.984 l 203.25 26.59 l 339
 65.191 l h
339 148.203 m f
Q Q
showpage
%%Trailer
end
%%EOF
