%!PS-Adobe-3.0 EPSF-3.0
%%Creator: cairo 1.16.0 (https://cairographics.org)
%%CreationDate: Tue May  5 07:54:13 2020
%%Pages: 1
%%DocumentData: Clean7Bit
%%LanguageLevel: 2
%%BoundingBox: 0 22 384 362
%%EndComments
%%BeginProlog
50 dict begin
/q { gsave } bind def
/Q { grestore } bind def
/cm { 6 array astore concat } bind def
/w { setlinewidth } bind def
/J { setlinecap } bind def
/j { setlinejoin } bind def
/M { setmiterlimit } bind def
/d { setdash } bind def
/m { moveto } bind def
/l { lineto } bind def
/c { curveto } bind def
/h { closepath } bind def
/re { exch dup neg 3 1 roll 5 3 roll moveto 0 rlineto
      0 exch rlineto 0 rlineto closepath } bind def
/S { stroke } bind def
/f { fill } bind def
/f* { eofill } bind def
/n { newpath } bind def
/W { clip } bind def
/W* { eoclip } bind def
/BT { } bind def
/ET { } bind def
/BDC { mark 3 1 roll /BDC pdfmark } bind def
/EMC { mark /EMC pdfmark } bind def
/cairo_store_point { /cairo_point_y exch def /cairo_point_x exch def } def
/Tj { show currentpoint cairo_store_point } bind def
/TJ {
  {
    dup
    type /stringtype eq
    { show } { -0.001 mul 0 cairo_font_matrix dtransform rmoveto } ifelse
  } forall
  currentpoint cairo_store_point
} bind def
/cairo_selectfont { cairo_font_matrix aload pop pop pop 0 0 6 array astore
    cairo_font exch selectfont cairo_point_x cairo_point_y moveto } bind def
/Tf { pop /cairo_font exch def /cairo_font_matrix where
      { pop cairo_selectfont } if } bind def
/Td { matrix translate cairo_font_matrix matrix concatmatrix dup
      /cairo_font_matrix exch def dup 4 get exch 5 get cairo_store_point
      /cairo_font where { pop cairo_selectfont } if } bind def
/Tm { 2 copy 8 2 roll 6 array astore /cairo_font_matrix exch def
      cairo_store_point /cairo_font where { pop cairo_selectfont } if } bind def
/g { setgray } bind def
/rg { setrgbcolor } bind def
/d1 { setcachedevice } bind def
/cairo_data_source {
  CairoDataIndex CairoData length lt
    { CairoData CairoDataIndex get /CairoDataIndex CairoDataIndex 1 add def }
    { () } ifelse
} def
/cairo_flush_ascii85_file { cairo_ascii85_file status { cairo_ascii85_file flushfile } if } def
/cairo_image { image cairo_flush_ascii85_file } def
/cairo_imagemask { imagemask cairo_flush_ascii85_file } def
%%EndProlog
%%BeginSetup
%%EndSetup
%%Page: 1 1
%%BeginPageSetup
%%PageBoundingBox: 0 22 384 362
%%EndPageSetup
q 0 22 384 340 rectclip
1 0 0 -1 0 384 cm q
0 g
0 22.5 m 0 361.5 l 384 361.5 l 384 22.5 l h
361.5 339 m 22.5 339 l 22.5 45 l 361.5 45 l h
361.5 339 m f
339 67.5 m 45 67.5 l 45 316.5 l 339 316.5 l h
316.5 90 m 316.5 248.832 l 258.77 247.098 228.734 232.004 197.055 216.074
 c 164.398 199.656 130.688 182.715 67.5 180.91 c 67.5 90 l h
67.5 294 m 67.5 203.418 l 125.23 205.152 155.266 220.246 186.945 236.176
 c 219.602 252.594 253.312 269.535 316.5 271.34 c 316.5 294 l h
67.5 294 m f
248.625 203.25 m 273.645 203.25 294 182.895 294 157.875 c 294 132.855 273.645
 112.5 248.625 112.5 c 223.605 112.5 203.25 132.855 203.25 157.875 c 203.25
 182.895 223.605 203.25 248.625 203.25 c h
248.625 135 m 261.238 135 271.5 145.262 271.5 157.875 c 271.5 170.488 261.238
 180.75 248.625 180.75 c 236.012 180.75 225.75 170.488 225.75 157.875 c 
225.75 145.262 236.012 135 248.625 135 c h
248.625 135 m f
Q Q
showpage
%%Trailer
end
%%EOF
