%!PS-Adobe-3.0 EPSF-3.0
%%Creator: cairo 1.16.0 (https://cairographics.org)
%%CreationDate: Tue May  5 07:54:13 2020
%%Pages: 1
%%DocumentData: Clean7Bit
%%LanguageLevel: 2
%%BoundingBox: 0 0 384 384
%%EndComments
%%BeginProlog
50 dict begin
/q { gsave } bind def
/Q { grestore } bind def
/cm { 6 array astore concat } bind def
/w { setlinewidth } bind def
/J { setlinecap } bind def
/j { setlinejoin } bind def
/M { setmiterlimit } bind def
/d { setdash } bind def
/m { moveto } bind def
/l { lineto } bind def
/c { curveto } bind def
/h { closepath } bind def
/re { exch dup neg 3 1 roll 5 3 roll moveto 0 rlineto
      0 exch rlineto 0 rlineto closepath } bind def
/S { stroke } bind def
/f { fill } bind def
/f* { eofill } bind def
/n { newpath } bind def
/W { clip } bind def
/W* { eoclip } bind def
/BT { } bind def
/ET { } bind def
/BDC { mark 3 1 roll /BDC pdfmark } bind def
/EMC { mark /EMC pdfmark } bind def
/cairo_store_point { /cairo_point_y exch def /cairo_point_x exch def } def
/Tj { show currentpoint cairo_store_point } bind def
/TJ {
  {
    dup
    type /stringtype eq
    { show } { -0.001 mul 0 cairo_font_matrix dtransform rmoveto } ifelse
  } forall
  currentpoint cairo_store_point
} bind def
/cairo_selectfont { cairo_font_matrix aload pop pop pop 0 0 6 array astore
    cairo_font exch selectfont cairo_point_x cairo_point_y moveto } bind def
/Tf { pop /cairo_font exch def /cairo_font_matrix where
      { pop cairo_selectfont } if } bind def
/Td { matrix translate cairo_font_matrix matrix concatmatrix dup
      /cairo_font_matrix exch def dup 4 get exch 5 get cairo_store_point
      /cairo_font where { pop cairo_selectfont } if } bind def
/Tm { 2 copy 8 2 roll 6 array astore /cairo_font_matrix exch def
      cairo_store_point /cairo_font where { pop cairo_selectfont } if } bind def
/g { setgray } bind def
/rg { setrgbcolor } bind def
/d1 { setcachedevice } bind def
/cairo_data_source {
  CairoDataIndex CairoData length lt
    { CairoData CairoDataIndex get /CairoDataIndex CairoDataIndex 1 add def }
    { () } ifelse
} def
/cairo_flush_ascii85_file { cairo_ascii85_file status { cairo_ascii85_file flushfile } if } def
/cairo_image { image cairo_flush_ascii85_file } def
/cairo_imagemask { imagemask cairo_flush_ascii85_file } def
%%EndProlog
%%BeginSetup
%%EndSetup
%%Page: 1 1
%%BeginPageSetup
%%PageBoundingBox: 0 0 384 384
%%EndPageSetup
q 0 0 384 384 rectclip
1 0 0 -1 0 384 cm q
0 g
354.172 29.828 m 314.402 -9.941 249.691 -9.941 209.922 29.828 c 29.875 
209.875 l 10.609 229.141 0 254.754 0 282 c 0 309.246 10.609 334.859 29.875
 354.125 c 49.141 373.391 74.758 384 102 384 c 129.246 384 154.859 373.391
 174.125 354.125 c 354.125 174.125 l 354.125 174.125 354.172 174.078 354.172
 174.078 c 393.941 134.309 393.941 69.598 354.172 29.828 c h
158.215 338.215 m 143.199 353.23 123.234 361.5 102 361.5 c 80.766 361.5
 60.801 353.23 45.785 338.215 c 30.77 323.199 22.5 303.234 22.5 282 c 22.5
 260.766 30.77 240.801 45.785 225.785 c 90.703 180.867 l 89.598 191.047 
90.012 201.359 91.957 211.434 c 61.695 241.695 l 39.473 263.918 39.473 300.082
 61.695 322.305 c 83.922 344.531 120.082 344.527 142.305 322.305 c 172.566
 292.043 l 182.641 293.988 192.953 294.402 203.133 293.297 c h
99.777 235.434 m 104.652 245.805 111.363 255.52 119.922 264.078 c 128.48
 272.637 138.195 279.348 148.566 284.223 c 126.395 306.395 l 112.945 319.848
 91.055 319.848 77.605 306.395 c 64.152 292.945 64.152 271.055 77.605 257.605
 c h
338.262 158.168 m 248.262 248.168 l 217.266 279.164 166.828 279.164 135.832
 248.168 c 104.84 217.172 104.836 166.746 135.82 135.746 c 172.879 98.691
 l 188.789 114.602 l 151.742 151.648 l 129.52 173.871 129.52 210.031 151.742
 232.258 c 173.969 254.48 210.129 254.48 232.352 232.258 c 322.352 142.258
 l 344.578 120.031 344.578 83.871 322.352 61.648 c 300.129 39.422 263.969
 39.422 241.742 61.648 c 204.699 98.691 l 188.789 82.781 l 225.785 45.785
 l 225.785 45.785 225.832 45.738 225.832 45.738 c 256.828 14.742 307.266
 14.742 338.262 45.738 c 369.258 76.734 369.262 127.172 338.262 158.168 
c h
257.652 77.559 m 271.102 64.105 292.992 64.105 306.441 77.559 c 319.895
 91.008 319.895 112.895 306.441 126.348 c 216.441 216.348 l 202.992 229.797
 181.102 229.797 167.652 216.348 c 154.199 202.895 154.199 181.008 167.652
 167.559 c h
257.652 77.559 m f
Q Q
showpage
%%Trailer
end
%%EOF
