%!PS-Adobe-3.0 EPSF-3.0
%%Creator: cairo 1.16.0 (https://cairographics.org)
%%CreationDate: Tue May  5 07:54:14 2020
%%Pages: 1
%%DocumentData: Clean7Bit
%%LanguageLevel: 2
%%BoundingBox: 0 0 384 384
%%EndComments
%%BeginProlog
50 dict begin
/q { gsave } bind def
/Q { grestore } bind def
/cm { 6 array astore concat } bind def
/w { setlinewidth } bind def
/J { setlinecap } bind def
/j { setlinejoin } bind def
/M { setmiterlimit } bind def
/d { setdash } bind def
/m { moveto } bind def
/l { lineto } bind def
/c { curveto } bind def
/h { closepath } bind def
/re { exch dup neg 3 1 roll 5 3 roll moveto 0 rlineto
      0 exch rlineto 0 rlineto closepath } bind def
/S { stroke } bind def
/f { fill } bind def
/f* { eofill } bind def
/n { newpath } bind def
/W { clip } bind def
/W* { eoclip } bind def
/BT { } bind def
/ET { } bind def
/BDC { mark 3 1 roll /BDC pdfmark } bind def
/EMC { mark /EMC pdfmark } bind def
/cairo_store_point { /cairo_point_y exch def /cairo_point_x exch def } def
/Tj { show currentpoint cairo_store_point } bind def
/TJ {
  {
    dup
    type /stringtype eq
    { show } { -0.001 mul 0 cairo_font_matrix dtransform rmoveto } ifelse
  } forall
  currentpoint cairo_store_point
} bind def
/cairo_selectfont { cairo_font_matrix aload pop pop pop 0 0 6 array astore
    cairo_font exch selectfont cairo_point_x cairo_point_y moveto } bind def
/Tf { pop /cairo_font exch def /cairo_font_matrix where
      { pop cairo_selectfont } if } bind def
/Td { matrix translate cairo_font_matrix matrix concatmatrix dup
      /cairo_font_matrix exch def dup 4 get exch 5 get cairo_store_point
      /cairo_font where { pop cairo_selectfont } if } bind def
/Tm { 2 copy 8 2 roll 6 array astore /cairo_font_matrix exch def
      cairo_store_point /cairo_font where { pop cairo_selectfont } if } bind def
/g { setgray } bind def
/rg { setrgbcolor } bind def
/d1 { setcachedevice } bind def
/cairo_data_source {
  CairoDataIndex CairoData length lt
    { CairoData CairoDataIndex get /CairoDataIndex CairoDataIndex 1 add def }
    { () } ifelse
} def
/cairo_flush_ascii85_file { cairo_ascii85_file status { cairo_ascii85_file flushfile } if } def
/cairo_image { image cairo_flush_ascii85_file } def
/cairo_imagemask { imagemask cairo_flush_ascii85_file } def
%%EndProlog
%%BeginSetup
%%EndSetup
%%Page: 1 1
%%BeginPageSetup
%%PageBoundingBox: 0 0 384 384
%%EndPageSetup
q 0 0 384 384 rectclip
1 0 0 -1 0 384 cm q
0 g
0 0 m 0 384 l 384 384 l 384 0 l h
361.5 69 m 339 69 l 339 22.5 l 361.5 22.5 l h
316.5 22.5 m 316.5 69 l 22.5 69 l 22.5 22.5 l h
22.5 91.5 m 316.5 91.5 l 316.5 361.5 l 22.5 361.5 l h
339 361.5 m 339 91.5 l 361.5 91.5 l 361.5 361.5 l h
339 361.5 m f
45 114 m 45 339 l 218.5 339 l 218.5 271.5 l 294 271.5 l 294 114 l h
271.5 136.5 m 271.5 181.5 l 218.5 181.5 l 218.5 136.5 l h
196 181.5 m 143 181.5 l 143 136.5 l 196 136.5 l h
120.5 136.5 m 120.5 181.5 l 67.5 181.5 l 67.5 136.5 l h
67.5 204 m 120.5 204 l 120.5 249 l 67.5 249 l h
67.5 271.5 m 120.5 271.5 l 120.5 316.5 l 67.5 316.5 l h
196 316.5 m 143 316.5 l 143 271.5 l 196 271.5 l h
143 249 m 143 204 l 196 204 l 196 249 l h
218.5 249 m 218.5 204 l 271.5 204 l 271.5 249 l h
218.5 249 m f
Q Q
showpage
%%Trailer
end
%%EOF
